[
{
"acceleration": -2.0,
"curvature": -0.0,
"pose": {
"rotation": {
"radians": 3.141592653589793
},
"translation": {
"x": 1.643,
"y": 4.99
}
},
"time": 0.0,
"velocity": -0.0
},
{
"acceleration": -2.0,
"curvature": 0.8214280660585156,
"pose": {
"rotation": {
"radians": 3.1116192167058854
},
"translation": {
"x": 1.7064449457818487,
"y": 4.989326329946291
}
},
"time": 0.2518899010620453,
"velocity": -0.5037798021240906
},
{
"acceleration": -1.0168516282406694,
"curvature": 0.9575213113570195,
"pose": {
"rotation": {
"radians": 3.047259531546047
},
"translation": {
"x": 1.7749400239158408,
"y": 4.985113167437474
}
},
"time": 0.36341856694619795,
"velocity": -0.7268371338923959
},
{
"acceleration": -0.511309189225272,
"curvature": 0.7415661446053392,
"pose": {
"rotation": {
"radians": 2.98047087377847
},
"translation": {
"x": 1.8519351531914654,
"y": 4.9751123977637794
}
},
"time": 0.4632663937857643,
"velocity": -0.8283675591905013
},
{
"acceleration": -0.4160394511386475,
"curvature": 0.4806827751801856,
"pose": {
"rotation": {
"radians": 2.9265935547978223
},
"translation": {
"x": 1.9393437120863317,
"y": 4.958301704383407
}
},
"time": 0.5673741987333685,
"velocity": -0.8815988365302836
},
{
"acceleration": -0.2999002080540947,
"curvature": 0.2771111668887796,
"pose": {
"rotation": {
"radians": 2.889012333579002
},
"translation": {
"x": 2.037772600698291,
"y": 4.934683293612899
}
},
"time": 0.6792389113017319,
"velocity": -0.928138970149008
},
{
"acceleration": -0.21669859284407886,
"curvature": 0.1338983593526929,
"pose": {
"rotation": {
"radians": 2.8664195703510185
},
"translation": {
"x": 2.1467523026775526,
"y": 4.905082619317503
}
},
"time": 0.7986084645136888,
"velocity": -0.9639379239925983
},
{
"acceleration": -0.09367585069290592,
"curvature": 0.03172791643070391,
"pose": {
"rotation": {
"radians": 2.856627165011908
},
"translation": {
"x": 2.264966947158807,
"y": 4.870947107601544
}
},
"time": 0.9244754099747066,
"velocity": -0.9912131139595832
},
{
"acceleration": 0.15391802232291452,
"curvature": -0.009691458028701853,
"pose": {
"rotation": {
"radians": 2.855947671241831
},
"translation": {
"x": 2.3269513549330414,
"y": 4.852751646306848
}
},
"time": 0.9894484522989664,
"velocity": -0.9972995189714144
},
{
"acceleration": 0.13597901898964718,
"curvature": -0.047033010880827786,
"pose": {
"rotation": {
"radians": 2.8578481625676675
},
"translation": {
"x": 2.3904843706933416,
"y": 4.83414488149879
}
},
"time": 1.056172903458706,
"velocity": -0.9870294234083254
},
{
"acceleration": 0.12436339559720039,
"curvature": -0.08165599757548862,
"pose": {
"rotation": {
"radians": 2.8622026521179933
},
"translation": {
"x": 2.4552659228282,
"y": 4.815393040721332
}
},
"time": 1.1248247417928166,
"velocity": -0.9776942137798172
},
{
"acceleration": 0.11715169252692577,
"curvature": -0.11463036984082405,
"pose": {
"rotation": {
"radians": 2.868915497867072
},
"translation": {
"x": 2.520986179181162,
"y": 4.7967634856628205
}
},
"time": 1.195006144985421,
"velocity": -0.9689662161710088
},
{
"acceleration": 0.11281878236761164,
"curvature": -0.14675826961519375,
"pose": {
"rotation": {
"radians": 2.8779124273435563
},
"translation": {
"x": 2.5873327364862035,
"y": 4.77851842230256
}
},
"time": 1.2663269602679554,
"velocity": -0.9606108619482596
},
{
"acceleration": 0.10998294507533223,
"curvature": -0.17857035430880808,
"pose": {
"rotation": {
"radians": 2.8891292056829925
},
"translation": {
"x": 2.653997809803111,
"y": 4.760908611057394
}
},
"time": 1.3384111066279365,
"velocity": -0.9524784163279179
},
{
"acceleration": 0.1071935840619707,
"curvature": -0.21028954310367406,
"pose": {
"rotation": {
"radians": 2.902497312045299
},
"translation": {
"x": 2.720685421952858,
"y": 4.744167076928267
}
},
"time": 1.4109018977334862,
"velocity": -0.9445056656312888
},
{
"acceleration": 0.1027358302251731,
"curvature": -0.24175587326739492,
"pose": {
"rotation": {
"radians": 2.9179256602670067
},
"translation": {
"x": 2.7871185929529867,
"y": 4.728502819646814
}
},
"time": 1.4834659344443983,
"velocity": -0.9367272664622417
},
{
"acceleration": 0.09444286557638211,
"curvature": -0.2723080255050376,
"pose": {
"rotation": {
"radians": 2.935277240436887
},
"translation": {
"x": 2.8530465294529845,
"y": 4.71409452382192
}
},
"time": 1.5557951447326916,
"velocity": -0.9292964649937427
},
{
"acceleration": 0.07951877339835682,
"curvature": -0.3006225156041416,
"pose": {
"rotation": {
"radians": 2.9543396584215103
},
"translation": {
"x": 2.9182518141696647,
"y": 4.701084269086304
}
},
"time": 1.6276065499843129,
"velocity": -0.9225143901007128
},
{
"acceleration": 0.0543856713580227,
"curvature": -0.32452394753953023,
"pose": {
"rotation": {
"radians": 2.9747890853884793
},
"translation": {
"x": 2.9825575953225414,
"y": 4.689571240243085
}
},
"time": 1.6986394652230599,
"velocity": -0.9168659398100182
},
{
"acceleration": -0.0150383453825891,
"curvature": -0.3408025912614733,
"pose": {
"rotation": {
"radians": 2.996148348357267
},
"translation": {
"x": 3.0458347760692126,
"y": 4.679605437412365
}
},
"time": 1.7686501786016178,
"velocity": -0.9130583601606712
},
{
"acceleration": -0.19009209962861803,
"curvature": -0.3320506194269095,
"pose": {
"rotation": {
"radians": 3.0386549702467525
},
"translation": {
"x": 3.169068860277016,
"y": 4.664231847733147
}
},
"time": 1.904512824225448,
"velocity": -0.9151015095501547
},
{
"acceleration": -0.5026062301273521,
"curvature": -0.23007941397539516,
"pose": {
"rotation": {
"radians": 3.0734376586617342
},
"translation": {
"x": 3.2881495893598913,
"y": 4.654140792918824
}
},
"time": 2.0333827413498438,
"velocity": -0.939598662675297
},
{
"acceleration": 0.5217678713894097,
"curvature": -2.5400509273360808e-15,
"pose": {
"rotation": {
"radians": 3.0881578900831053
},
"translation": {
"x": 3.404496688758206,
"y": 4.6473200602919515
}
},
"time": 2.153559002016962,
"velocity": -0.9999999999999993
},
{
"acceleration": -0.03069575109718691,
"curvature": -0.2515117832274357,
"pose": {
"rotation": {
"radians": 3.1079952031546383
},
"translation": {
"x": 3.5260747183326684,
"y": 4.64171434044032
}
},
"time": 2.27939737138069,
"velocity": -0.9343415818779728
},
{
"acceleration": -0.1171269919912737,
"curvature": -0.24203207792593315,
"pose": {
"rotation": {
"radians": 3.1257419754135665
},
"translation": {
"x": 3.5966971072108356,
"y": 4.639972390754032
}
},
"time": 2.354911883214317,
"velocity": -0.9366595565374434
},
{
"acceleration": -0.10821004598888184,
"curvature": -0.20138779858336223,
"pose": {
"rotation": {
"radians": -3.1394550807909978
},
"translation": {
"x": 3.6776583695837597,
"y": 4.639439763554371
}
},
"time": 2.4408877548170853,
"velocity": -0.9467296517621036
},
{
"acceleration": -0.07740866097643673,
"curvature": -0.15956393577768455,
"pose": {
"rotation": {
"radians": -3.1227324052214547
},
"translation": {
"x": 3.770831202038962,
"y": 4.640448322096373
}
},
"time": 2.538761528829509,
"velocity": -0.9573205773490934
},
{
"acceleration": -0.05024983593320608,
"curvature": -0.12635063706317762,
"pose": {
"rotation": {
"radians": -3.107619377402627
},
"translation": {
"x": 3.8773885768668817,
"y": 4.6432952559760325
}
},
"time": 2.6496123832427947,
"velocity": -0.9659013935573197
},
{
"acceleration": -0.03512282589607047,
"curvature": -0.10251822087902793,
"pose": {
"rotation": {
"radians": -3.093935834331378
},
"translation": {
"x": 3.997863819472032,
"y": 4.648243968741232
}
},
"time": 2.774043126743969,
"velocity": -0.9721540180033006
},
{
"acceleration": -0.0274120985160119,
"curvature": -0.09358237051650221,
"pose": {
"rotation": {
"radians": -3.087521044270492
},
"translation": {
"x": 4.0633271866100085,
"y": 4.651579785877592
}
},
"time": 2.8413870433204327,
"velocity": -0.9745193266603752
},
{
"acceleration": -0.021195191485109583,
"curvature": -0.08628988067504742,
"pose": {
"rotation": {
"radians": -3.0813265875184492
},
"translation": {
"x": 4.132210685784149,
"y": 4.655524965502662
}
},
"time": 2.9121171084186863,
"velocity": -0.9764581861728925
},
{
"acceleration": -0.01617864254087296,
"curvature": -0.08040801652408724,
"pose": {
"rotation": {
"radians": -3.075304760112191
},
"translation": {
"x": 4.204427835205505,
"y": 4.660103325998133
}
},
"time": 2.9861643393699566,
"velocity": -0.9780276314118468
},
{
"acceleration": -0.012106118431595935,
"curvature": -0.0757365944497103,
"pose": {
"rotation": {
"radians": -3.069409470709061
},
"translation": {
"x": 4.279863439669345,
"y": 4.665336740544738
}
},
"time": 3.0634306932358406,
"velocity": -0.9792776961314795
},
{
"acceleration": -0.008763941258529383,
"curvature": -0.0721093524573735,
"pose": {
"rotation": {
"radians": -3.0635965011572432
},
"translation": {
"x": 4.358375467974261,
"y": 4.671245164860093
}
},
"time": 3.1437908860877037,
"velocity": -0.9802505461433301
},
{
"acceleration": -0.005978154641346077,
"curvature": -0.06939204719413575,
"pose": {
"rotation": {
"radians": -3.057823414992304
},
"translation": {
"x": 4.439796930341259,
"y": 4.677846664936531
}
},
"time": 3.227094317490363,
"velocity": -0.9809806125227769
},
{
"acceleration": -0.0036084063784889743,
"curvature": -0.06747929904306232,
"pose": {
"rotation": {
"radians": -3.0520492543002677
},
"translation": {
"x": 4.523937755832865,
"y": 4.685157444778957
}
},
"time": 3.3131670594212124,
"velocity": -0.9814951686844442
},
{
"acceleration": -0.0015411829476720716,
"curvature": -0.06629124997095666,
"pose": {
"rotation": {
"radians": -3.046234110981407
},
"translation": {
"x": 4.610586669772213,
"y": 4.693191874142677
}
},
"time": 3.4018138847946875,
"velocity": -0.9818150424545546
},
{
"acceleration": 0.0003165215105610148,
"curvature": -0.06577056085142709,
"pose": {
"rotation": {
"radians": -3.0403386225080715
},
"translation": {
"x": 4.6995130711621576,
"y": 4.701962516271247
}
},
"time": 3.4928203213494613,
"velocity": -0.9819553000227013
},
{
"acceleration": 0.0020427508415746132,
"curvature": -0.0658799858527654,
"pose": {
"rotation": {
"radians": -3.034323418722688
},
"translation": {
"x": 4.790468910104359,
"y": 4.711480155634308
}
},
"time": 3.58595472364123,
"velocity": -0.9819258209810027
},
{
"acceleration": 0.0037053431645694347,
"curvature": -0.06660061624237373,
"pose": {
"rotation": {
"radians": -3.028148530756844
},
"translation": {
"x": 4.88319056521839,
"y": 4.721753825665434
}
},
"time": 3.680970360521372,
"velocity": -0.981731727708803
},
{
"acceleration": 0.005366045093522469,
"curvature": -0.06793082242577517,
"pose": {
"rotation": {
"radians": -3.0217727628061852
},
"translation": {
"x": 4.977400721060832,
"y": 4.732790836499968
}
},
"time": 3.7776075186417586,
"velocity": -0.9813736538755182
},
{
"acceleration": 0.007084189616683018,
"curvature": -0.06988590562257903,
"pose": {
"rotation": {
"radians": -3.0151530202655987
},
"translation": {
"x": 5.072810245544373,
"y": 4.744596802712865
}
},
"time": 3.875595624792645,
"velocity": -0.9808478452792837
},
{
"acceleration": 0.008920163154819543,
"curvature": -0.07249847976424746,
"pose": {
"rotation": {
"radians": -3.0082435822643006
},
"translation": {
"x": 5.169120067356906,
"y": 4.757175671056535
}
},
"time": 3.974655391668201,
"velocity": -0.9801460871073528
},
{
"acceleration": 0.01093889649479346,
"curvature": -0.07581963004102632,
"pose": {
"rotation": {
"radians": -3.0009953020193496
},
"translation": {
"x": 5.266023053380629,
"y": 4.7705297481986815
}
},
"time": 4.074500993228828,
"velocity": -0.979255448051141
},
{
"acceleration": 0.013213627194965369,
"curvature": -0.07992093285583358,
"pose": {
"rotation": {
"radians": -2.9933547140000996
},
"translation": {
"x": 5.3632058861111425,
"y": 4.784659728460145
}
},
"time": 4.174842277400082,
"velocity": -0.9781578251294369
},
{
"acceleration": 0.0158302050329793,
"curvature": -0.08489747221225374,
"pose": {
"rotation": {
"radians": -2.9852630221847365
},
"translation": {
"x": 5.460350941076548,
"y": 4.799564721552743
}
},
"time": 4.275387025565264,
"velocity": -0.9768292643107706
},
{
"acceleration": 0.01889225068234065,
"curvature": -0.09087205172719111,
"pose": {
"rotation": {
"radians": -2.976654938312688
},
"translation": {
"x": 5.557138164256543,
"y": 4.815242280317111
}
},
"time": 4.3758432703003685,
"velocity": -0.9752390213597707
},
{
"acceleration": 0.02252753176195875,
"curvature": -0.09800088347174185,
"pose": {
"rotation": {
"radians": -2.9674573326728204
},
"translation": {
"x": 5.653246949501529,
"y": 4.831688428460547
}
},
"time": 4.475921685180608,
"velocity": -0.9733483148579619
},
{
"acceleration": 0.026895986454351827,
"curvature": -0.10648114050841817,
"pose": {
"rotation": {
"radians": -2.957587652341049
},
"translation": {
"x": 5.748358015951702,
"y": 4.848897688294846
}
},
"time": 4.575338063362212,
"velocity": -0.9711087092408169
},
{
"acceleration": 0.032199892257901486,
"curvature": -0.11656089694125957,
"pose": {
"rotation": {
"radians": -2.9469520526732085
},
"translation": {
"x": 5.842155285456149,
"y": 4.866863108474149
}
},
"time": 4.6738159051061094,
"velocity": -0.9684600505432193
},
{
"acceleration": 0.038696720301848335,
"curvature": -0.12855215686317234,
"pose": {
"rotation": {
"radians": -2.9354431771586564
},
"translation": {
"x": 5.934327759991957,
"y": 4.88557629173278
}
},
"time": 4.771089138529987,
"velocity": -0.9653278629073927
},
{
"acceleration": 0.0467151789492614,
"curvature": -0.14284790215551058,
"pose": {
"rotation": {
"radians": -2.922937508556681
},
"translation": {
"x": 6.0245713990833,
"y": 4.905027422623086
}
},
"time": 4.866905002662084,
"velocity": -0.9616201032125931
},
{
"acceleration": 0.05667472455598816,
"curvature": -0.15994437810922058,
"pose": {
"rotation": {
"radians": -2.9092922011210103
},
"translation": {
"x": 6.112590997220545,
"y": 4.925205295253285
}
},
"time": 4.961027127209654,
"velocity": -0.9572231713212687
},
{
"acceleration": 0.06910819551464559,
"curvature": -0.18047018886038824,
"pose": {
"rotation": {
"radians": -2.894341291059525
},
"translation": {
"x": 6.1981020612793465,
"y": 4.946097341025299
}
},
"time": 5.053238848987113,
"velocity": -0.9519970973886978
},
{
"acceleration": 0.0846858379733165,
"curvature": -0.2052241783066928,
"pose": {
"rotation": {
"radians": -2.8778911731309713
},
"translation": {
"x": 6.280832687939748,
"y": 4.967689656372599
}
},
"time": 5.143346809849967,
"velocity": -0.9457698988119616
},
{
"acceleration": 0.104236215381689,
"curvature": -0.235224472894133,
"pose": {
"rotation": {
"radians": -2.8597152312267267
},
"translation": {
"x": 6.360525441105279,
"y": 4.989967030498048
}
},
"time": 5.2311848835806085,
"velocity": -0.9383312579321202
},
{
"acceleration": 0.12875437240974522,
"curvature": -0.27177131940196164,
"pose": {
"rotation": {
"radians": -2.8395475307009512
},
"translation": {
"x": 6.436939229322053,
"y": 5.01291297311174
}
},
"time": 5.316618476299382,
"velocity": -0.9294259835606546
},
{
"acceleration": 0.1593789021182093,
"curvature": -0.3165261430029256,
"pose": {
"rotation": {
"radians": -2.81707553953569
},
"translation": {
"x": 6.509851183197863,
"y": 5.036509742168841
}
},
"time": 5.399549230860417,
"velocity": -0.918748286303682
},
{
"acceleration": 0.19730614612766423,
"curvature": -0.37160790519236353,
"pose": {
"rotation": {
"radians": -2.7919319782402514
},
"translation": {
"x": 6.5790585328212945,
"y": 5.0607383716074335
}
},
"time": 5.4799201302080665,
"velocity": -0.9059388606034006
},
{
"acceleration": 0.24359221690132152,
"curvature": -0.4397040230089873,
"pose": {
"rotation": {
"radians": -2.7636861627007967
},
"translation": {
"x": 6.644380485180802,
"y": 5.085578699086351
}
},
"time": 5.5577209206428435,
"velocity": -0.8905882864770287
},
{
"acceleration": 0.3296421361006388,
"curvature": -0.5241843166201464,
"pose": {
"rotation": {
"radians": -2.7318356951614295
},
"translation": {
"x": 6.705660101583822,
"y": 5.11100939372303
}
},
"time": 5.632993635452142,
"velocity": -0.8722524390044507
},
{
"acceleration": 0.43150287892082734,
"curvature": -0.7596216819698737,
"pose": {
"rotation": {
"radians": -2.654920440741024
},
"translation": {
"x": 6.8155951078596235,
"y": 5.163550884659431
}
},
"time": 5.776580020992097,
"velocity": -0.8249203161600902
},
{
"acceleration": 0.5009585999869703,
"curvature": -0.9209385661315912,
"pose": {
"rotation": {
"radians": -2.6084677640129565
},
"translation": {
"x": 6.864072788714065,
"y": 5.190613426127573
}
},
"time": 5.84511181135351,
"velocity": -0.795348651321542
},
{
"acceleration": 0.5616002266929747,
"curvature": -1.1184958182689615,
"pose": {
"rotation": {
"radians": -2.5556734118903144
},
"translation": {
"x": 6.90815647041352,
"y": 5.218169880566002
}
},
"time": 5.911880557494167,
"velocity": -0.7619002737320328
},
{
"acceleration": 0.6012876258569592,
"curvature": -1.3561619598662886,
"pose": {
"rotation": {
"radians": -2.495789511796275
},
"translation": {
"x": 6.947836647146797,
"y": 5.246193490452751
}
},
"time": 5.977212885119876,
"velocity": -0.7252096237270551
},
{
"acceleration": 0.6068414475981027,
"curvature": -1.633821231227137,
"pose": {
"rotation": {
"radians": -2.4281979635843465
},
"translation": {
"x": 6.983138931936276,
"y": 5.274656496151503
}
},
"time": 6.041453911380555,
"velocity": -0.6865822895641567
},
{
"acceleration": 0.5674903074637082,
"curvature": -1.943631920577573,
"pose": {
"rotation": {
"radians": -2.3525809942124702
},
"translation": {
"x": 7.014125934056995,
"y": 5.303530163649423
}
},
"time": 6.104922661858772,
"velocity": -0.6480668211467124
},
{
"acceleration": 0.5062293873079743,
"curvature": -2.2656908494660115,
"pose": {
"rotation": {
"radians": -2.269153548333536
},
"translation": {
"x": 7.040899136455771,
"y": 5.332784812295005
}
},
"time": 6.167848332403018,
"velocity": -0.6123571130221985
},
{
"acceleration": 0.44892368122193793,
"curvature": -2.4210255754536454,
"pose": {
"rotation": {
"radians": -2.224788571626632
},
"translation": {
"x": 7.052748367721037,
"y": 5.347545477324171
}
},
"time": 6.199164295293487,
"velocity": -0.5965040523151972
},
{
"acceleration": 0.379674196399533,
"curvature": -2.565267783297663,
"pose": {
"rotation": {
"radians": -2.178924316334934
},
"translation": {
"x": 7.063600773170281,
"y": 5.362389842535911
}
},
"time": 6.230357225779838,
"velocity": -0.5825008071331643
},
{
"acceleration": 0.29920078354965135,
"curvature": -2.692148564437244,
"pose": {
"rotation": {
"radians": -2.1318451421329145
},
"translation": {
"x": 7.073480807430222,
"y": 5.377313943958667
}
},
"time": 6.261397633131802,
"velocity": -0.5707155654158934
},
{
"acceleration": 0.20823105266407677,
"curvature": -2.795212928287081,
"pose": {
"rotation": {
"radians": -2.0839020944798126
},
"translation": {
"x": 7.082415706748157,
"y": 5.392313763656811
}
},
"time": 6.29223890427639,
"velocity": -0.5614878329237653
},
{
"acceleration": 0.10732217021826712,
"curvature": -2.8683294427242227,
"pose": {
"rotation": {
"radians": -2.0355077891850235
},
"translation": {
"x": 7.090435547661294,
"y": 5.407385230597448
}
},
"time": 6.322817945687916,
"velocity": -0.5551203269411848
},
{
"acceleration": -0.003309174125675816,
"curvature": -2.9062438574945353,
"pose": {
"rotation": {
"radians": -1.987126509099605
},
"translation": {
"x": 7.097573305666111,
"y": 5.42252422151723
}
},
"time": 6.353057066678528,
"velocity": -0.5518749988509796
},
{
"acceleration": -0.12394684788750869,
"curvature": -2.9050848262908566,
"pose": {
"rotation": {
"radians": -1.9392600263066264
},
"translation": {
"x": 7.103864913887664,
"y": 5.4377265617891535
}
},
"time": 6.382866997779803,
"velocity": -0.5519736451036681
},
{
"acceleration": -0.25553969469278826,
"curvature": -2.8627251616119818,
"pose": {
"rotation": {
"radians": -1.8924304074052638
},
"translation": {
"x": 7.109349321748997,
"y": 5.45298802628938
}
},
"time": 6.412150739376734,
"velocity": -0.55560327256896
},
{
"acceleration": -0.3999014889704063,
"curvature": -2.7789245968236544,
"pose": {
"rotation": {
"radians": -1.8471616426968596
},
"translation": {
"x": 7.114068553640427,
"y": 5.468304340264033
}
},
"time": 6.440807777239287,
"velocity": -0.5629262832751565
},
{
"acceleration": -0.6500850812501366,
"curvature": -2.6552253017131773,
"pose": {
"rotation": {
"radians": -1.8039621956630822
},
"translation": {
"x": 7.118067767588947,
"y": 5.48367118019601
}
},
"time": 6.468738128992204,
"velocity": -0.5740956725286152
},
{
"acceleration": -0.06586893840284615,
"curvature": -2.3010979582238904,
"pose": {
"rotation": {
"radians": -1.7256442787911952
},
"translation": {
"x": 7.124102793964429,
"y": 5.514538905248244
}
},
"time": 6.521922218783539,
"velocity": -0.6086698558618296
},
{
"acceleration": 2.0,
"curvature": -1.8328173594424577,
"pose": {
"rotation": {
"radians": -1.6607922220781812
},
"translation": {
"x": 7.1278805672593855,
"y": 5.54555567098342
}
},
"time": 6.573115272579068,
"velocity": -0.612041887968941
},
{
"acceleration": 2.0,
"curvature": -1.2822786666527226,
"pose": {
"rotation": {
"radians": -1.6120209333108533
},
"translation": {
"x": 7.129881146882312,
"y": 5.576685222202935
}
},
"time": 6.629226136136375,
"velocity": -0.4998201608543269
},
{
"acceleration": 2.0,
"curvature": 2.8421709430403768e-14,
"pose": {
"rotation": {
"radians": -1.5707963267949194
},
"translation": {
"x": 7.130751692383363,
"y": 5.639134203047901
}
},
"time": 6.879136216563539,
"velocity": -0.0
}
]