[
{
"acceleration": 1.9999999999999998,
"curvature": 0.0,
"pose": {
"rotation": {
"radians": -1.5707963267948966
},
"translation": {
"x": 9.526,
"y": 5.707
}
},
"time": 0.0,
"velocity": 0.0
},
{
"acceleration": 1.0993875687489638,
"curvature": -0.32648827550768367,
"pose": {
"rotation": {
"radians": -1.5930798927626453
},
"translation": {
"x": 9.52503180964354,
"y": 5.582052741223311
}
},
"time": 0.35348410130212443,
"velocity": 0.7069682026042488
},
{
"acceleration": -0.053292958613090094,
"curvature": -0.4898752172785536,
"pose": {
"rotation": {
"radians": -1.645432320291983
},
"translation": {
"x": 9.519207829100782,
"y": 5.45761745130243
}
},
"time": 0.510516043675991,
"velocity": 0.8796071679465813
},
{
"acceleration": 0.09759714453512848,
"curvature": -0.5249734780134965,
"pose": {
"rotation": {
"radians": -1.709323862439922
},
"translation": {
"x": 9.506100123082607,
"y": 5.334686152572875
}
},
"time": 0.6516688774212109,
"velocity": 0.872084715819677
},
{
"acceleration": 0.24637470895466188,
"curvature": -0.4623032559582765,
"pose": {
"rotation": {
"radians": -1.7703252359020074
},
"translation": {
"x": 9.485537682910783,
"y": 5.21465813644073
}
},
"time": 0.7902330069618978,
"velocity": 0.8856081791978436
},
{
"acceleration": 0.48953905195882386,
"curvature": -0.3198677025073107,
"pose": {
"rotation": {
"radians": -1.8174624691244425
},
"translation": {
"x": 9.459175619913335,
"y": 5.099211895184604
}
},
"time": 0.9215480497933413,
"velocity": 0.9179608846568095
},
{
"acceleration": -0.49715746653395776,
"curvature": -0.08691543135690452,
"pose": {
"rotation": {
"radians": -1.841586022660416
},
"translation": {
"x": 9.430064358819914,
"y": 4.990177053757602
}
},
"time": 1.0407023505897575,
"velocity": 0.9762915681055035
},
{
"acceleration": -1.3450020513770944,
"curvature": 0.304824420988646,
"pose": {
"rotation": {
"radians": -1.8324526969199486
},
"translation": {
"x": 9.402218831157159,
"y": 4.889406301589279
}
},
"time": 1.1508791533108746,
"velocity": 0.9215163479938613
},
{
"acceleration": -1.6208484839855317,
"curvature": 1.0493714579683224,
"pose": {
"rotation": {
"radians": -1.7740072277087302
},
"translation": {
"x": 9.380187668644066,
"y": 4.798647324387617
}
},
"time": 1.26109266198191,
"velocity": 0.7732789527418514
},
{
"acceleration": -1.6682026009085154,
"curvature": 1.6838583435872447,
"pose": {
"rotation": {
"radians": -1.7179002504144014
},
"translation": {
"x": 9.372813836564317,
"y": 4.757508174444798
}
},
"time": 1.3186083934463944,
"velocity": 0.680054666592323
},
{
"acceleration": -1.5820858125892936,
"curvature": 2.608224170447456,
"pose": {
"rotation": {
"radians": -1.6369878127729383
},
"translation": {
"x": 9.368622396587355,
"y": 4.719414735940979
}
},
"time": 1.3795110417361662,
"velocity": 0.5784567103131092
},
{
"acceleration": -1.4524303661014484,
"curvature": 3.208497727069099,
"pose": {
"rotation": {
"radians": -1.5851781294694067
},
"translation": {
"x": 9.367886405269731,
"y": 4.701552524074762
}
},
"time": 1.4118461312577442,
"velocity": 0.527299823932216
},
{
"acceleration": -1.2746171423088617,
"curvature": 3.908272380047232,
"pose": {
"rotation": {
"radians": -1.5246646496230492
},
"translation": {
"x": 9.368140187291027,
"y": 4.684498906923527
}
},
"time": 1.4457767041744647,
"velocity": 0.47801802948875166
},
{
"acceleration": -1.0614563102134114,
"curvature": 4.697832654124971,
"pose": {
"rotation": {
"radians": -1.4547282911799835
},
"translation": {
"x": 9.369442082924774,
"y": 4.668265563051589
}
},
"time": 1.481551774097544,
"velocity": 0.4324185120974967
},
{
"acceleration": -0.8873838994218013,
"curvature": 5.5445667606225,
"pose": {
"rotation": {
"radians": -1.374953875622682
},
"translation": {
"x": 9.371846627276836,
"y": 4.652862009920077
}
},
"time": 1.5193594416934517,
"velocity": 0.39228732475336925
},
{
"acceleration": -0.7686235627924416,
"curvature": 5.970735245708801,
"pose": {
"rotation": {
"radians": -1.3313874471385385
},
"translation": {
"x": 9.373478290933283,
"y": 4.645473757383825
}
},
"time": 1.5390872241681615,
"velocity": 0.37478120821401617
},
{
"acceleration": -0.6494532122433285,
"curvature": 6.384547286699875,
"pose": {
"rotation": {
"radians": -1.2854632236615104
},
"translation": {
"x": 9.375404129575827,
"y": 4.638295478820341
}
},
"time": 1.5593383408323278,
"velocity": 0.3592157227730792
},
{
"acceleration": -0.5310483646233944,
"curvature": 6.7729456065520175,
"pose": {
"rotation": {
"radians": -1.2373215581753563
},
"translation": {
"x": 9.377629702542057,
"y": 4.631327700408276
}
},
"time": 1.5800902814102518,
"velocity": 0.34573830830446384
},
{
"acceleration": -0.4141539198533916,
"curvature": 7.121633397259797,
"pose": {
"rotation": {
"radians": -1.1871643349686543
},
"translation": {
"x": 9.380160252463542,
"y": 4.624570789807345
}
},
"time": 1.601304972005145,
"velocity": 0.3344722815580545
},
{
"acceleration": -0.2990843457631565,
"curvature": 7.416022900542146,
"pose": {
"rotation": {
"radians": -1.135256595198749
},
"translation": {
"x": 9.383000692118653,
"y": 4.618024952249996
}
},
"time": 1.622928206867134,
"velocity": 0.3255169340800513
},
{
"acceleration": -0.18576791995065256,
"curvature": 7.642458672744704,
"pose": {
"rotation": {
"radians": -1.0819239450058649
},
"translation": {
"x": 9.386155591285382,
"y": 4.611690226633076
}
},
"time": 1.6448902040648365,
"velocity": 0.31894844451652415
},
{
"acceleration": -0.07382871166361604,
"curvature": 7.789571379778946,
"pose": {
"rotation": {
"radians": -1.0275451472925157
},
"translation": {
"x": 9.38962916359418,
"y": 4.605566481609505
}
},
"time": 1.6671074548848837,
"velocity": 0.3148211920446621
},
{
"acceleration": 0.03730264053527623,
"curvature": 7.849548479167946,
"pose": {
"rotation": {
"radians": -0.9725399095303567
},
"translation": {
"x": 9.393425253380773,
"y": 4.599653411679939
}
},
"time": 1.6894858700272606,
"velocity": 0.31316902248562684
},
{
"acceleration": 0.14825974383181,
"curvature": 7.819083368498896,
"pose": {
"rotation": {
"radians": -0.9173526249375508
},
"translation": {
"x": 9.397547322538992,
"y": 4.593950533284442
}
},
"time": 1.7119250207557046,
"velocity": 0.31400606205916687
},
{
"acceleration": 0.25960401470051137,
"curvature": 7.6998048069945195,
"pose": {
"rotation": {
"radians": -0.8624335358162176
},
"translation": {
"x": 9.4019984373736,
"y": 4.588457180894156
}
},
"time": 1.734323076599051,
"velocity": 0.317326792080832
},
{
"acceleration": 0.3716927017168,
"curvature": 7.4980905754285105,
"pose": {
"rotation": {
"radians": -0.8082192757049896
},
"translation": {
"x": 9.406781255453108,
"y": 4.583172503102966
}
},
"time": 1.756581906226957,
"velocity": 0.3231052736147711
},
{
"acceleration": 0.48456356858588173,
"curvature": 7.2243038245666815,
"pose": {
"rotation": {
"radians": -0.75511486839275
},
"translation": {
"x": 9.41189801246262,
"y": 4.5780954587191705
}
},
"time": 1.7786117749043457,
"velocity": 0.33129361502193605
},
{
"acceleration": 0.597848566189279,
"curvature": 6.891612731273941,
"pose": {
"rotation": {
"radians": -0.7034789798489909
},
"translation": {
"x": 9.417350509056641,
"y": 4.573224812857154
}
},
"time": 1.8003351507664282,
"velocity": 0.3418199715513992
},
{
"acceleration": 0.7107279331470664,
"curvature": 6.514624849558481,
"pose": {
"rotation": {
"radians": -0.6536136186971527
},
"translation": {
"x": 9.423140097711908,
"y": 4.568559133029047
}
},
"time": 1.8216892989922122,
"velocity": 0.3545865184503775
},
{
"acceleration": 0.8219335338540873,
"curvature": 6.108070673704483,
"pose": {
"rotation": {
"radians": -0.6057587326591416
},
"translation": {
"x": 9.429267669580218,
"y": 4.564096785236404
}
},
"time": 1.842627549739653,
"velocity": 0.369467918127821
},
{
"acceleration": 0.9819479772971385,
"curvature": 5.685717076750657,
"pose": {
"rotation": {
"radians": -0.5600914410128291
},
"translation": {
"x": 9.435733641341255,
"y": 4.559835930061867
}
},
"time": 1.8631193197370084,
"velocity": 0.38631079105667254
},
{
"acceleration": 1.1713183699315817,
"curvature": 4.8396512916907835,
"pose": {
"rotation": {
"radians": -0.4757352695297832
},
"translation": {
"x": 9.449680000016617,
"y": 4.551910289353138
}
},
"time": 1.9026564289517307,
"velocity": 0.42513417547824517
},
{
"acceleration": 1.319578836179911,
"curvature": 4.046656906037176,
"pose": {
"rotation": {
"radians": -0.40088365228146106
},
"translation": {
"x": 9.464972518140526,
"y": 4.544763238669184
}
},
"time": 1.9403995951718045,
"velocity": 0.46934343941119877
},
{
"acceleration": 1.415436580177722,
"curvature": 3.3437600279815336,
"pose": {
"rotation": {
"radians": -0.3352655745808681
},
"translation": {
"x": 9.481596107142517,
"y": 4.5383722689405515
}
},
"time": 1.9765124311076376,
"velocity": 0.5169971734265615
},
{
"acceleration": 1.4554034126569022,
"curvature": 2.7428242059876196,
"pose": {
"rotation": {
"radians": -0.27824543886307496
},
"translation": {
"x": 9.499526824769562,
"y": 4.53271120919541
}
},
"time": 2.0112321895306424,
"velocity": 0.566140789553416
},
{
"acceleration": 1.4442825400332668,
"curvature": 2.2403698835555486,
"pose": {
"rotation": {
"radians": -0.22901813796182538
},
"translation": {
"x": 9.518731454376486,
"y": 4.527750101492951
}
},
"time": 2.0448178863459345,
"velocity": 0.6150215273148522
},
{
"acceleration": 1.353662660522829,
"curvature": 1.8253798399569356,
"pose": {
"rotation": {
"radians": -0.18674113883405433
},
"translation": {
"x": 9.539167084216391,
"y": 4.523455075856788
}
},
"time": 2.077515953979916,
"velocity": 0.6622467754914386
},
{
"acceleration": 1.0997278542422813,
"curvature": 1.2036731036399242,
"pose": {
"rotation": {
"radians": -0.11991302444433445
},
"translation": {
"x": 9.583508697841529,
"y": 4.516707480300319
}
},
"time": 2.141109841320336,
"velocity": 0.7483314462216608
},
{
"acceleration": 0.9922666257364742,
"curvature": 0.4697565281374394,
"pose": {
"rotation": {
"radians": -0.04045222906701051
},
"translation": {
"x": 9.68390120869291,
"y": 4.509251493488517
}
},
"time": 2.2644553346207066,
"velocity": 0.8839779208993327
},
{
"acceleration": -0.031122806197458473,
"curvature": 1.641636178698521e-14,
"pose": {
"rotation": {
"radians": -0.01546268505957822
},
"translation": {
"x": 9.794013552814757,
"y": 4.506640449566063
}
},
"time": 2.3813816486691604,
"velocity": 0.9999999999999953
},
{
"acceleration": 0.00871216175614094,
"curvature": -0.013322461115788303,
"pose": {
"rotation": {
"radians": -0.01658548390829652
},
"translation": {
"x": 9.912934305470886,
"y": 4.5047501606111915
}
},
"time": 2.5005383696398287,
"velocity": 0.9962915084661006
},
{
"acceleration": 0.010689863923344301,
"curvature": -0.011071597622292225,
"pose": {
"rotation": {
"radians": -0.01746995297465714
},
"translation": {
"x": 9.984376397725933,
"y": 4.503532552003687
}
},
"time": 2.572234329423393,
"velocity": 0.9969161352649968
},
{
"acceleration": 0.007405301586035006,
"curvature": -0.007825941840246847,
"pose": {
"rotation": {
"radians": -0.018260065530436125
},
"translation": {
"x": 10.068526047605983,
"y": 4.502027130352211
}
},
"time": 2.65661961629264,
"velocity": 0.9978182024987614
},
{
"acceleration": 0.0044015712013640565,
"curvature": -0.005179475554692166,
"pose": {
"rotation": {
"radians": -0.018895334906563643
},
"translation": {
"x": 10.16781707531958,
"y": 4.500180150248466
}
},
"time": 2.7561082362270817,
"velocity": 0.9985549457337544
},
{
"acceleration": 0.0028830078926408375,
"curvature": -0.0033442082626266236,
"pose": {
"rotation": {
"radians": -0.019380253630684033
},
"translation": {
"x": 10.283878493297857,
"y": 4.497956670574432
}
},
"time": 2.872329169596539,
"velocity": 0.999066500447069
},
{
"acceleration": 0.0021807654063518323,
"curvature": -0.0026755600746304095,
"pose": {
"rotation": {
"radians": -0.019573792126208713
},
"translation": {
"x": 10.348503503416408,
"y": 4.49669757612946
}
},
"time": 2.937020800976836,
"velocity": 0.9992530069309262
},
{
"acceleration": 0.0016581049829524279,
"curvature": -0.0021350483852582585,
"pose": {
"rotation": {
"radians": -0.019739161607389397
},
"translation": {
"x": 10.41760115974451,
"y": 4.495338969871154
}
},
"time": 3.006178257661229,
"velocity": 0.9994038231200548
},
{
"acceleration": 0.001270722293745365,
"curvature": -0.0016976150580586536,
"pose": {
"rotation": {
"radians": -0.019879461767736972
},
"translation": {
"x": 10.49117841830763,
"y": 4.493881067210319
}
},
"time": 3.079809361093958,
"velocity": 0.9995259112195569
},
{
"acceleration": 0.000983656914524028,
"curvature": -0.0013422267058941341,
"pose": {
"rotation": {
"radians": -0.019997474367417105
},
"translation": {
"x": 10.569204432185767,
"y": 4.492324961707549
}
},
"time": 3.1578840318452284,
"velocity": 0.9996251224442574
},
{
"acceleration": 0.0007704618769951379,
"curvature": -0.0010517504523476278,
"pose": {
"rotation": {
"radians": -0.020095636109654817
},
"translation": {
"x": 10.651612634436887,
"y": 4.490672575553509
}
},
"time": 3.2403363645109713,
"velocity": 0.9997062272514027
},
{
"acceleration": 0.0006115844034370284,
"curvature": -0.0008124618464274596,
"pose": {
"rotation": {
"radians": -0.020176045678703552
},
"translation": {
"x": 10.738302821020357,
"y": 4.4889266100492
}
},
"time": 3.3270667126843203,
"velocity": 0.9997730496782488
},
{
"acceleration": 0.0004927439612617842,
"curvature": -0.0006134599090736821,
"pose": {
"rotation": {
"radians": -0.020240487456527675
},
"translation": {
"x": 10.829143233720393,
"y": 4.487090496086244
}
},
"time": 3.417943778889031,
"velocity": 0.9998286286745697
},
{
"acceleration": 0.00040357131063176177,
"curvature": -0.0004461121145814456,
"pose": {
"rotation": {
"radians": -0.020290461836819196
},
"translation": {
"x": 10.92397264306948,
"y": 4.48516834462715
}
},
"time": 3.512806706520826,
"velocity": 0.9998753718093079
},
{
"acceleration": 0.0003365528409867558,
"curvature": -0.00030357498530709956,
"pose": {
"rotation": {
"radians": -0.020327216564936038
},
"translation": {
"x": 11.022602431271823,
"y": 4.483164897185597
}
},
"time": 3.61146717215755,
"velocity": 0.9999151883427324
},
{
"acceleration": 0.000286244662448365,
"curvature": -0.0001803993781776441,
"pose": {
"rotation": {
"radians": -0.0203517762069885
},
"translation": {
"x": 11.124818675126775,
"y": 4.481085476306703
}
},
"time": 3.7137114773828914,
"velocity": 0.9999495989541307
},
{
"acceleration": 0.00012259418560434278,
"curvature": -7.2213837985927e-05,
"pose": {
"rotation": {
"radians": -0.020364968394066173
},
"translation": {
"x": 11.230384228952278,
"y": 4.4789359360473
}
},
"time": 3.819302639720492,
"velocity": 0.9999798238607516
},
{
"acceleration": -0.00022103724216413701,
"curvature": 2.4526048975498304e-05,
"pose": {
"rotation": {
"radians": -0.020367446347177066
},
"translation": {
"x": 11.3390408075083,
"y": 4.476722612456217
}
},
"time": 3.927983227273951,
"velocity": 0.9999931474688737
},
{
"acceleration": -0.00020121481748748934,
"curvature": 0.00011273509254446158,
"pose": {
"rotation": {
"radians": -0.02035970764322004
},
"translation": {
"x": 11.45051106892026,
"y": 4.474452274054542
}
},
"time": 4.039478744431213,
"velocity": 0.9999685028072476
},
{
"acceleration": -0.0001877637910376273,
"curvature": 0.00019485431466459432,
"pose": {
"rotation": {
"radians": -0.020342109401568935
},
"translation": {
"x": 11.564500697602483,
"y": 4.472132072315908
}
},
"time": 4.1534968831009795,
"velocity": 0.9999455606682849
},
{
"acceleration": -0.00017964854778310325,
"curvature": 0.00027297493470533726,
"pose": {
"rotation": {
"radians": -0.020314880156024034
},
"translation": {
"x": 11.680700487181626,
"y": 4.469769492146763
}
},
"time": 4.269728284129404,
"velocity": 0.9999237366197902
},
{
"acceleration": -0.00017617623708032543,
"curvature": 0.00034893852786545954,
"pose": {
"rotation": {
"radians": -0.020278128687814517
},
"translation": {
"x": 11.798788423420113,
"y": 4.467372302366643
}
},
"time": 4.387850811120428,
"velocity": 0.9999025160793558
},
{
"acceleration": -0.00017692840267080116,
"curvature": 0.0004244198196116833,
"pose": {
"rotation": {
"radians": -0.020231850066721426
},
"translation": {
"x": 11.91843176713958,
"y": 4.464948506188451
}
},
"time": 4.507531632259917,
"velocity": 0.9998814311626367
},
{
"acceleration": -0.0001817174198252672,
"curvature": 0.0005009973528791561,
"pose": {
"rotation": {
"radians": -0.020175929098918147
},
"translation": {
"x": 12.039289137144298,
"y": 4.462506291698732
}
},
"time": 4.628429302872331,
"velocity": 0.9998600409308886
},
{
"acceleration": -0.00019056245752073847,
"curvature": 0.000580216348680617,
"pose": {
"rotation": {
"radians": -0.020110141322593762
},
"translation": {
"x": 12.161012593144626,
"y": 4.460053982337944
}
},
"time": 4.750195848672912,
"velocity": 0.9998379138283647
},
{
"acceleration": -0.00020368183672234038,
"curvature": 0.0006636474451406505,
"pose": {
"rotation": {
"radians": -0.020034151631472215
},
"translation": {
"x": 12.283249718680434,
"y": 4.4575999873807355
}
},
"time": 4.872478849687579,
"velocity": 0.9998146112791784
},
{
"acceleration": -0.00022150037516085097,
"curvature": 0.0007529446117714604,
"pose": {
"rotation": {
"radians": -0.019947510544684476
},
"translation": {
"x": 12.405645704044545,
"y": 4.455152752416221
}
},
"time": 4.994923524843134,
"velocity": 0.9997896715228458
},
{
"acceleration": -0.0002446717984023941,
"curvature": 0.0008499053680641719,
"pose": {
"rotation": {
"radians": -0.019849648080298127
},
"translation": {
"x": 12.527845429206177,
"y": 4.452720709828254
}
},
"time": 5.117174817231517,
"velocity": 0.9997625928157179
},
{
"acceleration": -0.0002741177258390689,
"curvature": 0.0009565364704986043,
"pose": {
"rotation": {
"radians": -0.01973986512976081
},
"translation": {
"x": 12.649495546734368,
"y": 4.4503122292757045
}
},
"time": 5.238879480086516,
"velocity": 0.9997328151169832
},
{
"acceleration": -0.00031108626037627417,
"curvature": 0.0010751284615949479,
"pose": {
"rotation": {
"radians": -0.019617322172273518
},
"translation": {
"x": 12.770246564721422,
"y": 4.4479355681727295
}
},
"time": 5.359688163512304,
"velocity": 0.9996996993154209
},
{
"acceleration": -0.00035723496821314985,
"curvature": 0.0012083428979115366,
"pose": {
"rotation": {
"radians": -0.01948102511312497
},
"translation": {
"x": 12.889754929706339,
"y": 4.445598822169052
}
},
"time": 5.479257502028366,
"velocity": 0.9996625029370463
},
{
"acceleration": -0.0004147451768816352,
"curvature": 0.001359316693745282,
"pose": {
"rotation": {
"radians": -0.01932980798128101
},
"translation": {
"x": 13.007685109598256,
"y": 4.443309875630238
}
},
"time": 5.59725220300694,
"velocity": 0.9996203511037929
},
{
"acceleration": -0.0004864771887441762,
"curvature": 0.00153178883258288,
"pose": {
"rotation": {
"radians": -0.019162312184654546
},
"translation": {
"x": 13.123711676599886,
"y": 4.441076352117961
}
},
"time": 5.713347136085481,
"velocity": 0.9995722012902382
},
{
"acceleration": -0.0005761793176503723,
"curvature": 0.0017302556901444637,
"pose": {
"rotation": {
"radians": -0.01897696200638854
},
"translation": {
"x": 13.237521390130944,
"y": 4.438905564870291
}
},
"time": 5.827229423648213,
"velocity": 0.9995168001551369
},
{
"acceleration": -0.000688767623668627,
"curvature": 0.0019601623188323382,
"pose": {
"rotation": {
"radians": -0.01877193604891787
},
"translation": {
"x": 13.348815279751594,
"y": 4.4368044672819575
}
},
"time": 5.9386005324556725,
"velocity": 0.9994526304256582
},
{
"acceleration": -0.0008306976064639364,
"curvature": 0.0022281381110354197,
"pose": {
"rotation": {
"radians": -0.018545134422076413
},
"translation": {
"x": 13.457310728085886,
"y": 4.434779603384632
}
},
"time": 6.0471783664807255,
"velocity": 0.9993778455289337
},
{
"acceleration": -0.00101045309524661,
"curvature": 0.0025422859607686804,
"pose": {
"rotation": {
"radians": -0.018294141671606836
},
"translation": {
"x": 13.562743553745182,
"y": 4.432837058327198
}
},
"time": 6.152699360948168,
"velocity": 0.9992901894913979
},
{
"acceleration": -0.0012391790565313573,
"curvature": 0.002912533726761115,
"pose": {
"rotation": {
"radians": -0.01801618582605722
},
"translation": {
"x": 13.664870094251597,
"y": 4.430982408856032
}
},
"time": 6.254920577464838,
"velocity": 0.9991868997467688
},
{
"acceleration": -0.0015314793560306957,
"curvature": 0.0033510542223258743,
"pose": {
"rotation": {
"radians": -0.017708094615078725
},
"translation": {
"x": 13.76346928896145,
"y": 4.4292206737952675
}
},
"time": 6.353621799931521,
"velocity": 0.999064591259034
},
{
"acceleration": -0.0019063778606713752,
"curvature": 0.0038727528283324913,
"pose": {
"rotation": {
"radians": -0.017366251054958814
},
"translation": {
"x": 13.858344761988672,
"y": 4.427556264527086
}
},
"time": 6.448607630594628,
"velocity": 0.998919122420258
},
{
"acceleration": -0.002388382031959434,
"curvature": 0.004495806039196567,
"pose": {
"rotation": {
"radians": -0.01698655247635745
},
"translation": {
"x": 13.949326905128276,
"y": 4.425992935471974
}
},
"time": 6.53970958505216,
"velocity": 0.9987454476712163
},
{
"acceleration": -0.0030084545769594657,
"curvature": 0.0052422026309404445,
"pose": {
"rotation": {
"radians": -0.016564380091431012
},
"translation": {
"x": 14.036274960779759,
"y": 4.424533734569012
}
},
"time": 6.626788184151065,
"velocity": 0.9985374707097603
},
{
"acceleration": -0.0038044210920648116,
"curvature": 0.006138179495137015,
"pose": {
"rotation": {
"radians": -0.016094590965126044
},
"translation": {
"x": 14.119079104870565,
"y": 4.423180953756145
}
},
"time": 6.709735039333329,
"velocity": 0.9982879288636428
},
{
"acceleration": -0.0048197981583952415,
"curvature": 0.007214336566885001,
"pose": {
"rotation": {
"radians": -0.015571551629918844
},
"translation": {
"x": 14.197662529779516,
"y": 4.42193607945045
}
},
"time": 6.788474925856941,
"velocity": 0.9979883691785656
},
{
"acceleration": -0.006099021239009881,
"curvature": 0.00850502880160254,
"pose": {
"rotation": {
"radians": -0.014989243729583645
},
"translation": {
"x": 14.27198352726024,
"y": 4.420799743028427
}
},
"time": 6.862967835108771,
"velocity": 0.9976293283917401
},
{
"acceleration": -0.007675315479970301,
"curvature": 0.01004632423954462,
"pose": {
"rotation": {
"radians": -0.01434148841777418
},
"translation": {
"x": 14.34203757136461,
"y": 4.419771671306255
}
},
"time": 6.933210992546241,
"velocity": 0.9972009138826339
},
{
"acceleration": -0.009544740614902085,
"curvature": 0.011871335057662838,
"pose": {
"rotation": {
"radians": -0.013622359147544024
},
"translation": {
"x": 14.407859401366185,
"y": 4.418850637020083
}
},
"time": 6.999240821302686,
"velocity": 0.9966941141158397
},
{
"acceleration": -0.012586459998923119,
"curvature": 0.014001042738656455,
"pose": {
"rotation": {
"radians": -0.01282688238982519
},
"translation": {
"x": 14.469525104683651,
"y": 4.418034409306295
}
},
"time": 7.06113482313913,
"velocity": 0.9961033519226926
},
{
"acceleration": -0.35109238374270363,
"curvature": 0.01908907408156931,
"pose": {
"rotation": {
"radians": -0.01099907526266874
},
"translation": {
"x": 14.58091171920719,
"y": 4.41670213502425
}
},
"time": 7.173044291440539,
"velocity": 0.9946948078764162
},
{
"acceleration": -2.0,
"curvature": 0.024334511632204216,
"pose": {
"rotation": {
"radians": -0.008895761296453055
},
"translation": {
"x": 14.677712228277677,
"y": 4.41573504780641
}
},
"time": 7.272097505935755,
"velocity": 0.9599179786819134
},
{
"acceleration": -1.9999999999999996,
"curvature": 0.02643971661554402,
"pose": {
"rotation": {
"radians": -0.006711023154597806
},
"translation": {
"x": 14.762236322659426,
"y": 4.415074120140467
}
},
"time": 7.370174375928093,
"velocity": 0.7637642386972381
},
{
"acceleration": -2.0000000000000004,
"curvature": 0.019428475208247625,
"pose": {
"rotation": {
"radians": -0.00490043738107966
},
"translation": {
"x": 14.837655224088605,
"y": 4.4146395130243175
}
},
"time": 7.486700509040783,
"velocity": 0.5307119724718574
},
{
"acceleration": -2.0000000000000004,
"curvature": -2.7282371293019796e-15,
"pose": {
"rotation": {
"radians": -0.00414935377986945
},
"translation": {
"x": 14.908068338823174,
"y": 4.414328991334859
}
},
"time": 7.752056495276712,
"velocity": 0.0
}
]