[
{
"acceleration": 1.9999999999999996,
"curvature": 0.0,
"pose": {
"rotation": {
"radians": 0.0
},
"translation": {
"x": 8.963,
"y": 1.4879999999999995
}
},
"time": 0.0,
"velocity": 0.0
},
{
"acceleration": 1.1910462084312987,
"curvature": 2.4323631525485907,
"pose": {
"rotation": {
"radians": 0.07192915289033765
},
"translation": {
"x": 9.02414225249766,
"y": 1.4894539876160033
}
},
"time": 0.24730454557577858,
"velocity": 0.49460909115155705
},
{
"acceleration": -2.0000000000000018,
"curvature": 3.1663691519148216,
"pose": {
"rotation": {
"radians": 0.11226303087509525
},
"translation": {
"x": 9.038537707036186,
"y": 1.4907706859499852
}
},
"time": 0.2755688837846754,
"velocity": 0.5282732240090835
},
{
"acceleration": -1.7193204943921283,
"curvature": 3.9975477258041208,
"pose": {
"rotation": {
"radians": 0.16219327608668807
},
"translation": {
"x": 9.052389235780119,
"y": 1.4926698647289696
}
},
"time": 0.30351271569709,
"velocity": 0.4723855601842543
},
{
"acceleration": -1.3869241900699358,
"curvature": 4.9329523037630585,
"pose": {
"rotation": {
"radians": 0.22223514773770145
},
"translation": {
"x": 9.065622721443606,
"y": 1.4952308948341946
}
},
"time": 0.33370563315893453,
"velocity": 0.420474258406615
},
{
"acceleration": -1.0802016800452447,
"curvature": 5.959076208842688,
"pose": {
"rotation": {
"radians": 0.2927951522116751
},
"translation": {
"x": 9.078174717988233,
"y": 1.4985217194980986
}
},
"time": 0.36632092299240865,
"velocity": 0.3752393239704277
},
{
"acceleration": -0.8644264780512102,
"curvature": 7.03071289209384,
"pose": {
"rotation": {
"radians": 0.37395899416473055
},
"translation": {
"x": 9.089992040190415,
"y": 1.5025992938292783
}
},
"time": 0.4014076955856142,
"velocity": 0.33733853326788166
},
{
"acceleration": -0.7293485285946437,
"curvature": 7.558480713345518,
"pose": {
"rotation": {
"radians": 0.4183931319171583
},
"translation": {
"x": 9.095611282717384,
"y": 1.5049480141907612
}
},
"time": 0.41989995636484945,
"velocity": 0.3213533334112828
},
{
"acceleration": -0.6003585034893277,
"curvature": 8.062295297481283,
"pose": {
"rotation": {
"radians": 0.4652335429253305
},
"translation": {
"x": 9.101031353208821,
"y": 1.507510024337435
}
},
"time": 0.4389683219058674,
"velocity": 0.30744584906123656
},
{
"acceleration": -0.47716598488525613,
"curvature": 8.525632344171953,
"pose": {
"rotation": {
"radians": 0.514287011697135
},
"translation": {
"x": 9.10624830659519,
"y": 1.5102895489739971
}
},
"time": 0.4585702987607547,
"velocity": 0.29567763557120397
},
{
"acceleration": -0.3592217303774098,
"curvature": 8.93097070344172,
"pose": {
"rotation": {
"radians": 0.5652984252543196
},
"translation": {
"x": 9.111258762151765,
"y": 1.5132902084583364
}
},
"time": 0.47864767731784175,
"velocity": 0.2860973934580974
},
{
"acceleration": -0.24572458645020448,
"curvature": 9.261133054272925,
"pose": {
"rotation": {
"radians": 0.617951465523279
},
"translation": {
"x": 9.116059890672625,
"y": 1.5165150325366836
}
},
"time": 0.49912654819497604,
"velocity": 0.2787409380254377
},
{
"acceleration": -0.13566347941682308,
"curvature": 9.500879387267746,
"pose": {
"rotation": {
"radians": 0.6718740059981916
},
"translation": {
"x": 9.120649401644622,
"y": 1.5199664740787666
}
},
"time": 0.5199185891607452,
"velocity": 0.27363182235766836
},
{
"acceleration": -0.0278866671528542,
"curvature": 9.638528930224465,
"pose": {
"rotation": {
"radians": 0.7266484602161631
},
"translation": {
"x": 9.125025530421372,
"y": 1.523646422812969
}
},
"time": 0.540923697857311,
"velocity": 0.2707821962263637
},
{
"acceleration": 0.07880986639178197,
"curvature": 9.667327208534289,
"pose": {
"rotation": {
"radians": 0.7818266123606625
},
"translation": {
"x": 9.129187025397231,
"y": 1.5275562190614789
}
},
"time": 0.5620338480777036,
"velocity": 0.27019350449362084
},
{
"acceleration": 0.18558282226128628,
"curvature": 9.586286392305592,
"pose": {
"rotation": {
"radians": 0.8369477052777565
},
"translation": {
"x": 9.13313313518128,
"y": 1.5316966674754502
}
},
"time": 0.5831378381319599,
"velocity": 0.27185670713013027
},
{
"acceleration": 0.29343855621410975,
"curvature": 9.40031922554289,
"pose": {
"rotation": {
"radians": 0.8915579599009102
},
"translation": {
"x": 9.136863595771302,
"y": 1.536068050770151
}
},
"time": 0.6041264326005946,
"velocity": 0.27575182972691714
},
{
"acceleration": 0.40313443519429004,
"curvature": 9.119637368369947,
"pose": {
"rotation": {
"radians": 0.9452294243163868
},
"translation": {
"x": 9.140378617727771,
"y": 1.540670143460125
}
},
"time": 0.6248973219364854,
"velocity": 0.28184680950492397
},
{
"acceleration": 0.5150927456723832,
"curvature": 8.758545334573794,
"pose": {
"rotation": {
"radians": 0.9975761838938028
},
"translation": {
"x": 9.143678873347824,
"y": 1.5455022255943405
}
},
"time": 0.6453593615085026,
"velocity": 0.2900957622707123
},
{
"acceleration": 0.6293355803561869,
"curvature": 8.333878204574685,
"pose": {
"rotation": {
"radians": 1.0482664655411806
},
"translation": {
"x": 9.146765483839248,
"y": 1.5505630964913486
}
},
"time": 0.6654356913148162,
"velocity": 0.3004369341136707
},
{
"acceleration": 0.7454487648897901,
"curvature": 7.863371680151989,
"pose": {
"rotation": {
"radians": 1.0970298922153279
},
"translation": {
"x": 9.149640006494465,
"y": 1.5558510884744354
}
},
"time": 0.6850655382322947,
"velocity": 0.3127906952157851
},
{
"acceleration": 0.8625813522933112,
"curvature": 7.364216041035127,
"pose": {
"rotation": {
"radians": 1.143659895392603
},
"translation": {
"x": 9.152304421864502,
"y": 1.5613640806067801
}
},
"time": 0.7042047101109496,
"velocity": 0.32705796725374187
},
{
"acceleration": 1.0378602191742452,
"curvature": 6.85195766594419,
"pose": {
"rotation": {
"radians": 1.1880119052772276
},
"translation": {
"x": 9.154761120932985,
"y": 1.5670995124266085
}
},
"time": 0.7228249584876515,
"velocity": 0.3431194462785547
},
{
"acceleration": 1.2599426294875526,
"curvature": 5.838350338969265,
"pose": {
"rotation": {
"radians": 1.2695813507180866
},
"translation": {
"x": 9.159062909306646,
"y": 1.5792253380677748
}
},
"time": 0.7584079910543957,
"velocity": 0.3800496602571601
},
{
"acceleration": 1.4566941328622296,
"curvature": 4.896877638918989,
"pose": {
"rotation": {
"radians": 1.3415861083301572
},
"translation": {
"x": 9.162572220747608,
"y": 1.5921998131405397
}
},
"time": 0.7919128355285596,
"velocity": 0.4222638421045097
},
{
"acceleration": 1.6157449489367244,
"curvature": 4.064290501806066,
"pose": {
"rotation": {
"radians": 1.4044101961734727
},
"translation": {
"x": 9.165321650444337,
"y": 1.605988032038157
}
},
"time": 0.8234889932370942,
"velocity": 0.4682606457768645
},
{
"acceleration": 1.7300752095804393,
"curvature": 3.3503647287170635,
"pose": {
"rotation": {
"radians": 1.4587387045764928
},
"translation": {
"x": 9.167349129209025,
"y": 1.6205493753294808
}
},
"time": 0.8533475179594127,
"velocity": 0.5165044062796528
},
{
"acceleration": 1.8153919112471364,
"curvature": 2.749071064458469,
"pose": {
"rotation": {
"radians": 1.5053811506655648
},
"translation": {
"x": 9.16869751304498,
"y": 1.6358379492839212
}
},
"time": 0.8817147915651209,
"velocity": 0.565581923108274
},
{
"acceleration": 1.8141769180025635,
"curvature": 1.8282146843751135,
"pose": {
"rotation": {
"radians": 1.5788310830703074
},
"translation": {
"x": 9.169550583303975,
"y": 1.6683894799122818
}
},
"time": 0.9347709176166431,
"velocity": 0.6618995851843159
},
{
"acceleration": 1.9784580852475697,
"curvature": 0.7068856831632285,
"pose": {
"rotation": {
"radians": 1.6646246835183236
},
"translation": {
"x": 9.165443903810473,
"y": 1.739717386581134
}
},
"time": 1.0302251097224608,
"velocity": 0.8350703772292731
},
{
"acceleration": -1.978458085247471,
"curvature": 1.9246354843957068e-14,
"pose": {
"rotation": {
"radians": 1.6903637048520077
},
"translation": {
"x": 9.15695927665251,
"y": 1.8157335594236885
}
},
"time": 1.1135878172776645,
"velocity": 0.9999999999999947
},
{
"acceleration": -1.8141769180025815,
"curvature": -0.7068856831631833,
"pose": {
"rotation": {
"radians": 1.6646246835183272
},
"translation": {
"x": 9.148474649494545,
"y": 1.891749732266243
}
},
"time": 1.196950524832868,
"velocity": 0.835070377229282
},
{
"acceleration": -1.8153919112472285,
"curvature": -1.8282146843750562,
"pose": {
"rotation": {
"radians": 1.5788310830703147
},
"translation": {
"x": 9.144367970001044,
"y": 1.9630776389350961
}
},
"time": 1.2924047169386859,
"velocity": 0.6618995851843229
},
{
"acceleration": -1.7300752095804905,
"curvature": -2.7490710644584047,
"pose": {
"rotation": {
"radians": 1.5053811506655737
},
"translation": {
"x": 9.145221040260038,
"y": 1.9956291695634558
}
},
"time": 1.345460842990206,
"velocity": 0.5655819231082798
},
{
"acceleration": -1.6157449489368072,
"curvature": -3.350364728716992,
"pose": {
"rotation": {
"radians": 1.458738704576504
},
"translation": {
"x": 9.146569424095992,
"y": 2.010917743517896
}
},
"time": 1.3738281165959136,
"velocity": 0.5165044062796581
},
{
"acceleration": -1.456694132862156,
"curvature": -4.064290501806015,
"pose": {
"rotation": {
"radians": 1.404410196173482
},
"translation": {
"x": 9.14859690286068,
"y": 2.02547908680922
}
},
"time": 1.4036866413182318,
"velocity": 0.4682606457768676
},
{
"acceleration": -1.2599426294877358,
"curvature": -4.8968776389189514,
"pose": {
"rotation": {
"radians": 1.3415861083301681
},
"translation": {
"x": 9.151346332557411,
"y": 2.0392673057068382
}
},
"time": 1.435262799026769,
"velocity": 0.4222638421045115
},
{
"acceleration": -1.0378602191743138,
"curvature": -5.8383503389692635,
"pose": {
"rotation": {
"radians": 1.2695813507181004
},
"translation": {
"x": 9.15485564399837,
"y": 2.0522417807796023
}
},
"time": 1.4687676435009296,
"velocity": 0.38004966025716014
},
{
"acceleration": -0.8625813522934275,
"curvature": -6.8519576659442665,
"pose": {
"rotation": {
"radians": 1.1880119052772398
},
"translation": {
"x": 9.159157432372032,
"y": 2.0643676064207686
}
},
"time": 1.504350676067674,
"velocity": 0.3431194462785521
},
{
"acceleration": -0.7454487648896201,
"curvature": -7.364216041035218,
"pose": {
"rotation": {
"radians": 1.1436598953926151
},
"translation": {
"x": 9.161614131440516,
"y": 2.070103038240596
}
},
"time": 1.5229709244443734,
"velocity": 0.32705796725373915
},
{
"acceleration": -0.6293355803562635,
"curvature": -7.863371680152108,
"pose": {
"rotation": {
"radians": 1.0970298922153425
},
"translation": {
"x": 9.164278546810554,
"y": 2.0756160303729416
}
},
"time": 1.5421100963230334,
"velocity": 0.31279069521578184
},
{
"acceleration": -0.5150927456724078,
"curvature": -8.333878204574813,
"pose": {
"rotation": {
"radians": 1.048266465541196
},
"translation": {
"x": 9.167153069465769,
"y": 2.0809040223560284
}
},
"time": 1.5617399432405095,
"velocity": 0.30043693411366745
},
{
"acceleration": -0.40313443519440145,
"curvature": -8.758545334573952,
"pose": {
"rotation": {
"radians": 0.9975761838938167
},
"translation": {
"x": 9.170239679957193,
"y": 2.0859648932530366
}
},
"time": 1.581816273046823,
"velocity": 0.29009576227070855
},
{
"acceleration": -0.29343855621419757,
"curvature": -9.119637368370181,
"pose": {
"rotation": {
"radians": 0.945229424316402
},
"translation": {
"x": 9.173539935577246,
"y": 2.090796975387251
}
},
"time": 1.602278312618838,
"velocity": 0.2818468095049188
},
{
"acceleration": -0.18558282226131284,
"curvature": -9.400319225543138,
"pose": {
"rotation": {
"radians": 0.891557959900922
},
"translation": {
"x": 9.177054957533713,
"y": 2.0953990680772243
}
},
"time": 1.6230492019547227,
"velocity": 0.2757518297269119
},
{
"acceleration": -0.07880986639182966,
"curvature": -9.586286392305938,
"pose": {
"rotation": {
"radians": 0.8369477052777655
},
"translation": {
"x": 9.180785418123737,
"y": 2.099770451371926
}
},
"time": 1.6440377964233646,
"velocity": 0.27185670713012317
},
{
"acceleration": 0.02788666715278697,
"curvature": -9.66732720853468,
"pose": {
"rotation": {
"radians": 0.7818266123606732
},
"translation": {
"x": 9.184731527907784,
"y": 2.103910899785898
}
},
"time": 1.6651417864776192,
"velocity": 0.27019350449361285
},
{
"acceleration": 0.13566347941685392,
"curvature": -9.638528930224926,
"pose": {
"rotation": {
"radians": 0.7266484602161727
},
"translation": {
"x": 9.188893022883644,
"y": 2.1078206960344072
}
},
"time": 1.686251936698011,
"velocity": 0.27078219622635424
},
{
"acceleration": 0.24572458645010092,
"curvature": -9.500879387268133,
"pose": {
"rotation": {
"radians": 0.671874005998198
},
"translation": {
"x": 9.193269151660395,
"y": 2.1115006447686095
}
},
"time": 1.7072570453945823,
"velocity": 0.2736318223576603
},
{
"acceleration": 0.3592217303775029,
"curvature": -9.261133054273367,
"pose": {
"rotation": {
"radians": 0.6179514655232918
},
"translation": {
"x": 9.197858662632392,
"y": 2.1149520863106934
}
},
"time": 1.728049086360354,
"velocity": 0.2787409380254281
},
{
"acceleration": 0.4771659848851227,
"curvature": -8.930970703442153,
"pose": {
"rotation": {
"radians": 0.5652984252543247
},
"translation": {
"x": 9.20265979115325,
"y": 2.1181769103890398
}
},
"time": 1.7485279572374819,
"velocity": 0.2860973934580875
},
{
"acceleration": 0.600358503489409,
"curvature": -8.525632344172385,
"pose": {
"rotation": {
"radians": 0.5142870116971386
},
"translation": {
"x": 9.207670246709828,
"y": 2.121177569873378
}
},
"time": 1.7686053357945735,
"velocity": 0.29567763557119353
},
{
"acceleration": 0.7293485285945708,
"curvature": -8.062295297481695,
"pose": {
"rotation": {
"radians": 0.4652335429253346
},
"translation": {
"x": 9.212887200096194,
"y": 2.123957094509941
}
},
"time": 1.7882073126494575,
"velocity": 0.30744584906122574
},
{
"acceleration": 0.8644264780512665,
"curvature": -7.558480713345925,
"pose": {
"rotation": {
"radians": 0.41839313191716315
},
"translation": {
"x": 9.218307270587632,
"y": 2.126519104656615
}
},
"time": 1.8072756781904762,
"velocity": 0.32135333341127104
},
{
"acceleration": 1.0802016800451606,
"curvature": -7.030712892094163,
"pose": {
"rotation": {
"radians": 0.37395899416473005
},
"translation": {
"x": 9.2239265131146,
"y": 2.128867825018098
}
},
"time": 1.825767938969712,
"velocity": 0.3373385332678714
},
{
"acceleration": 1.386924190070019,
"curvature": -5.9590762088429905,
"pose": {
"rotation": {
"radians": 0.29279515221167557
},
"translation": {
"x": 9.235743835316782,
"y": 2.1329453993492775
}
},
"time": 1.8608547115629186,
"velocity": 0.3752393239704158
},
{
"acceleration": 1.7193204943919296,
"curvature": -4.932952303763325,
"pose": {
"rotation": {
"radians": 0.2222351477377031
},
"translation": {
"x": 9.248295831861407,
"y": 2.1362362240131825
}
},
"time": 1.8934700013963899,
"velocity": 0.42047425840660185
},
{
"acceleration": 1.9999999999999991,
"curvature": -3.9975477258042957,
"pose": {
"rotation": {
"radians": 0.1621932760866852
},
"translation": {
"x": 9.261529317524896,
"y": 2.1387972541184075
}
},
"time": 1.9236629188582393,
"velocity": 0.47238556018424344
},
{
"acceleration": 2.000000000000004,
"curvature": -3.166369151915011,
"pose": {
"rotation": {
"radians": 0.11226303087509258
},
"translation": {
"x": 9.275380846268828,
"y": 2.140696432897391
}
},
"time": 1.951606750770651,
"velocity": 0.5282732240090666
},
{
"acceleration": 1.9999999999999987,
"curvature": -2.4323631525487284,
"pose": {
"rotation": {
"radians": 0.07192915289033067
},
"translation": {
"x": 9.289776300807354,
"y": 2.142013131231372
}
},
"time": 1.9776833287713844,
"velocity": 0.5804263800105338
},
{
"acceleration": 0.33222394855234627,
"curvature": -4.038967834731925e-28,
"pose": {
"rotation": {
"radians": -7.105427357601204e-15
},
"translation": {
"x": 9.350918553305013,
"y": 2.1434671188473757
}
},
"time": 2.0687616727863127,
"velocity": 0.7625830680403904
},
{
"acceleration": 0.8413406938362052,
"curvature": 0.9427588870617905,
"pose": {
"rotation": {
"radians": 0.048605798401454015
},
"translation": {
"x": 9.41856560866228,
"y": 2.144765255604222
}
},
"time": 2.155834296137577,
"velocity": 0.7915106787809587
},
{
"acceleration": 0.563721752074223,
"curvature": 0.45716501353760636,
"pose": {
"rotation": {
"radians": 0.11400436138552598
},
"translation": {
"x": 9.513193931725906,
"y": 2.1528599220813414
}
},
"time": 2.2690166226006645,
"velocity": 0.8867355758574085
},
{
"acceleration": 0.3233801573120989,
"curvature": 0.2847495945383271,
"pose": {
"rotation": {
"radians": 0.1370234339690313
},
"translation": {
"x": 9.576316253364768,
"y": 2.160882711219756
}
},
"time": 2.3392082717413385,
"velocity": 0.9263041352919683
},
{
"acceleration": 0.17779678957159317,
"curvature": 0.1782620119550312,
"pose": {
"rotation": {
"radians": 0.15422441909455523
},
"translation": {
"x": 9.651765849054685,
"y": 2.171999977481626
}
},
"time": 2.4203896436171686,
"velocity": 0.9525565800999862
},
{
"acceleration": 0.09852361472174505,
"curvature": 0.11399226011792424,
"pose": {
"rotation": {
"radians": 0.16700352422468936
},
"translation": {
"x": 9.740191340445055,
"y": 2.1863688854859173
}
},
"time": 2.513625627828655,
"velocity": 0.9691336387653363
},
{
"acceleration": 0.056383452937749524,
"curvature": 0.07469591448987477,
"pose": {
"rotation": {
"radians": 0.17652348506707535
},
"translation": {
"x": 9.841746228288185,
"y": 2.204020921735946
}
},
"time": 2.619417289787343,
"velocity": 0.9795566157089272
},
{
"acceleration": 0.03793316241728134,
"curvature": 0.04998392946939032,
"pose": {
"rotation": {
"radians": 0.183639158891444
},
"translation": {
"x": 9.956138127582005,
"y": 2.224874473038809
}
},
"time": 2.7377183739096975,
"velocity": 0.9862268393180247
},
{
"acceleration": 0.029709854626104662,
"curvature": 0.041116430078259346,
"pose": {
"rotation": {
"radians": 0.1864915106152605
},
"translation": {
"x": 10.0179467807847,
"y": 2.23644848248449
}
},
"time": 2.801401537671382,
"velocity": 0.988642543112243
},
{
"acceleration": 0.02357837789786322,
"curvature": 0.03388759103589431,
"pose": {
"rotation": {
"radians": 0.1889528204766623
},
"translation": {
"x": 10.082678002712726,
"y": 2.2487474049248055
}
},
"time": 2.867981122923325,
"velocity": 0.9906206129111446
},
{
"acceleration": 0.018974899876543976,
"curvature": 0.027934072509571067,
"pose": {
"rotation": {
"radians": 0.19107017685387073
},
"translation": {
"x": 10.150191764896874,
"y": 2.2617348307484804
}
},
"time": 2.9373264393106835,
"velocity": 0.9922556629863726
},
{
"acceleration": 0.015497306098325189,
"curvature": 0.022977372458594575,
"pose": {
"rotation": {
"radians": 0.1928826915956096
},
"translation": {
"x": 10.220329402597546,
"y": 2.27536964006687
}
},
"time": 3.009285241887812,
"velocity": 0.9936210740605096
},
{
"acceleration": 0.012857728615108642,
"curvature": 0.018802337160760074,
"pose": {
"rotation": {
"radians": 0.19442279067265258
},
"translation": {
"x": 10.292915153402953,
"y": 2.289606395789562
}
},
"time": 3.0836856978651404,
"velocity": 0.9947740807006452
},
{
"acceleration": 0.010849202157162313,
"curvature": 0.015241224709497169,
"pose": {
"rotation": {
"radians": 0.1957172736514701
},
"translation": {
"x": 10.367757695827333,
"y": 2.304395736699992
}
},
"time": 3.1603382860446514,
"velocity": 0.995759658877103
},
{
"acceleration": 0.009322363699754779,
"curvature": 0.012161858969685269,
"pose": {
"rotation": {
"radians": 0.19678817589384098
},
"translation": {
"x": 10.444651687909145,
"y": 2.3196847705310404
}
},
"time": 3.2390376387508923,
"velocity": 0.9966134840642509
},
{
"acceleration": 0.008169201648360106,
"curvature": 0.009458778356841759,
"pose": {
"rotation": {
"radians": 0.19765346489246938
},
"translation": {
"x": 10.5233793058093,
"y": 2.3354174670406476
}
},
"time": 3.3195643354069717,
"velocity": 0.9973641832180187
},
{
"acceleration": 0.007311730586031123,
"curvature": 0.007046569756429901,
"pose": {
"rotation": {
"radians": 0.19832759800817124
},
"translation": {
"x": 10.60371178240935,
"y": 2.351535051087418
}
},
"time": 3.4016866557314627,
"velocity": 0.9980350570125807
},
{
"acceleration": 0.006694113204932657,
"curvature": 0.0048547923368233254,
"pose": {
"rotation": {
"radians": 0.19882196435633945
},
"translation": {
"x": 10.685410945909709,
"y": 2.3679763957062256
}
},
"time": 3.485162299232224,
"velocity": 0.9986454084283538
},
{
"acceleration": 0.006277213564580957,
"curvature": 0.0028240531512390026,
"pose": {
"rotation": {
"radians": 0.19914522928563735
},
"translation": {
"x": 10.768230758427853,
"y": 2.3846784151838234
}
},
"time": 3.569740076427264,
"velocity": 0.999211581643519
},
{
"acceleration": -0.00016794296526976405,
"curvature": 0.0009029097552724465,
"pose": {
"rotation": {
"radians": 0.19930359602687542
},
"translation": {
"x": 10.85191885459654,
"y": 2.401576458134449
}
},
"time": 3.6551615761021616,
"velocity": 0.9997477906399851
},
{
"acceleration": -0.005932923303616317,
"curvature": -0.0009546443832092275,
"pose": {
"rotation": {
"radians": 0.19930099571054188
},
"translation": {
"x": 10.936218080162009,
"y": 2.418604700575435
}
},
"time": 3.7411857567947533,
"velocity": 0.9997333434839947
},
{
"acceleration": -0.005983420000929381,
"curvature": -0.0027912997531321657,
"pose": {
"rotation": {
"radians": 0.1991392140174279
},
"translation": {
"x": 11.020868030582193,
"y": 2.4356965390028096
}
},
"time": 3.8275891798087485,
"velocity": 0.9992207186020827
},
{
"acceleration": -0.00618633909907389,
"curvature": -0.0046483061962863835,
"pose": {
"rotation": {
"radians": 0.19881796016184725
},
"translation": {
"x": 11.105606589624928,
"y": 2.452784983466911
}
},
"time": 3.914123440124072,
"velocity": 0.9987029477781464
},
{
"acceleration": -0.006550280559110245,
"curvature": -0.006567230387866755,
"pose": {
"rotation": {
"radians": 0.1983348816232508
},
"translation": {
"x": 11.190171467966161,
"y": 2.4698030506479887
}
},
"time": 4.000518852081181,
"velocity": 0.9981684764631755
},
{
"acceleration": -0.007092784373038381,
"curvature": -0.008591709687922772,
"pose": {
"rotation": {
"radians": 0.19768552595233074
},
"translation": {
"x": 11.274301741788161,
"y": 2.4866841569318128
}
},
"time": 4.086507754518515,
"velocity": 0.997605225027241
},
{
"acceleration": -0.007841641302958979,
"curvature": -0.010769314272618636,
"pose": {
"rotation": {
"radians": 0.19686324900097926
},
"translation": {
"x": 11.357739391377725,
"y": 2.5033625114852835
}
},
"time": 4.171826129538574,
"velocity": 0.9970000801901657
},
{
"acceleration": -0.00883708065504984,
"curvature": -0.013153636431642465,
"pose": {
"rotation": {
"radians": 0.1958590669905386
},
"translation": {
"x": 11.44023083972439,
"y": 2.5197735093320333
}
},
"time": 4.2562152374897835,
"velocity": 0.9963383310757357
},
{
"acceleration": -0.010135055040678574,
"curvature": -0.015806742579325073,
"pose": {
"rotation": {
"radians": 0.19466144788205764
},
"translation": {
"x": 11.521528491118637,
"y": 2.535854124428038
}
},
"time": 4.339423269580461,
"velocity": 0.9956030149850024
},
{
"acceleration": -0.011811959453803561,
"curvature": -0.018802150999725164,
"pose": {
"rotation": {
"radians": 0.19325603550892262
},
"translation": {
"x": 11.601392269750107,
"y": 2.5515433027372216
}
},
"time": 4.421207020122471,
"velocity": 0.994774132171826
},
{
"acceleration": -0.013971273010049991,
"curvature": -0.02222853849399486,
"pose": {
"rotation": {
"radians": 0.19162529787324722
},
"translation": {
"x": 11.679591158305804,
"y": 2.5667823553070654
}
},
"time": 4.501333581002023,
"velocity": 0.993827680483544
},
{
"acceleration": -0.01675280708924305,
"curvature": -0.02619443438186006,
"pose": {
"rotation": {
"radians": 0.18974808894826337
},
"translation": {
"x": 11.755904736568311,
"y": 2.5815153513442137
}
},
"time": 4.579582061576004,
"velocity": 0.9927344495988233
},
{
"acceleration": -0.020345490271691205,
"curvature": -0.03083423340414765,
"pose": {
"rotation": {
"radians": 0.18759911142712665
},
"translation": {
"x": 11.830124720013984,
"y": 2.595689511290079
}
},
"time": 4.655745337747569,
"velocity": 0.9914585009258363
},
{
"acceleration": -0.02500491206894082,
"curvature": -0.036315951924684724,
"pose": {
"rotation": {
"radians": 0.18514826644995308
},
"translation": {
"x": 11.902056498411183,
"y": 2.6092555998964526
}
},
"time": 4.729631834382929,
"velocity": 0.9899552439273323
},
{
"acceleration": -0.03107714316747902,
"curvature": -0.042851263487260684,
"pose": {
"rotation": {
"radians": 0.18235987607116036
},
"translation": {
"x": 11.971520674418459,
"y": 2.622168319301112
}
},
"time": 4.801067345299876,
"velocity": 0.9881690052582541
},
{
"acceleration": -0.03903052833896547,
"curvature": -0.050708471740835336,
"pose": {
"rotation": {
"radians": 0.17919176627696062
},
"translation": {
"x": 12.03835460218278,
"y": 2.6343867021034217
}
},
"time": 4.869896894435121,
"velocity": 0.9860299795056251
},
{
"acceleration": -0.05623328154724744,
"curvature": -0.06022918530195237,
"pose": {
"rotation": {
"radians": 0.17559420481647678
},
"translation": {
"x": 12.102413925937729,
"y": 2.6458745044399503
}
},
"time": 4.935986639859475,
"velocity": 0.9834504618239248
},
{
"acceleration": -0.09337326247304453,
"curvature": -0.08612621283778699,
"pose": {
"rotation": {
"radians": 0.1668667160735888
},
"translation": {
"x": 12.221732020376201,
"y": 2.6665393684015584
}
},
"time": 5.059555324683838,
"velocity": 0.9765017891797734
},
{
"acceleration": -0.1578546898786789,
"curvature": -0.12567103622182896,
"pose": {
"rotation": {
"radians": 0.1555811865403541
},
"translation": {
"x": 12.328744380066869,
"y": 2.683982367895501
}
},
"time": 5.171184831000456,
"velocity": 0.9660785779867354
},
{
"acceleration": -0.2644676805651433,
"curvature": -0.18694971624145834,
"pose": {
"rotation": {
"radians": 0.14094607631439213
},
"translation": {
"x": 12.423111539014,
"y": 2.6981236930653765
}
},
"time": 5.270766302263417,
"velocity": 0.9503591757228581
},
{
"acceleration": -0.6537101265155694,
"curvature": -0.28141314527305705,
"pose": {
"rotation": {
"radians": 0.12198781249600314
},
"translation": {
"x": 12.504934378035827,
"y": 2.7089968459082385
}
},
"time": 5.358695691005566,
"velocity": 0.9271046942287113
},
{
"acceleration": -2.0000000000000004,
"curvature": -0.4200107052758107,
"pose": {
"rotation": {
"radians": 0.09774100161922127
},
"translation": {
"x": 12.574803359907232,
"y": 2.716761218694021
}
},
"time": 5.436665439895403,
"velocity": 0.8761350798175485
},
{
"acceleration": -2.0,
"curvature": -0.7172089774495917,
"pose": {
"rotation": {
"radians": 0.03469117419742977
},
"translation": {
"x": 12.683784923937658,
"y": 2.7243061150550805
}
},
"time": 5.587225158095381,
"velocity": 0.5750156434175921
},
{
"acceleration": -2.0,
"curvature": -5.527031939902168e-14,
"pose": {
"rotation": {
"radians": -0.007463058745455639
},
"translation": {
"x": 12.76644250785937,
"y": 2.7250293057039237
}
},
"time": 5.874732979804177,
"velocity": 0.0
}
]