[
{
"acceleration": 2.0000000000000004,
"curvature": 0.0,
"pose": {
"rotation": {
"radians": 1.5707963267948966
},
"translation": {
"x": 9.471,
"y": 1.0540000000000003
}
},
"time": 0.0,
"velocity": 0.0
},
{
"acceleration": 1.9999999999999996,
"curvature": 1.4694652910374872,
"pose": {
"rotation": {
"radians": 1.5954043954692974
},
"translation": {
"x": 9.470734785887721,
"y": 1.0854064480526322
}
},
"time": 0.17722180408439114,
"velocity": 0.35444360816878234
},
{
"acceleration": 1.3954412177131996,
"curvature": 2.2890482110094452,
"pose": {
"rotation": {
"radians": 1.6581235611867184
},
"translation": {
"x": 9.468997764009698,
"y": 1.1176838450397808
}
},
"time": 0.2524513226841689,
"velocity": 0.5049026453683378
},
{
"acceleration": 0.41329639666532403,
"curvature": 2.4693845547744218,
"pose": {
"rotation": {
"radians": 1.7409366328090903
},
"translation": {
"x": 9.46463436876101,
"y": 1.1515231724124693
}
},
"time": 0.31467696268095513,
"velocity": 0.5917348682184363
},
{
"acceleration": 0.7784117383182273,
"curvature": 2.2229370370931574,
"pose": {
"rotation": {
"radians": 1.8280247089845136
},
"translation": {
"x": 9.45681324954854,
"y": 1.1874318426801462
}
},
"time": 0.375491812434641,
"velocity": 0.6168694264853778
},
{
"acceleration": 0.9229264816909744,
"curvature": 1.7986026784032483,
"pose": {
"rotation": {
"radians": 1.9087874065131547
},
"translation": {
"x": 9.445001116710984,
"y": 1.2257477345551528
}
},
"time": 0.43802282147788985,
"velocity": 0.6655442979335259
},
{
"acceleration": 0.9176798192701909,
"curvature": 1.3649168018581537,
"pose": {
"rotation": {
"radians": 1.9780144626004976
},
"translation": {
"x": 9.428937587438845,
"y": 1.2666532280971836
}
},
"time": 0.5012793523240394,
"velocity": 0.7239254253913393
},
{
"acceleration": 0.8295134034541741,
"curvature": 0.9950278265323816,
"pose": {
"rotation": {
"radians": 2.0342779022584048
},
"translation": {
"x": 9.408610031694447,
"y": 1.3101892398577517
}
},
"time": 0.5650713088636437,
"velocity": 0.7824660165394952
},
{
"acceleration": 0.6658882768838613,
"curvature": 0.7025889702874143,
"pose": {
"rotation": {
"radians": 2.0781131746389905
},
"translation": {
"x": 9.384228418131933,
"y": 1.3562692580246543
}
},
"time": 0.6294974668728581,
"velocity": 0.8359083781411951
},
{
"acceleration": 0.5459559897838866,
"curvature": 0.2979901571899071,
"pose": {
"rotation": {
"radians": 2.1334644178432494
},
"translation": {
"x": 9.325104961148206,
"y": 1.4551623353768353
}
},
"time": 0.7604989552021306,
"velocity": 0.9231407334739956
},
{
"acceleration": -0.3781261327150903,
"curvature": 0.019082180052547405,
"pose": {
"rotation": {
"radians": 2.1525663997378737
},
"translation": {
"x": 9.25674308451725,
"y": 1.5606251338713593
}
},
"time": 0.8915644285247777,
"velocity": 0.994696713688355
},
{
"acceleration": -0.5410670685838955,
"curvature": -0.11138921482626166,
"pose": {
"rotation": {
"radians": 2.1496128113505826
},
"translation": {
"x": 9.221270880290055,
"y": 1.614649974269203
}
},
"time": 0.9573612747080672,
"velocity": 0.9698172066962181
},
{
"acceleration": -0.6647988325560151,
"curvature": -0.2564140902600093,
"pose": {
"rotation": {
"radians": 2.1378882701891655
},
"translation": {
"x": 9.18627037421791,
"y": 1.6688097226520489
}
},
"time": 1.025134463597886,
"velocity": 0.9331473660550211
},
{
"acceleration": -0.9182756089949221,
"curvature": -0.6820356220585407,
"pose": {
"rotation": {
"radians": 2.0826092887171397
},
"translation": {
"x": 9.121961203618389,
"y": 1.7751766909117643
}
},
"time": 1.1653378220131938,
"velocity": 0.839940337060092
},
{
"acceleration": -1.1505714148356903,
"curvature": -1.043850383368243,
"pose": {
"rotation": {
"radians": 2.033585089001883
},
"translation": {
"x": 9.09481917368042,
"y": 1.8261814516825847
}
},
"time": 1.2369262160401235,
"velocity": 0.7742024609380447
},
{
"acceleration": -1.3157427721033317,
"curvature": -1.6089898146825676,
"pose": {
"rotation": {
"radians": 1.963790080529919
},
"translation": {
"x": 9.072431802916327,
"y": 1.8749442725152363
}
},
"time": 1.310223731470312,
"velocity": 0.689868434905592
},
{
"acceleration": -1.3877037610549485,
"curvature": -2.010906953850686,
"pose": {
"rotation": {
"radians": 1.9186540601217252
},
"translation": {
"x": 9.06333591097131,
"y": 1.8983079235385603
}
},
"time": 1.3479218442763863,
"velocity": 0.6402674154590638
},
{
"acceleration": -1.4057915293780923,
"curvature": -2.52469464795794,
"pose": {
"rotation": {
"radians": 1.8649337210229076
},
"translation": {
"x": 9.05579747631043,
"y": 1.9209032491312268
}
},
"time": 1.3867591019484184,
"velocity": 0.5863728069185246
},
{
"acceleration": -1.3525367749066248,
"curvature": -3.179235737730738,
"pose": {
"rotation": {
"radians": 1.8009992911535457
},
"translation": {
"x": 9.049928717686084,
"y": 1.9426665261220313
}
},
"time": 1.4271562007274197,
"velocity": 0.5295829076435544
},
{
"acceleration": -1.262759779540866,
"curvature": -4.001338298677569,
"pose": {
"rotation": {
"radians": 1.7250219133714393
},
"translation": {
"x": 9.045835328578901,
"y": 1.963537470621909
}
},
"time": 1.4696197872324097,
"velocity": 0.4721493453011266
},
{
"acceleration": -1.1783377075332189,
"curvature": -4.479954048958796,
"pose": {
"rotation": {
"radians": 1.6819286342382382
},
"translation": {
"x": 9.044485449107263,
"y": 1.9736205278374221
}
},
"time": 1.4918253443233112,
"velocity": 0.44410906092443786
},
{
"acceleration": -1.0777785724120321,
"curvature": -5.0022485023405245,
"pose": {
"rotation": {
"radians": 1.6351410733025706
},
"translation": {
"x": 9.043615691132757,
"y": 1.983459676622208
}
},
"time": 1.5147646268443702,
"velocity": 0.4170788393461164
},
{
"acceleration": -0.9641765584061394,
"curvature": -5.563002830414352,
"pose": {
"rotation": {
"radians": 1.5844820772496557
},
"translation": {
"x": 9.043237081063207,
"y": 1.9930485441015264
}
},
"time": 1.5385010478023362,
"velocity": 0.3914962334518687
},
{
"acceleration": -0.8410912409922903,
"curvature": -6.15219757678132,
"pose": {
"rotation": {
"radians": 1.5298336496093299
},
"translation": {
"x": 9.043360090089767,
"y": 2.002381054592947
}
},
"time": 1.5630854254394075,
"velocity": 0.3677925528312004
},
{
"acceleration": -0.7121148753248937,
"curvature": -6.7539004033764325,
"pose": {
"rotation": {
"radians": 1.471163856045926
},
"translation": {
"x": 9.043994609622386,
"y": 2.0114514433125414
}
},
"time": 1.5885487735596304,
"velocity": 0.3463755537609435
},
{
"acceleration": -0.5804386081811785,
"curvature": -7.345626160424511,
"pose": {
"rotation": {
"radians": 1.4085562036125392
},
"translation": {
"x": 9.045149926725284,
"y": 2.020254270081084
}
},
"time": 1.614894317301811,
"velocity": 0.3276145001636139
},
{
"acceleration": -0.44849790747945223,
"curvature": -7.898650923970558,
"pose": {
"rotation": {
"radians": 1.3422379598170844
},
"translation": {
"x": 9.046834699552406,
"y": 2.0287844330302427
}
},
"time": 1.6420896689706488,
"velocity": 0.311829268091956
},
{
"acceleration": -0.31776004679264747,
"curvature": -8.379755979770172,
"pose": {
"rotation": {
"radians": 1.2726021130860068
},
"translation": {
"x": 9.049056932782907,
"y": 2.0370371823087785
}
},
"time": 1.6700605927311771,
"velocity": 0.2992843673150918
},
{
"acceleration": -0.18868571794055594,
"curvature": -8.754637199448878,
"pose": {
"rotation": {
"radians": 1.2002165457804654
},
"translation": {
"x": 9.051823953056607,
"y": 2.0450081337887402
}
},
"time": 1.6986881178055842,
"velocity": 0.2901876836078905
},
{
"acceleration": -0.06086345109207212,
"curvature": -8.992697399991556,
"pose": {
"rotation": {
"radians": 1.1258144100474115
},
"translation": {
"x": 9.055142384409473,
"y": 2.052693282771658
}
},
"time": 1.7278106702126836,
"velocity": 0.28469267389869546
},
{
"acceleration": 0.06671140468573994,
"curvature": -9.072273533589081,
"pose": {
"rotation": {
"radians": 1.0502623657641006
},
"translation": {
"x": 9.059018123709075,
"y": 2.060089017694743
}
},
"time": 1.7572321789166931,
"velocity": 0.282901979342634
},
{
"acceleration": 0.19525831370743893,
"curvature": -8.984862553549556,
"pose": {
"rotation": {
"radians": 0.9745081222344926
},
"translation": {
"x": 9.063456316090065,
"y": 2.0671921338370813
}
},
"time": 1.7867358001335945,
"velocity": 0.2848702073573295
},
{
"acceleration": 0.3257880712087212,
"curvature": -8.73696470648949,
"pose": {
"rotation": {
"radians": 0.8995142718280369
},
"translation": {
"x": 9.068461330389635,
"y": 2.073999847025826
}
},
"time": 1.816101364959355,
"velocity": 0.29060407802627397
},
{
"acceleration": 0.4586941068315193,
"curvature": -8.348877194696666,
"pose": {
"rotation": {
"radians": 0.8261895260075646
},
"translation": {
"x": 9.074036734583,
"y": 2.080509807342401
}
},
"time": 1.8451235070507654,
"velocity": 0.30005914572058007
},
{
"acceleration": 0.5934224864560904,
"curvature": -7.8508404697106124,
"pose": {
"rotation": {
"radians": 0.7553292810898663
},
"translation": {
"x": 9.080185271218856,
"y": 2.086720112828689
}
},
"time": 1.8736272033180907,
"velocity": 0.31313362322131777
},
{
"acceleration": 0.7282836855385546,
"curvature": -7.277804230606778,
"pose": {
"rotation": {
"radians": 0.6875745598469939
},
"translation": {
"x": 9.086908832854846,
"y": 2.0926293231932327
}
},
"time": 1.9014782718853154,
"velocity": 0.3296610735809392
},
{
"acceleration": 0.8604567519407723,
"curvature": -6.664324224683687,
"pose": {
"rotation": {
"radians": 0.6233931527714859
},
"translation": {
"x": 9.094208437493041,
"y": 2.098236473517426
}
},
"time": 1.928587829037585,
"velocity": 0.34940452177711223
},
{
"acceleration": 0.986207278081664,
"curvature": -6.0407206581762996,
"pose": {
"rotation": {
"radians": 0.5630814432329075
},
"translation": {
"x": 9.102084204015402,
"y": 2.103541087961716
}
},
"time": 1.9549111801273935,
"velocity": 0.3720546269560453
},
{
"acceleration": 1.1012968037537219,
"curvature": -5.43095373795886,
"pose": {
"rotation": {
"radians": 0.5067817486016605
},
"translation": {
"x": 9.110535327619246,
"y": 2.108543193471789
}
},
"time": 1.980442606528315,
"velocity": 0.3972339054924404
},
{
"acceleration": 1.201514277075369,
"curvature": -4.852073764342435,
"pose": {
"rotation": {
"radians": 0.4545086852047163
},
"translation": {
"x": 9.119560055252716,
"y": 2.113243333484778
}
},
"time": 2.0052078451104127,
"velocity": 0.42450778358710284
},
{
"acceleration": 1.2832267475685695,
"curvature": -4.314778530494057,
"pose": {
"rotation": {
"radians": 0.40617864948125276
},
"translation": {
"x": 9.129155661050259,
"y": 2.117642581635449
}
},
"time": 2.02925586802999,
"velocity": 0.45340182646041066
},
{
"acceleration": 1.363585249509721,
"curvature": -3.8245553605338753,
"pose": {
"rotation": {
"radians": 0.3616381066471896
},
"translation": {
"x": 9.139318421768081,
"y": 2.1217425554624025
}
},
"time": 2.052651113965788,
"velocity": 0.48342323181117114
},
{
"acceleration": 1.3958457475049983,
"curvature": -2.988990670217486,
"pose": {
"rotation": {
"radians": 0.28310442796026913
},
"translation": {
"x": 9.161325380711018,
"y": 2.129053952055891
}
},
"time": 2.097752126308391,
"velocity": 0.5449223069795006
},
{
"acceleration": 1.3506307647075813,
"curvature": -2.331653762999727,
"pose": {
"rotation": {
"radians": 0.2170964540366548
},
"translation": {
"x": 9.185530265114306,
"y": 2.1352018624861255
}
},
"time": 2.1411673907359394,
"velocity": 0.6055233192074987
},
{
"acceleration": 1.186011068703352,
"curvature": -1.822274279495127,
"pose": {
"rotation": {
"radians": 0.16178110150455957
},
"translation": {
"x": 9.211864877828955,
"y": 2.140220205631838
}
},
"time": 2.183447058606241,
"velocity": 0.6626275393547467
},
{
"acceleration": 0.9281253959965489,
"curvature": -1.1235798833631299,
"pose": {
"rotation": {
"radians": 0.07687690825322135
},
"translation": {
"x": 9.270558132297612,
"y": 2.1470543954634422
}
},
"time": 2.2664555958749437,
"velocity": 0.761076583352303
},
{
"acceleration": 0.7219525548275688,
"curvature": -0.6934704544548828,
"pose": {
"rotation": {
"radians": 0.018220862803491077
},
"translation": {
"x": 9.336479092819946,
"y": 2.1500361324715502
}
},
"time": 2.3490045604849854,
"velocity": 0.8376923738201032
},
{
"acceleration": 0.6145170724974617,
"curvature": -0.4086864226020985,
"pose": {
"rotation": {
"radians": -0.020664461987125782
},
"translation": {
"x": 9.40837091703079,
"y": 2.149826372391489
}
},
"time": 2.4318674089789263,
"velocity": 0.8975154189905935
},
{
"acceleration": 0.6397188864093253,
"curvature": -0.195070905374241,
"pose": {
"rotation": {
"radians": -0.04335996490129725
},
"translation": {
"x": 9.484620817416868,
"y": 2.1472814509175366
}
},
"time": 2.5145319811597324,
"velocity": 0.9483142098863977
},
{
"acceleration": -0.7844566065604206,
"curvature": -3.5216386557385e-15,
"pose": {
"rotation": {
"radians": -0.0510572252921929
},
"translation": {
"x": 9.56323490723678,
"y": 2.143467118847381
}
},
"time": 2.5953265164027175,
"velocity": 0.9999999999999991
},
{
"acceleration": -0.5270901522807167,
"curvature": -0.245296627623905,
"pose": {
"rotation": {
"radians": -0.0610930847097285
},
"translation": {
"x": 9.642259015112986,
"y": 2.1391593954858905
}
},
"time": 2.6770901052162133,
"velocity": 0.9358600125791627
},
{
"acceleration": -0.35031030122322654,
"curvature": -0.44171056511820783,
"pose": {
"rotation": {
"radians": -0.08861338221574168
},
"translation": {
"x": 9.721232374405535,
"y": 2.133339837668527
}
},
"time": 2.763823208820438,
"velocity": 0.8901438477926327
},
{
"acceleration": -0.21878828461479813,
"curvature": -0.5905840163831578,
"pose": {
"rotation": {
"radians": -0.12986882458944177
},
"translation": {
"x": 9.800083684306724,
"y": 2.124770120485902
}
},
"time": 2.854547085415223,
"velocity": 0.8583623392545747
},
{
"acceleration": -0.11536021720518985,
"curvature": -0.692769227988052,
"pose": {
"rotation": {
"radians": -0.18125484971277306
},
"translation": {
"x": 9.87872156953917,
"y": 2.1124920157989937
}
},
"time": 2.9483933275723384,
"velocity": 0.8378298809154745
},
{
"acceleration": -0.032454392482154745,
"curvature": -0.7501183527749062,
"pose": {
"rotation": {
"radians": -0.23932271884266074
},
"translation": {
"x": 9.957037161107964,
"y": 2.095807287230759
}
},
"time": 3.044602676935802,
"velocity": 0.8267311494757353
},
{
"acceleration": 0.0329267566881469,
"curvature": -0.7668236439814454,
"pose": {
"rotation": {
"radians": -0.3008689896215245
},
"translation": {
"x": 10.034906677052861,
"y": 2.074257585157744
}
},
"time": 3.1425207750349875,
"velocity": 0.8235532770889182
},
{
"acceleration": 0.082190569297245,
"curvature": -0.7496769418969819,
"pose": {
"rotation": {
"radians": -0.36307048021163857
},
"translation": {
"x": 10.11219400320046,
"y": 2.047604341701703
}
},
"time": 3.241594463943243,
"velocity": 0.8268154523377975
},
{
"acceleration": 0.11679826841772288,
"curvature": -0.7071674153328417,
"pose": {
"rotation": {
"radians": -0.42360552875931884
},
"translation": {
"x": 10.188753273916367,
"y": 2.0158086657212078
}
},
"time": 3.3413630453850134,
"velocity": 0.8350154888444752
},
{
"acceleration": 0.13892214711220557,
"curvature": -0.6479956252379948,
"pose": {
"rotation": {
"radians": -0.48071374125486177
},
"translation": {
"x": 10.264431452857387,
"y": 1.979011237803264
}
},
"time": 3.4414392810466468,
"velocity": 0.8467042198795179
},
{
"acceleration": 0.15143211955450714,
"curvature": -0.5797320386091145,
"pose": {
"rotation": {
"radians": -0.5331788387954262
},
"translation": {
"x": 10.339070913723697,
"y": 1.937512205254925
}
},
"time": 3.541480312524196,
"velocity": 0.8606021347716988
},
{
"acceleration": 0.15756083902782506,
"curvature": -0.5080492078258043,
"pose": {
"rotation": {
"radians": -0.5802496162000459
},
"translation": {
"x": 10.412512021011018,
"y": 1.891751077094904
}
},
"time": 3.641153713729234,
"velocity": 0.8756958891793845
},
{
"acceleration": 0.1605568655025585,
"curvature": -0.43655435516103475,
"pose": {
"rotation": {
"radians": -0.6215282177235089
},
"translation": {
"x": 10.484595710762804,
"y": 1.842286619045189
}
},
"time": 3.7401055109625223,
"velocity": 0.8912868173747726
},
{
"acceleration": 0.1635181184956274,
"curvature": -0.3670115382562595,
"pose": {
"rotation": {
"radians": -0.6568530209500283
},
"translation": {
"x": 10.555166071322406,
"y": 1.7897767485226561
}
},
"time": 3.837935439553976,
"velocity": 0.9069940840617555
},
{
"acceleration": 0.1694790812657724,
"curvature": -0.2997070786420648,
"pose": {
"rotation": {
"radians": -0.6861934041037139
},
"translation": {
"x": 10.624072924085258,
"y": 1.7349584296306846
}
},
"time": 3.9341818301247,
"velocity": 0.9227321127598755
},
{
"acceleration": 0.18177194557621362,
"curvature": -0.23378347000575753,
"pose": {
"rotation": {
"radians": -0.7095631685508893
},
"translation": {
"x": 10.691174404251054,
"y": 1.6786275681507696
}
},
"time": 4.0283159776869075,
"velocity": 0.9386858816044552
},
{
"acceleration": 0.20471837903833187,
"curvature": -0.16745209428852906,
"pose": {
"rotation": {
"radians": -0.7269520777760997
},
"translation": {
"x": 10.756339541575922,
"y": 1.6216189065341355
}
},
"time": 4.119744327918866,
"velocity": 0.9553049907069417
},
{
"acceleration": 0.24484719775670472,
"curvature": -0.09805143052710649,
"pose": {
"rotation": {
"radians": -0.7382712754433364
},
"translation": {
"x": 10.819450841124608,
"y": 1.5647859188933513
}
},
"time": 4.207816265260781,
"velocity": 0.9733349349583441
},
{
"acceleration": -0.1480584500490891,
"curvature": -0.021941925894111185,
"pose": {
"rotation": {
"radians": -0.7433073004494564
},
"translation": {
"x": 10.880406864022643,
"y": 1.5089807059939417
}
},
"time": 4.291835384396622,
"velocity": 0.9939067808367417
},
{
"acceleration": -0.35190260799181955,
"curvature": 0.06576511648107432,
"pose": {
"rotation": {
"radians": -0.7416800565814352
},
"translation": {
"x": 10.93912480820853,
"y": 1.4550338902460052
}
},
"time": 4.372546847019331,
"velocity": 0.9819567667796284
},
{
"acceleration": -0.4236485016854086,
"curvature": 0.17163911676757343,
"pose": {
"rotation": {
"radians": -0.7328020798817407
},
"translation": {
"x": 10.995543089185917,
"y": 1.4037345106958243
}
},
"time": 4.451313532445141,
"velocity": 0.9542385647554147
},
{
"acceleration": -0.517593128897381,
"curvature": 0.3044741146498803,
"pose": {
"rotation": {
"radians": -0.715840389942731
},
"translation": {
"x": 11.049623920775776,
"y": 1.3558099180174796
}
},
"time": 4.528356396820839,
"velocity": 0.9215994706970981
},
{
"acceleration": -0.6813864741665195,
"curvature": 0.47575430285615156,
"pose": {
"rotation": {
"radians": -0.6896900516554774
},
"translation": {
"x": 11.10135589586858,
"y": 1.3119056695044673
}
},
"time": 4.603568165003913,
"velocity": 0.8826703762733166
},
{
"acceleration": -0.81657734608011,
"curvature": 0.9899437953364786,
"pose": {
"rotation": {
"radians": -0.6041930085513147
},
"translation": {
"x": 11.197875027985479,
"y": 1.2382108371951581
}
},
"time": 4.749349896189572,
"velocity": 0.783336676462829
},
{
"acceleration": -0.8184117646291279,
"curvature": 1.3548129955271921,
"pose": {
"rotation": {
"radians": -0.5419118797007609
},
"translation": {
"x": 11.242794492907624,
"y": 1.2091214560074386
}
},
"time": 4.820290849724736,
"velocity": 0.7254079008966925
},
{
"acceleration": -0.7481895127841545,
"curvature": 1.779734695735516,
"pose": {
"rotation": {
"radians": -0.4654768348403819
},
"translation": {
"x": 11.285634878633163,
"y": 1.185414614185433
}
},
"time": 4.890573660940911,
"velocity": 0.6678876213461667
},
{
"acceleration": -0.6565821499232533,
"curvature": 1.998368208038889,
"pose": {
"rotation": {
"radians": -0.42219873575277594
},
"translation": {
"x": 11.3063235615944,
"y": 1.1755670093665147
}
},
"time": 4.925565885806462,
"velocity": 0.6417068056727766
},
{
"acceleration": -0.5283634090782228,
"curvature": 2.2045655602874352,
"pose": {
"rotation": {
"radians": -0.3760222727254756
},
"translation": {
"x": 11.326555384682736,
"y": 1.1670253269939055
}
},
"time": 4.9604098557943095,
"velocity": 0.6188288769462941
},
{
"acceleration": -0.36102751458133964,
"curvature": 2.3806320296522476,
"pose": {
"rotation": {
"radians": -0.32759487486341204
},
"translation": {
"x": 11.346356809185151,
"y": 1.1597496582442446
}
},
"time": 4.995010796101758,
"velocity": 0.6005470061681389
},
{
"acceleration": -0.1493743729727525,
"curvature": 2.5057235444403565,
"pose": {
"rotation": {
"radians": -0.27783291638025437
},
"translation": {
"x": 11.36575707415955,
"y": 1.1536861862667163
}
},
"time": 5.02920769353168,
"velocity": 0.5882009852826211
},
{
"acceleration": 0.11799311475393305,
"curvature": 2.5580302198548353,
"pose": {
"rotation": {
"radians": -0.227925359970689
},
"translation": {
"x": 11.384788277083262,
"y": 1.1487665579015358
}
},
"time": 5.062769209385069,
"velocity": 0.583187754896006
},
{
"acceleration": 0.6974370324105198,
"curvature": 2.5177814700300765,
"pose": {
"rotation": {
"radians": -0.179306075887254
},
"translation": {
"x": 11.403485454501551,
"y": 1.1449072553984383
}
},
"time": 5.09539766453267,
"velocity": 0.5870376879484805
},
{
"acceleration": 2.0,
"curvature": 2.1080438606026535,
"pose": {
"rotation": {
"radians": -0.0925163664811059
},
"translation": {
"x": 11.440033058233613,
"y": 1.1399559643359645
}
},
"time": 5.156039556562081,
"velocity": 0.6293315891652319
},
{
"acceleration": 2.0000000000000053,
"curvature": -1.2508304153171278e-13,
"pose": {
"rotation": {
"radians": -0.008197992027366395
},
"translation": {
"x": 11.51100667591506,
"y": 1.1372722241273046
}
},
"time": 5.253731497751687,
"velocity": 0.8247154715444455
},
{
"acceleration": 0.1020557134204292,
"curvature": 0.029447061608124356,
"pose": {
"rotation": {
"radians": -0.007016734541342679
},
"translation": {
"x": 11.582036086989271,
"y": 1.1367194431392162
}
},
"time": 5.332363033023985,
"velocity": 0.9819785420890413
},
{
"acceleration": 0.020167564586844326,
"curvature": 0.03725092749285728,
"pose": {
"rotation": {
"radians": -0.004408088335290678
},
"translation": {
"x": 11.656615909776953,
"y": 1.1362898936376569
}
},
"time": 5.408015412145355,
"velocity": 0.9896992996122255
},
{
"acceleration": 0.033071661568074256,
"curvature": 0.03125672825264916,
"pose": {
"rotation": {
"radians": -0.0015895054178001369
},
"translation": {
"x": 11.737319496683742,
"y": 1.136051239375
}
},
"time": 5.4894916744971605,
"velocity": 0.9913424773955002
},
{
"acceleration": 0.029911877187486714,
"curvature": 0.02055821697512899,
"pose": {
"rotation": {
"radians": 0.0007054045558901569
},
"translation": {
"x": 11.82576965300065,
"y": 1.1360191682001561
}
},
"time": 5.5785818912012965,
"velocity": 0.9942888388913658
},
{
"acceleration": 0.02305364214979267,
"curvature": 0.010040377308567907,
"pose": {
"rotation": {
"radians": 0.0021705046506719215
},
"translation": {
"x": 11.922765506247389,
"y": 1.1361668998457954
}
},
"time": 5.675992269677598,
"velocity": 0.9972025661691355
},
{
"acceleration": -0.010651279743247605,
"curvature": 0.001282138981929046,
"pose": {
"rotation": {
"radians": 0.0027452299046379974
},
"translation": {
"x": 12.028409375515686,
"y": 1.1364346937155707
}
},
"time": 5.781803423766752,
"velocity": 0.9996418986509634
},
{
"acceleration": -0.012441018230990156,
"curvature": -0.005633946607002343,
"pose": {
"rotation": {
"radians": 0.002477053850238936
},
"translation": {
"x": 12.142233640812618,
"y": 1.136739356671332
}
},
"time": 5.895738029564575,
"velocity": 0.9984283492921742
},
{
"acceleration": -0.009999129033809577,
"curvature": -0.011063799949047133,
"pose": {
"rotation": {
"radians": 0.001450023178425772
},
"translation": {
"x": 12.263327612403929,
"y": 1.1369837508203453
}
},
"time": 6.017114651739709,
"velocity": 0.9969183005228773
},
{
"acceleration": -0.008707968226242426,
"curvature": -0.013337906554656567,
"pose": {
"rotation": {
"radians": 0.0006809630137050267
},
"translation": {
"x": 12.326226217388081,
"y": 1.137051518289021
}
},
"time": 6.080227703239977,
"velocity": 0.9962872249772087
},
{
"acceleration": -0.007580882293523686,
"curvature": -0.015364176601000026,
"pose": {
"rotation": {
"radians": -0.0002423932065366357
},
"translation": {
"x": 12.390464400157347,
"y": 1.1370663013025082
}
},
"time": 6.1447234572123035,
"velocity": 0.9957255980008901
},
{
"acceleration": -0.006544894406127772,
"curvature": -0.017162841480816517,
"pose": {
"rotation": {
"radians": -0.0013073258410387155
},
"translation": {
"x": 12.455860207634641,
"y": 1.1370162695984831
}
},
"time": 6.21041643995142,
"velocity": 0.9952275872312344
},
{
"acceleration": -0.005527748000604175,
"curvature": -0.01874100338972087,
"pose": {
"rotation": {
"radians": -0.002500093685101928
},
"translation": {
"x": 12.52222778288592,
"y": 1.1368905040775648
}
},
"time": 6.277117016054654,
"velocity": 0.9947910390038108
},
{
"acceleration": -0.004455383226034608,
"curvature": -0.020091339213997188,
"pose": {
"rotation": {
"radians": -0.003805365984360217
},
"translation": {
"x": 12.589381329787159,
"y": 1.136679293921663
}
},
"time": 6.344635194344111,
"velocity": 0.9944178155287668
},
{
"acceleration": -0.003249345215903027,
"curvature": -0.021190634249347157,
"pose": {
"rotation": {
"radians": -0.005205527937773964
},
"translation": {
"x": 12.657139077691326,
"y": 1.13637443371233
}
},
"time": 6.412784395579957,
"velocity": 0.994114184720713
},
{
"acceleration": -0.0018247324804737816,
"curvature": -0.02199809869195863,
"pose": {
"rotation": {
"radians": -0.006679865949924291
},
"translation": {
"x": 12.725327246095375,
"y": 1.1359695205491125
}
},
"time": 6.481385183581822,
"velocity": 0.993891277078412
},
{
"acceleration": -8.940256627369579e-05,
"curvature": -0.022453576196033456,
"pose": {
"rotation": {
"radians": -0.0082036413543086
},
"translation": {
"x": 12.793784009307206,
"y": 1.135460251167899
}
},
"time": 6.550268962139494,
"velocity": 0.9937655826103
},
{
"acceleration": 0.002054579836467538,
"curvature": -0.022475936992823964,
"pose": {
"rotation": {
"radians": -0.00974707110155122
},
"translation": {
"x": 12.862363461112656,
"y": 1.1348447190592745
}
},
"time": 6.619281642989314,
"velocity": 0.9937594126995266
},
{
"acceleration": 0.0047058945362949385,
"curvature": -0.02196218109386161,
"pose": {
"rotation": {
"radians": -0.011274252518245749
},
"translation": {
"x": 12.930939579442473,
"y": 1.1341237115868674
}
},
"time": 6.688287295611757,
"velocity": 0.993901190322007
},
{
"acceleration": 0.00795358646615149,
"curvature": -0.02078806978745297,
"pose": {
"rotation": {
"radians": -0.012742098508464843
},
"translation": {
"x": 12.999410191039303,
"y": 1.133301007105703
}
},
"time": 6.757171798168421,
"velocity": 0.9942253535262238
},
{
"acceleration": 0.011859461786564987,
"curvature": -0.01881144005285281,
"pose": {
"rotation": {
"radians": -0.01409939092350225
},
"translation": {
"x": 13.067700936124655,
"y": 1.1323836720805502
}
},
"time": 6.825846520982703,
"velocity": 0.9947715638721661
},
{
"acceleration": 0.016431789776300713,
"curvature": -0.01587967421585319,
"pose": {
"rotation": {
"radians": -0.01528611311143376
},
"translation": {
"x": 13.13576923306589,
"y": 1.1313823582042772
}
},
"time": 6.894252089430497,
"velocity": 0.995582817097161
},
{
"acceleration": 0.021590417158476274,
"curvature": -0.011842960823153248,
"pose": {
"rotation": {
"radians": -0.016233284232191635
},
"translation": {
"x": 13.203608243043197,
"y": 1.1303115995161956
}
},
"time": 6.96236229089728,
"velocity": 0.9967019896092847
},
{
"acceleration": 0.02712678700122853,
"curvature": -0.006574763400232061,
"pose": {
"rotation": {
"radians": -0.016863578091698396
},
"translation": {
"x": 13.271250834716572,
"y": 1.1291901095204189
}
},
"time": 7.030188207670176,
"velocity": 0.9981663794465676
},
{
"acceleration": -0.6828901289220072,
"curvature": 1.3010908754721356e-14,
"pose": {
"rotation": {
"radians": -0.017093049587216348
},
"translation": {
"x": 13.338773548892794,
"y": 1.1280410783042045
}
},
"time": 7.097782668943669,
"velocity": 0.9999999999999964
},
{
"acceleration": -0.5584166907200078,
"curvature": 0.1768803421387377,
"pose": {
"rotation": {
"radians": -0.011017024676831645
},
"translation": {
"x": 13.406103462210641,
"y": 1.1270280037683245
}
},
"time": 7.166744001899289,
"velocity": 0.9529069864472998
},
{
"acceleration": -0.5057763526096083,
"curvature": 0.34027306022717985,
"pose": {
"rotation": {
"radians": 0.006157482635284315
},
"translation": {
"x": 13.472479038793772,
"y": 1.12680682666731
}
},
"time": 7.237883112123722,
"velocity": 0.9131817199350063
},
{
"acceleration": -0.4833535856264325,
"curvature": 0.5036430706426729,
"pose": {
"rotation": {
"radians": 0.03338788421784641
},
"translation": {
"x": 13.537122064097318,
"y": 1.1280282890098645
}
},
"time": 7.310130006135044,
"velocity": 0.8766409493945871
},
{
"acceleration": -0.466968039164065,
"curvature": 0.673953983169797,
"pose": {
"rotation": {
"radians": 0.07004723517320971
},
"translation": {
"x": 13.599434573954925,
"y": 1.1311985087969196
}
},
"time": 7.3827570866963415,
"velocity": 0.8415363895917041
},
{
"acceleration": -0.439009163214858,
"curvature": 0.8522894978070117,
"pose": {
"rotation": {
"radians": 0.11561614636112962
},
"translation": {
"x": 13.658985783367278,
"y": 1.136689280124445
}
},
"time": 7.455281437190169,
"velocity": 0.8076698358499541
},
{
"acceleration": -0.3858185253579933,
"curvature": 1.033015683354488,
"pose": {
"rotation": {
"radians": 0.169406336084135
},
"translation": {
"x": 13.71549901529064,
"y": 1.1447483732862658
}
},
"time": 7.527372487150538,
"velocity": 0.7760212043315717
},
{
"acceleration": -0.29803212995503287,
"curvature": 1.2027304359491486,
"pose": {
"rotation": {
"radians": 0.23029908228875304
},
"translation": {
"x": 13.768838629425375,
"y": 1.1555098348768826
}
},
"time": 7.598758990592431,
"velocity": 0.7484789688431573
},
{
"acceleration": -0.1710706104872126,
"curvature": 1.3406065767183282,
"pose": {
"rotation": {
"radians": 0.29652779422944153
},
"translation": {
"x": 13.81899695100449,
"y": 1.1690042878942917
}
},
"time": 7.669141800850175,
"velocity": 0.7275026299898208
},
{
"acceleration": -0.004179087924936051,
"curvature": 1.4217318798377983,
"pose": {
"rotation": {
"radians": 0.36557204608570015
},
"translation": {
"x": 13.866081199582164,
"y": 1.1851692318428002
}
},
"time": 7.738129777601297,
"velocity": 0.7157008146907288
},
{
"acceleration": 0.2020671115207815,
"curvature": 1.4236917134452223,
"pose": {
"rotation": {
"radians": 0.43423644717160986
},
"translation": {
"x": 13.910300417822285,
"y": 1.2038593428358464
}
},
"time": 7.80521964751505,
"velocity": 0.7154204402254867
},
{
"acceleration": 0.4487346707193562,
"curvature": 1.3340326882956832,
"pose": {
"rotation": {
"radians": 0.4989368927314571
},
"translation": {
"x": 13.951952400286974,
"y": 1.2248567736988178
}
},
"time": 7.869829894455025,
"velocity": 0.7284760461992918
},
{
"acceleration": 0.91421972261952,
"curvature": 1.154570946986932,
"pose": {
"rotation": {
"radians": 0.5561229591853454
},
"translation": {
"x": 13.991410622225127,
"y": 1.2478814540718721
}
},
"time": 7.931375867071721,
"velocity": 0.7560938579555474
},
{
"acceleration": 1.217140922254727,
"curvature": 0.5929478547919255,
"pose": {
"rotation": {
"radians": 0.636280563196568
},
"translation": {
"x": 14.065539661682465,
"y": 1.2986429665995995
}
},
"time": 8.042708120672525,
"velocity": 0.8578759999610805
},
{
"acceleration": -1.4191746309926134,
"curvature": -0.08529065904486491,
"pose": {
"rotation": {
"radians": 0.6591803831053904
},
"translation": {
"x": 14.136692245885138,
"y": 1.3530502577427423
}
},
"time": 8.140353716963325,
"velocity": 0.9767244510845765
},
{
"acceleration": -0.7918207082808301,
"curvature": -0.7103485574911425,
"pose": {
"rotation": {
"radians": 0.6219638961835618
},
"translation": {
"x": 14.209247417978437,
"y": 1.4076733404416855
}
},
"time": 8.240643155524666,
"velocity": 0.8343962241218292
},
{
"acceleration": -0.4911973264474821,
"curvature": -0.9561343874628826,
"pose": {
"rotation": {
"radians": 0.583087021364719
},
"translation": {
"x": 14.24741884648062,
"y": 1.4339830713420847
}
},
"time": 8.297751919943376,
"velocity": 0.7891763218307618
},
{
"acceleration": -0.24964008509048177,
"curvature": -1.1355070006960124,
"pose": {
"rotation": {
"radians": 0.533287246019641
},
"translation": {
"x": 14.28754027579515,
"y": 1.4590754665436858
}
},
"time": 8.358878326924698,
"velocity": 0.7591511941461958
},
{
"acceleration": -0.05445773039114969,
"curvature": -1.2380003365703778,
"pose": {
"rotation": {
"radians": 0.4752722537424522
},
"translation": {
"x": 14.330078102835843,
"y": 1.4825739516463923
}
},
"time": 8.423581274828573,
"velocity": 0.7429987447258675
},
{
"acceleration": 0.10029945451517443,
"curvature": -1.2620490443709282,
"pose": {
"rotation": {
"radians": 0.412149132962637
},
"translation": {
"x": 14.375443693088618,
"y": 1.5041427300930588
}
},
"time": 8.49135666212903,
"velocity": 0.7393078509571034
},
{
"acceleration": 0.21702162114517812,
"curvature": -1.2162858179194473,
"pose": {
"rotation": {
"radians": 0.34712324541117867
},
"translation": {
"x": 14.423980309400028,
"y": 1.5234970832723134
}
},
"time": 8.561699519157324,
"velocity": 0.7463632011460801
},
{
"acceleration": 0.29764866481840535,
"curvature": -1.1173307062598414,
"pose": {
"rotation": {
"radians": 0.28316580129542906
},
"translation": {
"x": 14.475950040765788,
"y": 1.5404136706213736
}
},
"time": 8.634162752476085,
"velocity": 0.762089289514339
},
{
"acceleration": 0.3460513810661417,
"curvature": -0.9850128356407626,
"pose": {
"rotation": {
"radians": 0.22275093416419475
},
"translation": {
"x": 14.531520731119317,
"y": 1.5547408297288676
}
},
"time": 8.708390149941085,
"velocity": 0.7841829752627413
},
{
"acceleration": 0.36905410970570635,
"curvature": -0.8374367131513869,
"pose": {
"rotation": {
"radians": 0.16773256704113906
},
"translation": {
"x": 14.590752908120262,
"y": 1.5664088764376487
}
},
"time": 8.784110264612446,
"velocity": 0.8103860255192523
},
{
"acceleration": 0.37607252931958063,
"curvature": -0.6878441593561746,
"pose": {
"rotation": {
"radians": 0.11936933460092346
},
"translation": {
"x": 14.653586711943037,
"y": 1.575440404947619
}
},
"time": 8.861093314205169,
"velocity": 0.8387969363491247
},
{
"acceleration": 0.3781935681916869,
"curvature": -0.5436828648189846,
"pose": {
"rotation": {
"radians": 0.0784571251070858
},
"translation": {
"x": 14.719828824065353,
"y": 1.5819605879185428
}
},
"time": 8.939084161636917,
"velocity": 0.8681271516065597
},
{
"acceleration": -1.4723643759949634,
"curvature": -0.40711613860782936,
"pose": {
"rotation": {
"radians": 0.045516257727021635
},
"translation": {
"x": 14.789139396056747,
"y": 1.5862074765728682
}
},
"time": 9.01772596553286,
"velocity": 0.897868976030997
},
{
"acceleration": -1.9999999999999996,
"curvature": -0.27591181820632793,
"pose": {
"rotation": {
"radians": 0.02099691074606268
},
"translation": {
"x": 14.86101897836713,
"y": 1.5885423007985464
}
},
"time": 9.10391473867785,
"velocity": 0.7709676968416018
},
{
"acceleration": -2.0000000000000004,
"curvature": -0.14385562728557466,
"pose": {
"rotation": {
"radians": 0.005494843086023575
},
"translation": {
"x": 14.934795449115297,
"y": 1.589459769251846
}
},
"time": 9.215874141857114,
"velocity": 0.5470488904830738
},
{
"acceleration": -2.0000000000000004,
"curvature": -9.868649107779874e-15,
"pose": {
"rotation": {
"radians": -1.3322676295502044e-14
},
"translation": {
"x": 15.009610942877481,
"y": 1.5895983694601776
}
},
"time": 9.48939858709865,
"velocity": 0.0
}
]