[
{
"acceleration": 2.0000000000000004,
"curvature": 0.0,
"pose": {
"rotation": {
"radians": -1.5707963267948966
},
"translation": {
"x": 9.443,
"y": 4.82
}
},
"time": 0.0,
"velocity": 0.0
},
{
"acceleration": 2.0,
"curvature": -1.5301495705076351,
"pose": {
"rotation": {
"radians": -1.6328948359760331
},
"translation": {
"x": 9.441530678509757,
"y": 4.755570429222521
}
},
"time": 0.25386280270354283,
"velocity": 0.5077256054070858
},
{
"acceleration": 1.8275485534979652,
"curvature": -1.5242468641130875,
"pose": {
"rotation": {
"radians": -1.6884179477742123
},
"translation": {
"x": 9.438331476783633,
"y": 4.720078407110609
}
},
"time": 0.31635777028965684,
"velocity": 0.6327155405793138
},
{
"acceleration": 0.8686872783614856,
"curvature": -1.2729363693216016,
"pose": {
"rotation": {
"radians": -1.7437915912259616
},
"translation": {
"x": 9.432602355301013,
"y": 4.681156294430501
}
},
"time": 0.37377534254850214,
"velocity": 0.7376489417063314
},
{
"acceleration": 0.8422059822346322,
"curvature": -0.965443598469744,
"pose": {
"rotation": {
"radians": -1.792694049643224
},
"translation": {
"x": 9.423958752534148,
"y": 4.638201562188809
}
},
"time": 0.43123077299642576,
"velocity": 0.7875597432092258
},
{
"acceleration": 0.639950876190194,
"curvature": -0.6913599890784465,
"pose": {
"rotation": {
"radians": -1.8327755647564368
},
"translation": {
"x": 9.41221813998334,
"y": 4.590851674162835
}
},
"time": 0.49124770499408243,
"velocity": 0.8381063623730214
},
{
"acceleration": 0.4475521511230632,
"curvature": -0.309541504807901,
"pose": {
"rotation": {
"radians": -1.8867479797629125
},
"translation": {
"x": 9.379613670615084,
"y": 4.482590531289467
}
},
"time": 0.6198390554929543,
"velocity": 0.9203985097952547
},
{
"acceleration": 0.35815729289432346,
"curvature": -0.1844447610064063,
"pose": {
"rotation": {
"radians": -1.90232126627483
},
"translation": {
"x": 9.359226522854089,
"y": 4.421965590203266
}
},
"time": 0.6881958046497647,
"velocity": 0.9509917199241649
},
{
"acceleration": 0.302344380508216,
"curvature": -0.08656610254259738,
"pose": {
"rotation": {
"radians": -1.9114232972171736
},
"translation": {
"x": 9.3366583614033,
"y": 4.357476214711424
}
},
"time": 0.7590945044098834,
"velocity": 0.9763846062999764
},
{
"acceleration": -0.2213420470288823,
"curvature": -0.005603636529966766,
"pose": {
"rotation": {
"radians": -1.9146451836474763
},
"translation": {
"x": 9.312456157762611,
"y": 4.289645536366589
}
},
"time": 0.8320318120703688,
"velocity": 0.998436791400523
},
{
"acceleration": -0.23677561169502573,
"curvature": 0.06674925658550478,
"pose": {
"rotation": {
"radians": -1.9123098746994016
},
"translation": {
"x": 9.287256650403696,
"y": 4.219110961060853
}
},
"time": 0.9076843547731179,
"velocity": 0.9816917027357566
},
{
"acceleration": -0.23718883088188547,
"curvature": 0.13760750553273884,
"pose": {
"rotation": {
"radians": -1.9044602044996952
},
"translation": {
"x": 9.261767633760648,
"y": 4.146603215953883
}
},
"time": 0.9867286278873764,
"velocity": 0.9629759466181393
},
{
"acceleration": -0.26082007165333926,
"curvature": 0.2138615067986618,
"pose": {
"rotation": {
"radians": -1.8908419128753298
},
"translation": {
"x": 9.236749247220587,
"y": 4.072925396401045
}
},
"time": 1.0683503264497325,
"velocity": 0.9436161913615404
},
{
"acceleration": -0.30833380582989645,
"curvature": 0.30326792419367976,
"pose": {
"rotation": {
"radians": -1.8708663992898662
},
"translation": {
"x": 9.212995264114292,
"y": 3.9989320128815304
}
},
"time": 1.1516659776189222,
"velocity": 0.9218857972537478
},
{
"acceleration": -0.38298050232230707,
"curvature": 0.4158128866024118,
"pose": {
"rotation": {
"radians": -1.8435420014679218
},
"translation": {
"x": 9.191314380706828,
"y": 3.9255080379264804
}
},
"time": 1.2358975557853014,
"velocity": 0.8959143541866497
},
{
"acceleration": -0.4882440733380223,
"curvature": 0.5656053890702463,
"pose": {
"rotation": {
"radians": -1.8073625231592454
},
"translation": {
"x": 9.172511505188156,
"y": 3.853547953047115
}
},
"time": 1.3204422666822033,
"velocity": 0.8635353783386599
},
{
"acceleration": -0.6227278831036691,
"curvature": 0.7736081550421898,
"pose": {
"rotation": {
"radians": -1.7601419022319735
},
"translation": {
"x": 9.157369046663772,
"y": 3.783934795662854
}
},
"time": 1.4049609861778494,
"velocity": 0.822269614458792
},
{
"acceleration": -0.7703079167548404,
"curvature": 1.0712978406942206,
"pose": {
"rotation": {
"radians": -1.6987927354871482
},
"translation": {
"x": 9.146628204145317,
"y": 3.7175192060294506
}
},
"time": 1.4894868834445418,
"velocity": 0.7696329813864664
},
{
"acceleration": -0.8677392044901214,
"curvature": 1.5040362610623497,
"pose": {
"rotation": {
"radians": -1.6190866022025105
},
"translation": {
"x": 9.140970255541209,
"y": 3.6550984741671098
}
},
"time": 1.574544493920751,
"velocity": 0.7041124306563932
},
{
"acceleration": -0.908781054923283,
"curvature": 1.7886599930938245,
"pose": {
"rotation": {
"radians": -1.5706846133694512
},
"translation": {
"x": 9.140239276464287,
"y": 3.6256155886563395
}
},
"time": 1.6175704934742523,
"velocity": 0.6667770840314456
},
{
"acceleration": -0.9202474780250703,
"curvature": 2.1280851367014075,
"pose": {
"rotation": {
"radians": -1.5155636359948204
},
"translation": {
"x": 9.14099784664726,
"y": 3.59739558678862
}
},
"time": 1.661206359245187,
"velocity": 0.627121635903645
},
{
"acceleration": -0.8940700345776675,
"curvature": 2.5265538052914827,
"pose": {
"rotation": {
"radians": -1.4529358319442114
},
"translation": {
"x": 9.143305940772034,
"y": 3.570513794397911
}
},
"time": 1.7056806763936854,
"velocity": 0.5861942577108522
},
{
"acceleration": -0.8260290802596919,
"curvature": 2.9824081677122334,
"pose": {
"rotation": {
"radians": -1.3820872675691396
},
"translation": {
"x": 9.147216280137307,
"y": 3.5450382742274753
}
},
"time": 1.751231117794933,
"velocity": 0.5454689729922109
},
{
"acceleration": -0.7486863630510467,
"curvature": 3.483369285579138,
"pose": {
"rotation": {
"radians": -1.3025109219757662
},
"translation": {
"x": 9.152773747939523,
"y": 3.521029171146381
}
},
"time": 1.7980716996898813,
"velocity": 0.5067772902106978
},
{
"acceleration": -0.6849081877071118,
"curvature": 3.742710486957574,
"pose": {
"rotation": {
"radians": -1.2593929160340984
},
"translation": {
"x": 9.156181893876585,
"y": 3.5095909951040696
}
},
"time": 1.8220473486649769,
"velocity": 0.48882704877774497
},
{
"acceleration": -0.6130474733541175,
"curvature": 4.001306609629859,
"pose": {
"rotation": {
"radians": -1.2140929258015447
},
"translation": {
"x": 9.160014804553828,
"y": 3.498538057366005
}
},
"time": 1.846394742969102,
"velocity": 0.472151319069516
},
{
"acceleration": -0.5343256990991205,
"curvature": 4.252640708519553,
"pose": {
"rotation": {
"radians": -1.1666944101988526
},
"translation": {
"x": 9.16427562552185,
"y": 3.4878753575554295
}
},
"time": 1.8711108644513277,
"velocity": 0.45699916324372425
},
{
"acceleration": -0.45000412049451666,
"curvature": 4.4891353528676685,
"pose": {
"rotation": {
"radians": -1.1173322352911128
},
"translation": {
"x": 9.168966902815034,
"y": 3.4776072776565403
}
},
"time": 1.8961807411635272,
"velocity": 0.4436036838431495
},
{
"acceleration": -0.36128526306567105,
"curvature": 4.70248416398808,
"pose": {
"rotation": {
"radians": -1.0661967909826362
},
"translation": {
"x": 9.17409056467909,
"y": 3.467737561552509
}
},
"time": 1.9215761706611756,
"velocity": 0.43217563592747976
},
{
"acceleration": -0.2692370280583734,
"curvature": 4.884163466820242,
"pose": {
"rotation": {
"radians": -1.0135353171300523
},
"translation": {
"x": 9.17964790329857,
"y": 3.458269294563495
}
},
"time": 1.9472551480977833,
"velocity": 0.4228981998090375
},
{
"acceleration": -0.17475020389116477,
"curvature": 5.0260946703865255,
"pose": {
"rotation": {
"radians": -0.9596496364875741
},
"translation": {
"x": 9.185639556524404,
"y": 3.4492048829846658
}
},
"time": 1.9731622200918826,
"velocity": 0.41592305673965185
},
{
"acceleration": -0.07853407227663885,
"curvature": 5.1213853732064,
"pose": {
"rotation": {
"radians": -0.9048898025561813
},
"translation": {
"x": 9.192065489601434,
"y": 3.440546033624205
}
},
"time": 1.9992299042534774,
"velocity": 0.41136772361744267
},
{
"acceleration": 0.018851907881617096,
"curvature": 5.165040764206039,
"pose": {
"rotation": {
"radians": -0.8496436615870717
},
"translation": {
"x": 9.198924976895938,
"y": 3.4322937333413313
}
},
"time": 2.025381183228818,
"velocity": 0.4093139571842667
},
{
"acceleration": 0.11693839626952975,
"curvature": 5.154521301369305,
"pose": {
"rotation": {
"radians": -0.7943229264411074
},
"translation": {
"x": 9.206216583623165,
"y": 3.424448228584321
}
},
"time": 2.0515329207199304,
"velocity": 0.4098069673303934
},
{
"acceleration": 0.21527094585632192,
"curvature": 5.090038458875041,
"pose": {
"rotation": {
"radians": -0.7393469391839685
},
"translation": {
"x": 9.213938147574856,
"y": 3.4170090049285147
}
},
"time": 2.077599889711381,
"velocity": 0.4128551968798612
},
{
"acceleration": 0.3133340710847826,
"curvature": 4.97452765955412,
"pose": {
"rotation": {
"radians": -0.6851257133507382
},
"translation": {
"x": 9.222086760846786,
"y": 3.4099747666143356
}
},
"time": 2.1034989903083257,
"velocity": 0.4184305207621935
},
{
"acceleration": 0.4104894183564249,
"curvature": 4.813303861987022,
"pose": {
"rotation": {
"radians": -0.6320439811431587
},
"translation": {
"x": 9.230658751566283,
"y": 3.403343416085307
}
},
"time": 2.1291531979256058,
"velocity": 0.42646885807537016
},
{
"acceleration": 0.5059405646632925,
"curvature": 4.613469887878418,
"pose": {
"rotation": {
"radians": -0.5804477867030079
},
"translation": {
"x": 9.239649665619766,
"y": 3.3971120335260663
}
},
"time": 2.1544948328350584,
"velocity": 0.4368713310495522
},
{
"acceleration": 0.5987326755291307,
"curvature": 4.383190463293148,
"pose": {
"rotation": {
"radians": -0.5306347170089931
},
"translation": {
"x": 9.24905424838027,
"y": 3.391276856400383
}
},
"time": 2.179467864574587,
"velocity": 0.44950620082920356
},
{
"acceleration": 0.6877894973855129,
"curvature": 4.130955478074743,
"pose": {
"rotation": {
"radians": -0.4828482699911553
},
"translation": {
"x": 9.25886642643498,
"y": 3.3858332589891713
}
},
"time": 2.204029125349086,
"velocity": 0.46421183020708817
},
{
"acceleration": 0.771983833238493,
"curvature": 3.8649361975486594,
"pose": {
"rotation": {
"radians": -0.4372762711028082
},
"translation": {
"x": 9.269079289312753,
"y": 3.3807757319285097
}
},
"time": 2.2281484651055714,
"velocity": 0.4808008587754718
},
{
"acceleration": 0.8864260708675012,
"curvature": 3.5924997619114096,
"pose": {
"rotation": {
"radians": -0.39405278444989855
},
"translation": {
"x": 9.27968507121166,
"y": 3.3760978617476507
}
},
"time": 2.251808004841064,
"velocity": 0.4990656409531358
},
{
"acceleration": 1.0137592256479275,
"curvature": 3.052167305285346,
"pose": {
"rotation": {
"radians": -0.3149479773752386
},
"translation": {
"x": 9.302039942576354,
"y": 3.367850794836352
}
},
"time": 2.297683397855642,
"velocity": 0.5397307853325505
},
{
"acceleration": 1.10983900532675,
"curvature": 2.545212241978002,
"pose": {
"rotation": {
"radians": -0.24574172419725898
},
"translation": {
"x": 9.32585111314389,
"y": 3.3610218907974643
}
},
"time": 2.3417545747349786,
"velocity": 0.5844083474791396
},
{
"acceleration": 1.178283671085148,
"curvature": 2.088993937556735,
"pose": {
"rotation": {
"radians": -0.18618660449955043
},
"translation": {
"x": 9.35102380079832,
"y": 3.3555252068970383
}
},
"time": 2.3841376281516733,
"velocity": 0.6314467133258345
},
{
"acceleration": 1.2541129686740493,
"curvature": 1.6876913203383181,
"pose": {
"rotation": {
"radians": -0.1357909413145701
},
"translation": {
"x": 9.37744778397389,
"y": 3.351258370341478
}
},
"time": 2.4249707785424497,
"velocity": 0.6795597476702505
},
{
"acceleration": 1.6468941435528395,
"curvature": 1.0296087317456242,
"pose": {
"rotation": {
"radians": -0.06022841608868556
},
"translation": {
"x": 9.433528045062097,
"y": 3.3459186690913825
}
},
"time": 2.502344290247694,
"velocity": 0.7765948721316507
},
{
"acceleration": -1.1879104393090458,
"curvature": 2.2059944874467198e-14,
"pose": {
"rotation": {
"radians": 1.44566172077337e-14
},
"translation": {
"x": 9.55400376141365,
"y": 3.3435160758529676
}
},
"time": 2.637996680987509,
"velocity": 0.9999999999999938
},
{
"acceleration": -0.5329169951083106,
"curvature": 0.6758764254591207,
"pose": {
"rotation": {
"radians": 0.04492155241106649
},
"translation": {
"x": 9.677085879548775,
"y": 3.345426533641639
}
},
"time": 2.7717136853641877,
"velocity": 0.8411561745878036
},
{
"acceleration": -0.279926384355827,
"curvature": 0.889836424749469,
"pose": {
"rotation": {
"radians": 0.0939516959657753
},
"translation": {
"x": 9.738985045077458,
"y": 3.3496627043016884
}
},
"time": 2.8472830317642313,
"velocity": 0.8008839855819934
},
{
"acceleration": -0.09181831480943468,
"curvature": 1.0175128909283762,
"pose": {
"rotation": {
"radians": 0.15427377513538937
},
"translation": {
"x": 9.801269144888414,
"y": 3.357390684096811
}
},
"time": 2.9267522390122616,
"velocity": 0.7786384577294283
},
{
"acceleration": 0.050268059413385406,
"curvature": 1.0626293832745348,
"pose": {
"rotation": {
"radians": 0.2211338079893146
},
"translation": {
"x": 9.864018020325027,
"y": 3.369293671914196
}
},
"time": 3.0091778592016647,
"velocity": 0.7710702761865148
},
{
"acceleration": 0.15373233698731228,
"curvature": 1.037174364359472,
"pose": {
"rotation": {
"radians": 0.29014535065874225
},
"translation": {
"x": 9.9272896912387,
"y": 3.38583975295525
}
},
"time": 3.093761005387509,
"velocity": 0.7753221068043559
},
{
"acceleration": 0.22259073720803282,
"curvature": 0.9596676961899183,
"pose": {
"rotation": {
"radians": 0.3576150447204046
},
"translation": {
"x": 9.9911220421707,
"y": 3.4072994287182716
}
},
"time": 3.179883824159916,
"velocity": 0.7885619690021728
},
{
"acceleration": 0.2614055681523286,
"curvature": 0.8505906173977056,
"pose": {
"rotation": {
"radians": 0.42076030707615364
},
"translation": {
"x": 10.055534508533999,
"y": 3.4337631469811374
}
},
"time": 3.2671184762309724,
"velocity": 0.8079795945167555
},
{
"acceleration": 0.2764156273441957,
"curvature": 0.7278574251316767,
"pose": {
"rotation": {
"radians": 0.47774523228177135
},
"translation": {
"x": 10.120529762795133,
"y": 3.4651588317839783
}
},
"time": 3.3551984557745,
"velocity": 0.8310041916121769
},
{
"acceleration": 0.2749020454910656,
"curvature": 0.6043398907425084,
"pose": {
"rotation": {
"radians": 0.5275571261679736
},
"translation": {
"x": 10.18609540065604,
"y": 3.501269413411867
}
},
"time": 3.4439622592250343,
"velocity": 0.8555398940284131
},
{
"acceleration": 0.2639375111196364,
"curvature": 0.4876150142263732,
"pose": {
"rotation": {
"radians": 0.5697997869636997
},
"translation": {
"x": 10.252205627235917,
"y": 3.541750358377496
}
},
"time": 3.5332891432170777,
"velocity": 0.8800960371551689
},
{
"acceleration": 0.24941184901023877,
"curvature": 0.3810201068853604,
"pose": {
"rotation": {
"radians": 0.604477710807295
},
"translation": {
"x": 10.318822943253057,
"y": 3.586147199403861
}
},
"time": 3.623043855460475,
"velocity": 0.9037856725159503
},
{
"acceleration": 0.23567336487569918,
"curvature": 0.28505269619585333,
"pose": {
"rotation": {
"radians": 0.631815318213148
},
"translation": {
"x": 10.385899831206709,
"y": 3.6339130654069383
}
},
"time": 3.713038794060497,
"velocity": 0.9262314765537447
},
{
"acceleration": 0.2256790397997299,
"curvature": 0.19856777867454997,
"pose": {
"rotation": {
"radians": 0.6521254635834756
},
"translation": {
"x": 10.453380441558913,
"y": 3.684426211478372
}
},
"time": 3.803014625604305,
"velocity": 0.947436383531163
},
{
"acceleration": 0.22139000720225552,
"curvature": 0.11960827018307489,
"pose": {
"rotation": {
"radians": 0.6657236600583513
},
"translation": {
"x": 10.52120227891636,
"y": 3.737007548868153
}
},
"time": 3.892636375210123,
"velocity": 0.9676621339273759
},
{
"acceleration": 0.06541433672647103,
"curvature": 0.04590761379031891,
"pose": {
"rotation": {
"radians": 0.6728778838250803
},
"translation": {
"x": 10.589297888212236,
"y": 3.7909381749673
}
},
"time": 3.981500894647802,
"velocity": 0.9873358505257086
},
{
"acceleration": -0.21277364737685528,
"curvature": -0.024832260866970886,
"pose": {
"rotation": {
"radians": 0.6737838667532389
},
"translation": {
"x": 10.657596540888063,
"y": 3.8454769032905416
}
},
"time": 4.06976628250507,
"velocity": 0.9931096723282965
},
{
"acceleration": -0.20531837896549723,
"curvature": -0.09478549647321262,
"pose": {
"rotation": {
"radians": 0.6685585703074278
},
"translation": {
"x": 10.726025921075554,
"y": 3.899877793458997
}
},
"time": 4.158637635565549,
"velocity": 0.9742001903903023
},
{
"acceleration": -0.2033544388447442,
"curvature": -0.16588569297240616,
"pose": {
"rotation": {
"radians": 0.65724795210532
},
"translation": {
"x": 10.79451381177846,
"y": 3.9534076811828607
}
},
"time": 4.248720304661119,
"velocity": 0.9557045627987146
},
{
"acceleration": -0.20434297955845213,
"curvature": -0.23967987574826355,
"pose": {
"rotation": {
"radians": 0.6398483515802023
},
"translation": {
"x": 10.862989781054418,
"y": 4.005363708244079
}
},
"time": 4.339537424556608,
"velocity": 0.9372364983448718
},
{
"acceleration": -0.20531051561047345,
"curvature": -0.3170939049953564,
"pose": {
"rotation": {
"radians": 0.6163435567892341
},
"translation": {
"x": 10.931386868196796,
"y": 4.0550908524790366
}
},
"time": 4.43066898278274,
"velocity": 0.9186144042051393
},
{
"acceleration": -0.20256396263236748,
"curvature": -0.3980598526300132,
"pose": {
"rotation": {
"radians": 0.5867616097043266
},
"translation": {
"x": 10.999643269916545,
"y": 4.101999457761233
}
},
"time": 4.521754981575685,
"velocity": 0.8999134908280648
},
{
"acceleration": -0.19157065777634105,
"curvature": -0.480981598978358,
"pose": {
"rotation": {
"radians": 0.5512560289232673
},
"translation": {
"x": 11.067704026524043,
"y": 4.14558276398397
}
},
"time": 4.6124894841664155,
"velocity": 0.8815339504358097
},
{
"acceleration": -0.1670800729525282,
"curvature": -0.5620789606956339,
"pose": {
"rotation": {
"radians": 0.5102141558054267
},
"translation": {
"x": 11.135522708110944,
"y": 4.18543443704303
}
},
"time": 4.70260363240526,
"velocity": 0.8642707237827397
},
{
"acceleration": -0.12346094232508517,
"curvature": -0.6347703875216619,
"pose": {
"rotation": {
"radians": 0.46438915480382487
},
"translation": {
"x": 11.203063100732031,
"y": 4.221266098819354
}
},
"time": 4.791837016857935,
"velocity": 0.8493616033985858
},
{
"acceleration": -0.055010878620955654,
"curvature": -0.6894095744970804,
"pose": {
"rotation": {
"radians": 0.41504093923499835
},
"translation": {
"x": 11.27030089258705,
"y": 4.252924857161732
}
},
"time": 4.879899555693329,
"velocity": 0.8384893193704287
},
{
"acceleration": 0.044264729595422235,
"curvature": -0.7137803041024541,
"pose": {
"rotation": {
"radians": 0.36405709914585266
},
"translation": {
"x": 11.337225360202577,
"y": 4.280410835869475
}
},
"time": 4.966429993437789,
"velocity": 0.83372920396265
},
{
"acceleration": 0.18208592522453726,
"curvature": -0.6946001912085179,
"pose": {
"rotation": {
"radians": 0.3140152148018075
},
"translation": {
"x": 11.403841054613853,
"y": 4.303894704675101
}
},
"time": 5.050960700560135,
"velocity": 0.8374709328559305
},
{
"acceleration": 0.37128728993436655,
"curvature": -0.6197954920207679,
"pose": {
"rotation": {
"radians": 0.26815381859332366
},
"translation": {
"x": 11.470169487546633,
"y": 4.323735209227022
}
},
"time": 5.132899081909337,
"velocity": 0.852390758835301
},
{
"acceleration": 0.6359532273374636,
"curvature": -0.48074088210029253,
"pose": {
"rotation": {
"radians": 0.23024612092751284
},
"translation": {
"x": 11.536250817599036,
"y": 4.340496701072214
}
},
"time": 5.2115321525798075,
"velocity": 0.8815862185437576
},
{
"acceleration": 1.0207946614634822,
"curvature": -0.27362163687554614,
"pose": {
"rotation": {
"radians": 0.20440560918032044
},
"translation": {
"x": 11.602145536423395,
"y": 4.354966667638906
}
},
"time": 5.286055552053147,
"velocity": 0.9289796149509871
},
{
"acceleration": -0.2070610725619471,
"curvature": 3.5076293793114797e-15,
"pose": {
"rotation": {
"radians": 0.19486391968887254
},
"translation": {
"x": 11.667936154908102,
"y": 4.368173262219262
}
},
"time": 5.355629177122064,
"velocity": 0.9999999999999991
},
{
"acceleration": -0.16398743220245918,
"curvature": -0.0507674821119147,
"pose": {
"rotation": {
"radians": 0.19311227133068226
},
"translation": {
"x": 11.733747591100887,
"y": 4.3811218884686305
}
},
"time": 5.423174709050252,
"velocity": 0.9860139497121813
},
{
"acceleration": -0.12504971417478605,
"curvature": -0.09265802257806026,
"pose": {
"rotation": {
"radians": 0.1882383021721936
},
"translation": {
"x": 11.799778969257634,
"y": 4.39388335766812
}
},
"time": 5.491773211272098,
"velocity": 0.974764657479886
},
{
"acceleration": -0.09128751450214576,
"curvature": -0.12575473447911917,
"pose": {
"rotation": {
"radians": 0.18080933397298665
},
"translation": {
"x": 11.866204561302382,
"y": 4.4062943042446605
}
},
"time": 5.5614087536995545,
"velocity": 0.9660567528029265
},
{
"acceleration": -0.06292002027501126,
"curvature": -0.1506461839876928,
"pose": {
"rotation": {
"radians": 0.17136641455275176
},
"translation": {
"x": 11.933152061559253,
"y": 4.41821605646143
}
},
"time": 5.6320343930585555,
"velocity": 0.9596095137257183
},
{
"acceleration": -0.039681950134970986,
"curvature": -0.16822553829487358,
"pose": {
"rotation": {
"radians": 0.1604061012992654
},
"translation": {
"x": 12.00070615544047,
"y": 4.429533249865545
}
},
"time": 5.703580731331216,
"velocity": 0.9551078166709998
},
{
"acceleration": -0.021052075288561088,
"curvature": -0.1795285449052244,
"pose": {
"rotation": {
"radians": 0.1483701637483119
},
"translation": {
"x": 12.068912088134367,
"y": 4.440152440735762
}
},
"time": 5.775961666438536,
"velocity": 0.9522356000133485
},
{
"acceleration": -0.006399772025152831,
"curvature": -0.18561405501465283,
"pose": {
"rotation": {
"radians": 0.13564148033344292
},
"translation": {
"x": 12.137779233293386,
"y": 4.450000719530175
}
},
"time": 5.849078052133805,
"velocity": 0.9506963483568642
},
{
"acceleration": 0.004925431326284953,
"curvature": -0.18748380810397944,
"pose": {
"rotation": {
"radians": 0.12254445643632067
},
"translation": {
"x": 12.207284661722108,
"y": 4.459024324333912
}
},
"time": 5.922819925994406,
"velocity": 0.9502244171754488
},
{
"acceleration": 0.013542197900956544,
"curvature": -0.18603476016485185,
"pose": {
"rotation": {
"radians": 0.10934849064979381
},
"translation": {
"x": 12.277376710065239,
"y": 4.467187254306834
}
},
"time": 5.9970678592595235,
"velocity": 0.9505901202718647
},
{
"acceleration": 0.02001033484325332,
"curvature": -0.18203618856225906,
"pose": {
"rotation": {
"radians": 0.09627328127469373
},
"translation": {
"x": 12.34797854949564,
"y": 4.4744698831312295
}
},
"time": 6.0716938622811005,
"velocity": 0.9516007203733403
},
{
"acceleration": 0.02481943863432293,
"curvature": -0.17612420492649888,
"pose": {
"rotation": {
"radians": 0.08349504204152526
},
"translation": {
"x": 12.418991754402322,
"y": 4.480867572459516
}
},
"time": 6.146562163911067,
"velocity": 0.9530988601581016
},
{
"acceleration": 0.02838724968732676,
"curvature": -0.1688074569980671,
"pose": {
"rotation": {
"radians": 0.07115295202132361
},
"translation": {
"x": 12.490299871078465,
"y": 4.486389285361934
}
},
"time": 6.221530082663391,
"velocity": 0.9549595218171179
},
{
"acceleration": 0.031063636057524286,
"curvature": -0.16047921966715384,
"pose": {
"rotation": {
"radians": 0.05935538188142303
},
"translation": {
"x": 12.56177198640942,
"y": 4.491056199774247
}
},
"time": 6.296449126351978,
"velocity": 0.9570862674166415
},
{
"acceleration": 0.03313736396372739,
"curvature": -0.15143246538890573,
"pose": {
"rotation": {
"radians": 0.04818561015466887
},
"translation": {
"x": 12.633266296560727,
"y": 4.494900321945439
}
},
"time": 6.371166395623923,
"velocity": 0.9594072574765172
},
{
"acceleration": 0.03484362136859339,
"curvature": -0.14187570871866054,
"pose": {
"rotation": {
"radians": 0.03770686945063222
},
"translation": {
"x": 12.704633675666118,
"y": 4.497963099885406
}
},
"time": 6.445526323619567,
"velocity": 0.9618713494748254
},
{
"acceleration": 0.03637077016063705,
"curvature": -0.13194838448590782,
"pose": {
"rotation": {
"radians": 0.027966648262792534
},
"translation": {
"x": 12.775721244515527,
"y": 4.500294036812665
}
},
"time": 6.5193727560437695,
"velocity": 0.9644444266056358
},
{
"acceleration": 0.03786507940507164,
"curvature": -0.12173525269934427,
"pose": {
"rotation": {
"radians": 0.019000225863415054
},
"translation": {
"x": 12.846375939243101,
"y": 4.501949304602041
}
},
"time": 6.592551360086578,
"velocity": 0.967105988793953
},
{
"acceleration": 0.03943227737276104,
"curvature": -0.11127986583329226,
"pose": {
"rotation": {
"radians": 0.010833442697559993
},
"translation": {
"x": 12.916448080015213,
"y": 4.50299035723237
}
},
"time": 6.664912343939077,
"velocity": 0.969845943193357
},
{
"acceleration": 0.041134698407011214,
"curvature": -0.10059753429654437,
"pose": {
"rotation": {
"radians": 0.003484713110167166
},
"translation": {
"x": 12.985794939718469,
"y": 4.5034825442341955
}
},
"time": 6.736313468576263,
"velocity": 0.9726614521447776
},
{
"acceleration": 0.04298267437456772,
"curvature": -0.08968852394418272,
"pose": {
"rotation": {
"radians": -0.003033723193031066
},
"translation": {
"x": 13.05428431264771,
"y": 4.5034937241374635
}
},
"time": 6.806623337912862,
"velocity": 0.975553627414975
},
{
"acceleration": 0.04491879803080279,
"curvature": -0.07855243383978504,
"pose": {
"rotation": {
"radians": -0.008715334667617466
},
"translation": {
"x": 13.121798083194037,
"y": 4.503092877919223
}
},
"time": 6.875724960553171,
"velocity": 0.9785237999596776
},
{
"acceleration": 0.046794096163426974,
"curvature": -0.06720481527234036,
"pose": {
"rotation": {
"radians": -0.013559664471747628
},
"translation": {
"x": 13.188235794532806,
"y": 4.502348722451323
}
},
"time": 6.943519584340158,
"velocity": 0.9815690529731396
},
{
"acceleration": 0.04833657744565131,
"curvature": -0.05569703275794028,
"pose": {
"rotation": {
"radians": -0.017573599570556552
},
"translation": {
"x": 13.25351821731165,
"y": 4.501328323948109
}
},
"time": 7.0099308115886885,
"velocity": 0.9846767063273385
},
{
"acceleration": 0.04881836496235068,
"curvature": -0.04413998958833889,
"pose": {
"rotation": {
"radians": -0.020773620510730412
},
"translation": {
"x": 13.317590918338473,
"y": 4.500095711414122
}
},
"time": 7.074909005270252,
"velocity": 0.9878175298185059
},
{
"acceleration": 0.042795341279996804,
"curvature": -0.02178462652787346,
"pose": {
"rotation": {
"radians": -0.02486657512272989
},
"translation": {
"x": 13.442034815297163,
"y": 4.4972264549091445
}
},
"time": 7.200531164205408,
"velocity": 0.9939501982207608
},
{
"acceleration": -0.006886525469536702,
"curvature": -0.0032469579812469834,
"pose": {
"rotation": {
"radians": -0.026311515643121786
},
"translation": {
"x": 13.561763553222125,
"y": 4.49413975178911
}
},
"time": 7.320717703941499,
"velocity": 0.9990936222060287
},
{
"acceleration": 0.015007557436113496,
"curvature": 0.0061142050294637615,
"pose": {
"rotation": {
"radians": -0.0260279892819084
},
"translation": {
"x": 13.677598334523706,
"y": 4.491097066202488
}
},
"time": 7.436743957302016,
"velocity": 0.9982946044571266
},
{
"acceleration": -1.3432257703084354,
"curvature": 4.435148671030362e-15,
"pose": {
"rotation": {
"radians": -0.025508964837763312
},
"translation": {
"x": 13.791099694225657,
"y": 4.488178157919822
}
},
"time": 7.5503797404820485,
"velocity": 0.9999999999999987
},
{
"acceleration": -1.0302921191301337,
"curvature": -0.6972390818570062,
"pose": {
"rotation": {
"radians": -0.06440680306306627
},
"translation": {
"x": 13.902505103918424,
"y": 4.4838811927186075
}
},
"time": 7.6717635516131075,
"velocity": 0.8369541367905089
},
{
"acceleration": -0.9640123689868805,
"curvature": -1.076022415666667,
"pose": {
"rotation": {
"radians": -0.11117089522230877
},
"translation": {
"x": 13.95538029377698,
"y": 4.4793164900450835
}
},
"time": 7.737863514973209,
"velocity": 0.7688518654658059
},
{
"acceleration": -0.8859247160414487,
"curvature": -1.513365114517432,
"pose": {
"rotation": {
"radians": -0.17605893539181802
},
"translation": {
"x": 14.005275193230332,
"y": 4.472194652043162
}
},
"time": 7.806357754641129,
"velocity": 0.7028225712215788
},
{
"acceleration": -0.7943812653449746,
"curvature": -2.0114947974095205,
"pose": {
"rotation": {
"radians": -0.25941192314030853
},
"translation": {
"x": 14.051641057012235,
"y": 4.462032423968985
}
},
"time": 7.877043759798785,
"velocity": 0.6402000921741783
},
{
"acceleration": -0.7113337456856564,
"curvature": -2.2742964191362374,
"pose": {
"rotation": {
"radians": -0.3079195724921263
},
"translation": {
"x": 14.073383711148145,
"y": 4.455705549816329
}
},
"time": 7.913226960893168,
"velocity": 0.6114568351045913
},
{
"acceleration": -0.6113836845442759,
"curvature": -2.5352765324404634,
"pose": {
"rotation": {
"radians": -0.36072330542896786
},
"translation": {
"x": 14.094127112899516,
"y": 4.448511220671192
}
},
"time": 7.949916965378825,
"velocity": 0.5853579967845852
},
{
"acceleration": -0.4961544853821173,
"curvature": -2.782029890579038,
"pose": {
"rotation": {
"radians": -0.4174342987356392
},
"translation": {
"x": 14.113855587445501,
"y": 4.44043308444977
}
},
"time": 7.987056516543153,
"velocity": 0.5626514811514176
},
{
"acceleration": -0.368048867238933,
"curvature": -2.999537746174013,
"pose": {
"rotation": {
"radians": -0.4774740382887791
},
"translation": {
"x": 14.13256372921879,
"y": 4.431463360107344
}
},
"time": 8.024550505432673,
"velocity": 0.5440486703890149
},
{
"acceleration": -0.22964535507283204,
"curvature": -3.171759806093289,
"pose": {
"rotation": {
"radians": -0.5400661664127155
},
"translation": {
"x": 14.150255875890185,
"y": 4.421602407435666
}
},
"time": 8.062260987349127,
"velocity": 0.5301693702366296
},
{
"acceleration": -0.0832259993353474,
"curvature": -3.2839746663564178,
"pose": {
"rotation": {
"radians": -0.6042534558138699
},
"translation": {
"x": 14.166945582353195,
"y": 4.410858296860349
}
},
"time": 8.100008534764337,
"velocity": 0.5215008213073353
},
{
"acceleration": 0.0694658601140261,
"curvature": -3.325374843314511,
"pose": {
"rotation": {
"radians": -0.6689426139344413
},
"translation": {
"x": 14.182655094708618,
"y": 4.399246379238255
}
},
"time": 8.13758082301242,
"velocity": 0.5183738300705728
},
{
"acceleration": 0.22724251869082643,
"curvature": -3.2911567849073284,
"pose": {
"rotation": {
"radians": -0.7329727262907596
},
"translation": {
"x": 14.19741482424912,
"y": 4.386788855654885
}
},
"time": 8.174747537077515,
"velocity": 0.5209556478307167
},
{
"acceleration": 0.3893596975813569,
"curvature": -3.183396103656451,
"pose": {
"rotation": {
"radians": -0.7951960966150354
},
"translation": {
"x": 14.21126282144383,
"y": 4.3735143472217635
}
},
"time": 8.211278791127924,
"velocity": 0.5292571020120661
},
{
"acceleration": 0.5554136273194475,
"curvature": -3.0104085418118265,
"pose": {
"rotation": {
"radians": -0.8545562011328314
},
"translation": {
"x": 14.224244249922918,
"y": 4.359457464873829
}
},
"time": 8.246963131913645,
"velocity": 0.5431511461487848
},
{
"acceleration": 0.7253711308161341,
"curvature": -2.784864885657157,
"pose": {
"rotation": {
"radians": -0.9101484719543286
},
"translation": {
"x": 14.236410860462186,
"y": 4.344658379166825
}
},
"time": 8.28162142281552,
"velocity": 0.5624008332152881
},
{
"acceleration": 0.990682681046735,
"curvature": -2.521336016573556,
"pose": {
"rotation": {
"radians": -0.9612551550839357
},
"translation": {
"x": 14.247820464967647,
"y": 4.329162390074682
}
},
"time": 8.315114353282144,
"velocity": 0.5866956380622093
},
{
"acceleration": 1.3733929512771295,
"curvature": -1.9350130033665125,
"pose": {
"rotation": {
"radians": -1.048097677112149
},
"translation": {
"x": 14.268627053059783,
"y": 4.296283967505991
}
},
"time": 8.378085227022815,
"velocity": 0.6490797920874731
},
{
"acceleration": 1.8385764492383332,
"curvature": -1.3362109679548446,
"pose": {
"rotation": {
"radians": -1.1128667365589384
},
"translation": {
"x": 14.287227743465953,
"y": 4.261270837623773
}
},
"time": 8.43566046134878,
"velocity": 0.7281532130788826
},
{
"acceleration": 1.0729498112061644,
"curvature": -0.7650852875290028,
"pose": {
"rotation": {
"radians": -1.1551690034521243
},
"translation": {
"x": 14.304249578549666,
"y": 4.224626178607949
}
},
"time": 8.487727708735717,
"velocity": 0.8238828279011716
},
{
"acceleration": -1.9422846023537799,
"curvature": 0.28996730184399633,
"pose": {
"rotation": {
"radians": -1.1740495986268995
},
"translation": {
"x": 14.336280422728459,
"y": 4.148645075613193
}
},
"time": 8.582021141597599,
"velocity": 0.9250549488883097
},
{
"acceleration": -1.176355349214588,
"curvature": 1.3224192295514081,
"pose": {
"rotation": {
"radians": -1.1072909131166637
},
"translation": {
"x": 14.37036255169729,
"y": 4.07293371206319
}
},
"time": 8.682342629236127,
"velocity": 0.7302020681627733
},
{
"acceleration": -0.8311304558990004,
"curvature": 1.840354535220573,
"pose": {
"rotation": {
"radians": -1.0420155176152084
},
"translation": {
"x": 14.389933429482724,
"y": 4.036624246564301
}
},
"time": 8.741665836232146,
"velocity": 0.660416896280442
},
{
"acceleration": -0.5975593874476972,
"curvature": 2.3213378216349345,
"pose": {
"rotation": {
"radians": -0.9563875528778435
},
"translation": {
"x": 14.412074661537762,
"y": 4.002076690132989
}
},
"time": 8.80643896395567,
"velocity": 0.606581977105585
},
{
"acceleration": -0.4492243296867758,
"curvature": 2.52815748315143,
"pose": {
"rotation": {
"radians": -0.9066255965964336
},
"translation": {
"x": 14.424298913968764,
"y": 3.9856217258589437
}
},
"time": 8.84081487042589,
"velocity": 0.5860403314922822
},
{
"acceleration": -0.3048691671745343,
"curvature": 2.699157145008139,
"pose": {
"rotation": {
"radians": -0.8528643706378137
},
"translation": {
"x": 14.43738517209236,
"y": 3.9697905234763624
}
},
"time": 8.876346941466183,
"velocity": 0.5700784606968231
},
{
"acceleration": -0.16443496230998314,
"curvature": 2.824360149913468,
"pose": {
"rotation": {
"radians": -0.7957686241204791
},
"translation": {
"x": 14.451397021988237,
"y": 3.954636723937873
}
},
"time": 8.912908213738715,
"velocity": 0.5589320560682549
},
{
"acceleration": -0.028483048241205434,
"curvature": 2.895669360531923,
"pose": {
"rotation": {
"radians": -0.7361462476055515
},
"translation": {
"x": 14.466392538527167,
"y": 3.940209633156834
}
},
"time": 8.950343944112564,
"velocity": 0.5527763131551843
},
{
"acceleration": 0.10189905627594817,
"curvature": 2.9084170334544184,
"pose": {
"rotation": {
"radians": -0.6749177401472622
},
"translation": {
"x": 14.482423759355594,
"y": 3.926553791804727
}
},
"time": 8.988478218723802,
"velocity": 0.551690132771789
},
{
"acceleration": 0.22512672780498402,
"curvature": 2.862436280599572,
"pose": {
"rotation": {
"radians": -0.6130675415362343
},
"translation": {
"x": 14.499536158880225,
"y": 3.9137085451085403
}
},
"time": 9.027124864407092,
"velocity": 0.5556281894951471
},
{
"acceleration": 0.33916581442269766,
"curvature": 2.762292180441873,
"pose": {
"rotation": {
"radians": -0.5515839427019469
},
"translation": {
"x": 14.517768122252612,
"y": 3.9017076126481625
}
},
"time": 9.066100939246306,
"velocity": 0.5644027456863815
},
{
"acceleration": 0.44167908358138624,
"curvature": 2.6165705433014255,
"pose": {
"rotation": {
"radians": -0.4913976290606497
},
"translation": {
"x": 14.537150419353729,
"y": 3.8905786581537667
}
},
"time": 9.105240226008547,
"velocity": 0.5776774537570205
},
{
"acceleration": 0.5303118112741377,
"curvature": 2.436442425055956,
"pose": {
"rotation": {
"radians": -0.43332932583745737
},
"translation": {
"x": 14.557705678778568,
"y": 3.8803428593032026
}
},
"time": 9.14440408175765,
"velocity": 0.5949753096737974
},
{
"acceleration": 0.6030902308577403,
"curvature": 2.2339397323913355,
"pose": {
"rotation": {
"radians": -0.37805431059046407
},
"translation": {
"x": 14.579447861820718,
"y": 3.8710144775193784
}
},
"time": 9.183487748286705,
"velocity": 0.6157018396620553
},
{
"acceleration": 0.658842715444276,
"curvature": 2.020396203505448,
"pose": {
"rotation": {
"radians": -0.326086967450668
},
"translation": {
"x": 14.602381736456957,
"y": 3.8626004277676564
}
},
"time": 9.222421456369755,
"velocity": 0.63918237865801
},
{
"acceleration": 0.7092998048961133,
"curvature": 1.8053564376215008,
"pose": {
"rotation": {
"radians": -0.2777839595023229
},
"translation": {
"x": 14.626502351331828,
"y": 3.8550998483532375
}
},
"time": 9.26116685307151,
"velocity": 0.6647095010319592
},
{
"acceleration": 0.7295622439715185,
"curvature": 1.3972957952809186,
"pose": {
"rotation": {
"radians": -0.19292088840430557
},
"translation": {
"x": 14.678232243622004,
"y": 3.8427941892406317
}
},
"time": 9.338011215049729,
"velocity": 0.7192151919904761
},
{
"acceleration": 0.7184279817592101,
"curvature": 1.040653022846324,
"pose": {
"rotation": {
"radians": -0.12398967732963967
},
"translation": {
"x": 14.734383552617228,
"y": 3.8339187257207037
}
},
"time": 9.414115893012356,
"velocity": 0.7747382916216204
},
{
"acceleration": -1.2139124735994709,
"curvature": 0.7389811154290874,
"pose": {
"rotation": {
"radians": -0.0705744040042711
},
"translation": {
"x": 14.79451311794125,
"y": 3.82814272380287
}
},
"time": 9.489454233537408,
"velocity": 0.8288634635541218
},
{
"acceleration": -1.9999999999999991,
"curvature": 0.48017911123870977,
"pose": {
"rotation": {
"radians": -0.03208010350476286
},
"translation": {
"x": 14.857971772422307,
"y": 3.8249697234832514
}
},
"time": 9.570977680699347,
"velocity": 0.7299011341534165
},
{
"acceleration": -2.0,
"curvature": 0.24349186760018715,
"pose": {
"rotation": {
"radians": -0.008314419891885463
},
"translation": {
"x": 14.923887509599854,
"y": 3.8237237722610926
}
},
"time": 9.676580210024289,
"velocity": 0.5186960755035319
},
{
"acceleration": -2.0,
"curvature": -3.8825839655168734e-29,
"pose": {
"rotation": {
"radians": 4.111937128241018e-16
},
"translation": {
"x": 14.991148651231287,
"y": 3.8235356586551905
}
},
"time": 9.935928247776054,
"velocity": 0.0
}
]