[
{
"acceleration": -1.9999999999999996,
"curvature": 0.0,
"pose": {
"rotation": {
"radians": -1.2246467991473532e-16
},
"translation": {
"x": 14.972686359585007,
"y": 3.297360346737361
}
},
"time": 0.0,
"velocity": -0.0
},
{
"acceleration": -2.0000000000000004,
"curvature": 0.557901589228068,
"pose": {
"rotation": {
"radians": -0.03732678708536399
},
"translation": {
"x": 14.901718487451781,
"y": 3.2984910075111156
}
},
"time": 0.26641486146709253,
"velocity": -0.532829722934185
},
{
"acceleration": -1.2814721939633114,
"curvature": 0.15657164044046948,
"pose": {
"rotation": {
"radians": -0.07335991133841685
},
"translation": {
"x": 14.786520789375883,
"y": 3.305311673973004
}
},
"time": 0.43171323822628993,
"velocity": -0.8634264764525799
},
{
"acceleration": -0.10780314266671304,
"curvature": 0.07402498281654403,
"pose": {
"rotation": {
"radians": -0.08248180854058401
},
"translation": {
"x": 14.703132941910784,
"y": 3.3118699356867545
}
},
"time": 0.5224760693898101,
"velocity": -0.9797365208340176
},
{
"acceleration": -0.048326371735239175,
"curvature": 0.032180441799933776,
"pose": {
"rotation": {
"radians": -0.08768090301707722
},
"translation": {
"x": 14.599740960654747,
"y": 3.3207250207393697
}
},
"time": 0.627782695997129,
"velocity": -0.9910889061259167
},
{
"acceleration": -0.027550149715507097,
"curvature": 0.010202623012088368,
"pose": {
"rotation": {
"radians": -0.09014825239035834
},
"translation": {
"x": 14.475399590580253,
"y": 3.3318382657801573
}
},
"time": 0.7533576912247261,
"velocity": -0.9971574900259365
},
{
"acceleration": -0.004090138681824395,
"curvature": 0.0032236757548331075,
"pose": {
"rotation": {
"radians": -0.09060626318994386
},
"translation": {
"x": 14.405306693258932,
"y": 3.338193257817327
}
},
"time": 0.8238700299845683,
"velocity": -0.9991001155155607
},
{
"acceleration": 0.014418910061741372,
"curvature": -0.0021141393942414187,
"pose": {
"rotation": {
"radians": -0.09063729425313642
},
"translation": {
"x": 14.329993391240155,
"y": 3.3450395755054085
}
},
"time": 0.8995502626394231,
"velocity": -0.9994096581625918
},
{
"acceleration": 0.01090777967845518,
"curvature": -0.006296742211053228,
"pose": {
"rotation": {
"radians": -0.09028940827601492
},
"translation": {
"x": 14.249561123228458,
"y": 3.352337939231049
}
},
"time": 0.9804078445432461,
"velocity": -0.9982437799613106
},
{
"acceleration": 0.008570135018210481,
"curvature": -0.009667076289782089,
"pose": {
"rotation": {
"radians": -0.08959871791341514
},
"translation": {
"x": 14.164152684849924,
"y": 3.360042773773176
}
},
"time": 1.0663543393123514,
"velocity": -0.9973062945322337
},
{
"acceleration": 0.007014572549649602,
"curvature": -0.012470782321472333,
"pose": {
"rotation": {
"radians": -0.08859166574962553
},
"translation": {
"x": 14.073949602029764,
"y": 3.368102688025341
}
},
"time": 1.1571968598620286,
"velocity": -0.9965277618657284
},
{
"acceleration": 0.0059931983377142515,
"curvature": -0.014887044268466702,
"pose": {
"rotation": {
"radians": -0.08728675943124171
},
"translation": {
"x": 13.97916950436988,
"y": 3.37646095471805
}
},
"time": 1.2527084182972912,
"velocity": -0.9958577891097542
},
{
"acceleration": 0.0053473273778102326,
"curvature": -0.0170495596918496,
"pose": {
"rotation": {
"radians": -0.08569586966699795
},
"translation": {
"x": 13.880063498526438,
"y": 3.3850559901411064
}
},
"time": 1.3526302475348095,
"velocity": -0.9952589377688665
},
{
"acceleration": 0.004974896520745705,
"curvature": -0.019060957542553342,
"pose": {
"rotation": {
"radians": -0.08382518069777921
},
"translation": {
"x": 13.776913541587435,
"y": 3.39382183386594
}
},
"time": 1.4566742237019275,
"velocity": -0.9947025805666119
},
{
"acceleration": 0.004810650380700389,
"curvature": -0.021002872688745223,
"pose": {
"rotation": {
"radians": -0.08167586332457279
},
"translation": {
"x": 13.670029814450276,
"y": 3.402688628467952
}
},
"time": 1.564525369724774,
"velocity": -0.9941660322755044
},
{
"acceleration": 0.004813984910818953,
"curvature": -0.022943146700445,
"pose": {
"rotation": {
"radians": -0.07924452304246206
},
"translation": {
"x": 13.559748095199334,
"y": 3.411583099248846
}
},
"time": 1.675844425607922,
"velocity": -0.9936305152169409
},
{
"acceleration": 0.004961483910873147,
"curvature": -0.02494114086695651,
"pose": {
"rotation": {
"radians": -0.07652346109078953
},
"translation": {
"x": 13.446427132483526,
"y": 3.4204290339589676
}
},
"time": 1.7902704752134275,
"velocity": -0.9930796699407354
},
{
"acceleration": 0.005242413572076978,
"curvature": -0.02705183466335013,
"pose": {
"rotation": {
"radians": -0.07350077409939675
},
"translation": {
"x": 13.330446018893886,
"y": 3.4291477625196416
}
},
"time": 1.9074236229234451,
"velocity": -0.992498416483264
},
{
"acceleration": 0.005656158233738869,
"curvature": -0.029329183210493052,
"pose": {
"rotation": {
"radians": -0.07016030794654807
},
"translation": {
"x": 13.212201564341125,
"y": 3.437658636745505
}
},
"time": 2.026907716579548,
"velocity": -0.9918720314490339
},
{
"acceleration": 0.006211011809301936,
"curvature": -0.031829083196297354,
"pose": {
"rotation": {
"radians": -0.06648147282948745
},
"translation": {
"x": 13.092105669433215,
"y": 3.445879510066849
}
},
"time": 2.1483131157163013,
"velocity": -0.9911853433010862
},
{
"acceleration": 0.006924010027970841,
"curvature": -0.03461222466138361,
"pose": {
"rotation": {
"radians": -0.06243891878709578
},
"translation": {
"x": 12.970582698852942,
"y": 3.4537272172519513
}
},
"time": 2.271219506529985,
"velocity": -0.9904219702563037
},
{
"acceleration": 0.007821671605701526,
"curvature": -0.037747071879791066,
"pose": {
"rotation": {
"radians": -0.058002063444860454
},
"translation": {
"x": 12.848066854735489,
"y": 3.4611180541294164
}
},
"time": 2.3951987674158106,
"velocity": -0.9895635366106699
},
{
"acceleration": 0.008941655930223795,
"curvature": -0.04131321277304223,
"pose": {
"rotation": {
"radians": -0.05313445603147902
},
"translation": {
"x": 12.724999550046004,
"y": 3.4679682573105115
}
},
"time": 2.519817891442661,
"velocity": -0.9885888067467417
},
{
"acceleration": 0.010335470132151987,
"curvature": -0.04540534034297538,
"pose": {
"rotation": {
"radians": -0.047792953183436536
},
"translation": {
"x": 12.601826781957161,
"y": 3.4741944839115
}
},
"time": 2.6446419749926697,
"velocity": -0.987472672739832
},
{
"acceleration": 0.012072491914857103,
"curvature": -0.050138183213743526,
"pose": {
"rotation": {
"radians": -0.041926672089363626
},
"translation": {
"x": 12.478996505226748,
"y": 3.4797142912759824
}
},
"time": 2.769237285178293,
"velocity": -0.9861849216328022
},
{
"acceleration": 0.014245736641797098,
"curvature": -0.055652791572206206,
"pose": {
"rotation": {
"radians": -0.035475674401508374
},
"translation": {
"x": 12.356956005575215,
"y": 3.484446616697233
}
},
"time": 2.893174422806456,
"velocity": -0.9846886915408357
},
{
"acceleration": 0.01698000951462075,
"curvature": -0.062124720745335656,
"pose": {
"rotation": {
"radians": -0.028369319161411683
},
"translation": {
"x": 12.236149273063262,
"y": 3.4883122571405334
}
},
"time": 3.016031602890351,
"velocity": -0.9829385005088067
},
{
"acceleration": 0.020443370555594073,
"curvature": -0.06977485527968472,
"pose": {
"rotation": {
"radians": -0.020524203619160547
},
"translation": {
"x": 12.117014375469394,
"y": 3.491234348965512
}
},
"time": 3.1373980814011184,
"velocity": -0.9808776965489379
},
{
"acceleration": 0.024863227580724373,
"curvature": -0.07888390910833788,
"pose": {
"rotation": {
"radians": -0.011841585825746051
},
"translation": {
"x": 11.999980831667507,
"y": 3.4931388476484813
}
},
"time": 3.2568777655987096,
"velocity": -0.9784351290910211
},
{
"acceleration": 0.030548881119829986,
"curvature": -0.08981206324625741,
"pose": {
"rotation": {
"radians": -0.0022041504103229143
},
"translation": {
"x": 11.885466985004445,
"y": 3.49395500750477
}
},
"time": 3.3740930565159255,
"velocity": -0.9755207786370056
},
{
"acceleration": 0.03792296949499995,
"curvature": -0.1030258220548732,
"pose": {
"rotation": {
"radians": 0.00852806326341002
},
"translation": {
"x": 11.773877376677579,
"y": 3.493615861411068
}
},
"time": 3.4886889867810496,
"velocity": -0.97202000118652
},
{
"acceleration": 0.047564916409476084,
"curvature": -0.119135070619685,
"pose": {
"rotation": {
"radians": 0.020522806036334256
},
"translation": {
"x": 11.665600119112362,
"y": 3.492058700527755
}
},
"time": 3.60033773589556,
"velocity": -0.9677859490796955
},
{
"acceleration": 0.06026987905145932,
"curvature": -0.13894462429719634,
"pose": {
"rotation": {
"radians": 0.03398214246001218
},
"translation": {
"x": 11.561004269339922,
"y": 3.4892255540212425
}
},
"time": 3.708743629355153,
"velocity": -0.9626296318189954
},
{
"acceleration": 0.07712607437425734,
"curvature": -0.1635264465698092,
"pose": {
"rotation": {
"radians": 0.049150745960834005
},
"translation": {
"x": 11.460437202374614,
"y": 3.4850636687863075
}
},
"time": 3.8136487584797942,
"velocity": -0.9563070123747756
},
{
"acceleration": 0.09960995916957274,
"curvature": -0.19432138188233988,
"pose": {
"rotation": {
"radians": 0.0663264638058437
},
"translation": {
"x": 11.364221984591595,
"y": 3.4795259891684314
}
},
"time": 3.9148393946094715,
"velocity": -0.9485025758466596
},
{
"acceleration": 0.12968879173544418,
"curvature": -0.23328290663355172,
"pose": {
"rotation": {
"radians": 0.0858737654548979
},
"translation": {
"x": 11.272654747104394,
"y": 3.472571636686137
}
},
"time": 4.01215341241127,
"velocity": -0.9388091305067954
},
{
"acceleration": 0.169896330975695,
"curvature": -0.2830800685089712,
"pose": {
"rotation": {
"radians": 0.10824079025281994
},
"translation": {
"x": 11.186002059142487,
"y": 3.4641663897533235
}
},
"time": 4.105488975331339,
"velocity": -0.9267045541257442
},
{
"acceleration": 0.22329769798590546,
"curvature": -0.34738183281073615,
"pose": {
"rotation": {
"radians": 0.13398073960259757
},
"translation": {
"x": 11.104498301428857,
"y": 3.4542831634016036
}
},
"time": 4.1948147533960976,
"velocity": -0.9115284321709923
},
{
"acceleration": 0.2931691116532312,
"curvature": -0.4312479677091357,
"pose": {
"rotation": {
"radians": 0.16377817645223608
},
"translation": {
"x": 11.028343039557571,
"y": 3.442902489002642
}
},
"time": 4.2801818978596895,
"velocity": -0.892466145328642
},
{
"acceleration": 0.38208718265819236,
"curvature": -0.5416449988046406,
"pose": {
"rotation": {
"radians": 0.19848010234721905
},
"translation": {
"x": 10.957698397371354,
"y": 3.4300129939904904
}
},
"time": 4.361737800201634,
"velocity": -0.8685564738889766
},
{
"acceleration": 0.4900192257964757,
"curvature": -0.688070737002275,
"pose": {
"rotation": {
"radians": 0.23912986661095093
},
"translation": {
"x": 10.892686430339134,
"y": 3.415611881583925
}
},
"time": 4.439741138804288,
"velocity": -0.8387523980043553
},
{
"acceleration": 0.6111747949533286,
"curvature": -0.8831636391899772,
"pose": {
"rotation": {
"radians": 0.28699784003427486
},
"translation": {
"x": 10.833386498933665,
"y": 3.399705410508785
}
},
"time": 4.514576539223742,
"velocity": -0.8020816130286452
},
{
"acceleration": 0.7302997462579752,
"curvature": -1.1429041134769713,
"pose": {
"rotation": {
"radians": 0.343594278363067
},
"translation": {
"x": 10.779832642009028,
"y": 3.382309374720305
}
},
"time": 4.586764798760708,
"velocity": -0.7579619683081023
},
{
"acceleration": 0.8210631092494476,
"curvature": -1.4854373130472962,
"pose": {
"rotation": {
"radians": 0.41063389817537077
},
"translation": {
"x": 10.732010950178259,
"y": 3.3634495831254556
}
},
"time": 4.656960307678752,
"velocity": -0.7066982059568052
},
{
"acceleration": 0.8532940135521128,
"curvature": -1.9265499057693967,
"pose": {
"rotation": {
"radians": 0.4898960795645252
},
"translation": {
"x": 10.689856939190888,
"y": 3.3431623393052803
}
},
"time": 4.725920500290682,
"velocity": -0.6500775357964125
},
{
"acceleration": 0.8478397889562987,
"curvature": -2.185866306003717,
"pose": {
"rotation": {
"radians": 0.5346086072221392
},
"translation": {
"x": 10.670870687225607,
"y": 3.332497755373881
}
},
"time": 4.76018937284792,
"velocity": -0.6208361119921407
},
{
"acceleration": 0.8191531957604621,
"curvature": -2.468816224813917,
"pose": {
"rotation": {
"radians": 0.5828946268695046
},
"translation": {
"x": 10.65325292331052,
"y": 3.3214949212372282
}
},
"time": 4.794447776495782,
"velocity": -0.5917904742733573
},
{
"acceleration": 0.7665338456313235,
"curvature": -2.7704985152185304,
"pose": {
"rotation": {
"radians": 0.6348014992415003
},
"translation": {
"x": 10.636980193066163,
"y": 3.3101615400963897
}
},
"time": 4.828772458576819,
"velocity": -0.5636733012532142
},
{
"acceleration": 0.6909119146663655,
"curvature": -3.08252831966077,
"pose": {
"rotation": {
"radians": 0.6902670059494274
},
"translation": {
"x": 10.622025388692398,
"y": 3.2985060610174983
}
},
"time": 4.863216328159842,
"velocity": -0.5372709094433161
},
{
"acceleration": 0.5945535728710826,
"curvature": -3.3925756322314813,
"pose": {
"rotation": {
"radians": 0.749087641736985
},
"translation": {
"x": 10.60835766688645,
"y": 3.2865376939230773
}
},
"time": 4.89779924045256,
"velocity": -0.513377163296415
},
{
"acceleration": 0.48047237367867507,
"curvature": -3.684477501352923,
"pose": {
"rotation": {
"radians": 0.810890598736675
},
"translation": {
"x": 10.595942366760978,
"y": 3.274266424583365
}
},
"time": 4.932499439767146,
"velocity": -0.49274603581458915
},
{
"acceleration": 0.35170172069184885,
"curvature": -3.939216212405157,
"pose": {
"rotation": {
"radians": 0.8751159151650394
},
"translation": {
"x": 10.58474092776211,
"y": 3.261703029607638
}
},
"time": 4.967247389805165,
"velocity": -0.4760506057793545
},
{
"acceleration": 0.21061312976510288,
"curvature": -4.1368896400476975,
"pose": {
"rotation": {
"radians": 0.9410157306505121
},
"translation": {
"x": 10.574710807587502,
"y": 3.2488590914355306
}
},
"time": 5.0019239008650995,
"velocity": -0.46385481717198546
},
{
"acceleration": 0.058415529895908425,
"curvature": -4.2594655181360155,
"pose": {
"rotation": {
"radians": 1.0076758726634845
},
"translation": {
"x": 10.565805400104368,
"y": 3.235747013328357
}
},
"time": 5.036364060567936,
"velocity": -0.4566012673473611
},
{
"acceleration": -0.105131489548491,
"curvature": -4.293714071232872,
"pose": {
"rotation": {
"radians": 1.0740607287077082
},
"translation": {
"x": 10.557973953267565,
"y": 3.2223800343604427
}
},
"time": 5.070367365656851,
"velocity": -0.45461494626237997
},
{
"acceleration": -0.2818685620736351,
"curvature": -4.233469215023306,
"pose": {
"rotation": {
"radians": 1.1390764152295785
},
"translation": {
"x": 10.551161487037588,
"y": 3.20877224441044
}
},
"time": 5.103712854896752,
"velocity": -0.458120607215894
},
{
"acceleration": -0.47541692717651224,
"curvature": -4.080477036257036,
"pose": {
"rotation": {
"radians": 1.201641770837329
},
"translation": {
"x": 10.545308711298665,
"y": 3.1949385991526507
}
},
"time": 5.136176534113731,
"velocity": -0.4672710977964036
},
{
"acceleration": -0.6916141422184202,
"curvature": -3.8435606730645158,
"pose": {
"rotation": {
"radians": 1.2607541038978796
},
"translation": {
"x": 10.54035194377681,
"y": 3.1808949350483546
}
},
"time": 5.167547640957743,
"velocity": -0.48218545301430993
},
{
"acceleration": -0.939492578478331,
"curvature": -3.53643014933564,
"pose": {
"rotation": {
"radians": 1.3155381658912635
},
"translation": {
"x": 10.536223027957826,
"y": 3.166657984337129
}
},
"time": 5.19764068176178,
"velocity": -0.5029982256167382
},
{
"acceleration": -1.2332108409326878,
"curvature": -3.1748749356412285,
"pose": {
"rotation": {
"radians": 1.3652717455599632
},
"translation": {
"x": 10.5328492510054,
"y": 3.1522453900281677
}
},
"time": 5.22630148829028,
"velocity": -0.5299248406434671
},
{
"acceleration": -1.8310448743469794,
"curvature": -2.7741215195976414,
"pose": {
"rotation": {
"radians": 1.4093873315160081
},
"translation": {
"x": 10.530153261679105,
"y": 3.1376757208916146
}
},
"time": 5.2534071685370725,
"velocity": -0.5633518593746674
},
{
"acceleration": -2.0000000000000018,
"curvature": -1.9022611735457413,
"pose": {
"rotation": {
"radians": 1.4791471919518022
},
"translation": {
"x": 10.526461556431217,
"y": 3.1081441519689568
}
},
"time": 5.302344400828091,
"velocity": -0.6529581277258649
},
{
"acceleration": -0.16717611380160416,
"curvature": -4.7077337157470375e-14,
"pose": {
"rotation": {
"radians": 1.5373160191448934
},
"translation": {
"x": 10.523274072841255,
"y": 3.048119409513113
}
},
"time": 5.384151871415736,
"velocity": -0.8165730689011549
},
{
"acceleration": 1.562872150565119,
"curvature": -0.739389787873671,
"pose": {
"rotation": {
"radians": 1.5598044296291815
},
"translation": {
"x": 10.521716166884644,
"y": 2.988044173994486
}
},
"time": 5.457200325231141,
"velocity": -0.8287850255292302
},
{
"acceleration": 1.1786003539412728,
"curvature": -1.4678377988528886,
"pose": {
"rotation": {
"radians": 1.6245239971863852
},
"translation": {
"x": 10.522763727817402,
"y": 2.929196139054101
}
},
"time": 5.533740459385764,
"velocity": -0.7091625814584521
},
{
"acceleration": 0.9875305772850205,
"curvature": -1.8460873820671297,
"pose": {
"rotation": {
"radians": 1.6720653301160544
},
"translation": {
"x": 10.524960796399652,
"y": 2.900567291404281
}
},
"time": 5.575691536394418,
"velocity": -0.6597190272478349
},
{
"acceleration": 0.8102398584358532,
"curvature": -2.2302079988483983,
"pose": {
"rotation": {
"radians": 1.7294847604127475
},
"translation": {
"x": 10.528587809158159,
"y": 2.872623708250379
}
},
"time": 5.619864019941153,
"velocity": -0.6160973490708138
},
{
"acceleration": 0.6356194801239051,
"curvature": -2.6069259558323576,
"pose": {
"rotation": {
"radians": 1.7964199483010803
},
"translation": {
"x": 10.533846686153783,
"y": 2.845467699768835
}
},
"time": 5.666170359948761,
"velocity": -0.5785781066983678
},
{
"acceleration": 0.4599091494758799,
"curvature": -2.9536530945661514,
"pose": {
"rotation": {
"radians": 1.872179486154453
},
"translation": {
"x": 10.540913379849588,
"y": 2.819190768043419
}
},
"time": 5.714482526867581,
"velocity": -0.547869952277768
},
{
"acceleration": 0.32741540262727153,
"curvature": -3.2405319774538945,
"pose": {
"rotation": {
"radians": 1.9556097708155622
},
"translation": {
"x": 10.549938831454952,
"y": 2.793873969178229
}
},
"time": 5.764594695610797,
"velocity": -0.5248229073726837
},
{
"acceleration": 0.23946458935250056,
"curvature": -3.351538243813898,
"pose": {
"rotation": {
"radians": 1.9996962134490899
},
"translation": {
"x": 10.555226656937272,
"y": 2.7815981823919245
}
},
"time": 5.790268371998684,
"velocity": -0.5164169502812215
},
{
"acceleration": 0.15217695565112932,
"curvature": -3.43612431205134,
"pose": {
"rotation": {
"radians": 2.045029365566771
},
"translation": {
"x": 10.561049927269657,
"y": 2.7695882754106753
}
},
"time": 5.816270960485453,
"velocity": -0.5101902511071351
},
{
"acceleration": 0.06600428706867964,
"curvature": -3.4915449807812373,
"pose": {
"rotation": {
"radians": 2.0913245245696244
},
"translation": {
"x": 10.567420901560164,
"y": 2.75785160356915
}
},
"time": 5.8425491906922655,
"velocity": -0.5061913100343629
},
{
"acceleration": -0.018550103099031108,
"curvature": -3.516058983965016,
"pose": {
"rotation": {
"radians": 2.1382775174886337
},
"translation": {
"x": 10.574350455028005,
"y": 2.7463949372244745
}
},
"time": 5.869046072338626,
"velocity": -0.5044424022517517
},
{
"acceleration": -0.1009236215074613,
"curvature": -3.5091106763821487,
"pose": {
"rotation": {
"radians": 2.1855732408665323
},
"translation": {
"x": 10.58184810888932,
"y": 2.7352244730722592
}
},
"time": 5.895702858858819,
"velocity": -0.5049368883899902
},
{
"acceleration": -0.18048466532620785,
"curvature": -3.471402449680153,
"pose": {
"rotation": {
"radians": 2.232895252473328
},
"translation": {
"x": 10.589922060242909,
"y": 2.7243458454626346
}
},
"time": 5.922461276870307,
"velocity": -0.5076374448415201
},
{
"acceleration": -0.25652790200954984,
"curvature": -3.4048451475415926,
"pose": {
"rotation": {
"radians": 2.2799356233799486
},
"translation": {
"x": 10.598579211956,
"y": 2.7137641377162787
}
},
"time": 5.949265816414916,
"velocity": -0.5124752531904518
},
{
"acceleration": -0.32828061448807544,
"curvature": -3.3123943587514524,
"pose": {
"rotation": {
"radians": 2.3264042231772186
},
"translation": {
"x": 10.607825202549998,
"y": 2.703483893440448
}
},
"time": 5.976065867821668,
"velocity": -0.5193502141515741
},
{
"acceleration": -0.3949239683638221,
"curvature": -3.1977991778202988,
"pose": {
"rotation": {
"radians": 2.3720366995093483
},
"translation": {
"x": 10.617664436086233,
"y": 2.6935091278450134
}
},
"time": 6.002817515204796,
"velocity": -0.5281322613930755
},
{
"acceleration": -0.48297703953830473,
"curvature": -3.0653021417821242,
"pose": {
"rotation": {
"radians": 2.4166006048789104
},
"translation": {
"x": 10.628100112051724,
"y": 2.683843339058482
}
},
"time": 6.029484848272548,
"velocity": -0.5386638303938722
},
{
"acceleration": -0.5757971125669626,
"curvature": -2.764227115654439,
"pose": {
"rotation": {
"radians": 2.501774129959241
},
"translation": {
"x": 10.650767745661463,
"y": 2.665450166915564
}
},
"time": 6.082420600276465,
"velocity": -0.5642305831824578
},
{
"acceleration": -0.6363175227366469,
"curvature": -2.44223856543316,
"pose": {
"rotation": {
"radians": 2.5808016456109937
},
"translation": {
"x": 10.67583074344761,
"y": 2.6483224504217757
}
},
"time": 6.13482100734406,
"velocity": -0.5944025862693127
},
{
"acceleration": -0.6637871891768907,
"curvature": -2.125429863400781,
"pose": {
"rotation": {
"radians": 2.6531205513760634
},
"translation": {
"x": 10.703274384977693,
"y": 2.6324707139114416
}
},
"time": 6.18669912369142,
"velocity": -0.6274135407477079
},
{
"acceleration": -0.6611318818355814,
"curvature": -1.8308881175494272,
"pose": {
"rotation": {
"radians": 2.718624920631028
},
"translation": {
"x": 10.733067545662465,
"y": 2.617898294756116
}
},
"time": 6.238159827491745,
"velocity": -0.6615724966763903
},
{
"acceleration": -0.6341540287676597,
"curvature": -1.5675391464862778,
"pose": {
"rotation": {
"radians": 2.777533862165025
},
"translation": {
"x": 10.765163653100009,
"y": 2.6046017054775774
}
},
"time": 6.289363063786135,
"velocity": -0.6954245886437725
},
{
"acceleration": -0.5900612499845562,
"curvature": -1.3382746108884715,
"pose": {
"rotation": {
"radians": 2.8302679922660525
},
"translation": {
"x": 10.799501643419845,
"y": 2.5925709958608145
}
},
"time": 6.3404910917963,
"velocity": -0.7278476335893643
},
{
"acceleration": -0.5359863074764485,
"curvature": -1.1421812851820203,
"pose": {
"rotation": {
"radians": 2.87735140531731
},
"translation": {
"x": 10.83600691762703,
"y": 2.581790115067017
}
},
"time": 6.391723703267197,
"velocity": -0.758078012353855
},
{
"acceleration": -0.4487203015408206,
"curvature": -0.9763147005969425,
"pose": {
"rotation": {
"radians": 2.9193426086644396
},
"translation": {
"x": 10.874592297946256,
"y": 2.572237273746568
}
},
"time": 6.443221822985443,
"velocity": -0.7856802993836174
},
{
"acceleration": -0.34149355649247937,
"curvature": -0.7200475319349282,
"pose": {
"rotation": {
"radians": 2.990209594650596
},
"translation": {
"x": 10.957597509982412,
"y": 2.5567020322511285
}
},
"time": 6.547593091467465,
"velocity": -0.832513806449068
},
{
"acceleration": -0.25503880490640246,
"curvature": -0.5399500653352998,
"pose": {
"rotation": {
"radians": 3.0467798039272926
},
"translation": {
"x": 11.047604622794513,
"y": 2.5456899466549725
}
},
"time": 6.654183878244288,
"velocity": -0.8689138733148168
},
{
"acceleration": -0.1906558362401171,
"curvature": -0.412289094433409,
"pose": {
"rotation": {
"radians": 3.0921885064479677
},
"translation": {
"x": 11.14356092518552,
"y": 2.538857051296973
}
},
"time": 6.763153326931747,
"velocity": -0.896705311279376
},
{
"acceleration": -0.14471807622623084,
"curvature": -0.3201904947527024,
"pose": {
"rotation": {
"radians": 3.128829012125022
},
"translation": {
"x": 11.24430425450643,
"y": 2.535802327190072
}
},
"time": 6.874241363058943,
"velocity": -0.9178848937034789
},
{
"acceleration": -0.11283426236717212,
"curvature": -0.2521620165364516,
"pose": {
"rotation": {
"radians": -3.124697143562335
},
"translation": {
"x": 11.348593599667542,
"y": 2.5360792896369473
}
},
"time": 6.986861114056005,
"velocity": -0.9341830074128508
},
{
"acceleration": -0.09138351466443392,
"curvature": -0.20042791530948403,
"pose": {
"rotation": {
"radians": -3.1007004616140916
},
"translation": {
"x": 11.455139704149744,
"y": 2.539207575845688
}
},
"time": 7.100187370409615,
"velocity": -0.9469700919553434
},
{
"acceleration": -0.07785155102052116,
"curvature": -0.1596417134815349,
"pose": {
"rotation": {
"radians": -3.081402583033579
},
"translation": {
"x": 11.562635669015773,
"y": 2.5446845325454612
}
},
"time": 7.213233690770863,
"velocity": -0.9573006620298359
},
{
"acceleration": -0.07078037623852627,
"curvature": -0.12598978280630266,
"pose": {
"rotation": {
"radians": -3.066111233338413
},
"translation": {
"x": 11.669787555921495,
"y": 2.5519968036021856
}
},
"time": 7.32491810368863,
"velocity": -0.9659954668003004
},
{
"acceleration": -0.0696851371912183,
"curvature": -0.09657922960743104,
"pose": {
"rotation": {
"radians": -3.0543461979647386
},
"translation": {
"x": 11.775344990127179,
"y": 2.5606319176342014
}
},
"time": 7.4341194616809485,
"velocity": -0.9737247800047546
},
{
"acceleration": -0.07507565210839699,
"curvature": -0.06900743256777456,
"pose": {
"rotation": {
"radians": -3.0457988399129023
},
"translation": {
"x": 11.878131763508769,
"y": 2.570089875627942
}
},
"time": 7.539726714811522,
"velocity": -0.9810840359275463
},
{
"acceleration": -0.08863453692580205,
"curvature": -0.04104004909584013,
"pose": {
"rotation": {
"radians": -3.0403052487550113
},
"translation": {
"x": 11.977076437569156,
"y": 2.5798947385536017
}
},
"time": 7.640683100213902,
"velocity": -0.9886634023961367
},
{
"acceleration": 0.0471242348007922,
"curvature": -0.010358557197777883,
"pose": {
"rotation": {
"radians": -3.037827993581898
},
"translation": {
"x": 12.07124294644946,
"y": 2.5896062149808126
}
},
"time": 7.7360270725114315,
"velocity": -0.9971141712293947
},
{
"acceleration": 0.14278148534775023,
"curvature": 0.025613430944867253,
"pose": {
"rotation": {
"radians": -3.038440309248026
},
"translation": {
"x": 12.159861199940293,
"y": 2.5988312486943084
}
},
"time": 7.825571524554737,
"velocity": -0.9928944574461978
},
{
"acceleration": 0.18496297451942198,
"curvature": 0.06970190288879156,
"pose": {
"rotation": {
"radians": -3.0423028029665335
},
"translation": {
"x": 12.242357686493037,
"y": 2.607235606309601
}
},
"time": 7.909596071999359,
"velocity": -0.9808973077563821
},
{
"acceleration": 0.23290394131538283,
"curvature": 0.12448713381532703,
"pose": {
"rotation": {
"radians": -3.0496145164761677
},
"translation": {
"x": 12.31838607623111,
"y": 2.6145554648886478
}
},
"time": 7.98804371473984,
"velocity": -0.9663873984110657
},
{
"acceleration": 0.6478695948888521,
"curvature": 0.1906267025956628,
"pose": {
"rotation": {
"radians": -3.060505290967641
},
"translation": {
"x": 12.38785782396127,
"y": 2.6206089995555235
}
},
"time": 8.060842835824538,
"velocity": -0.9494321961861438
},
{
"acceleration": 2.0,
"curvature": 0.26279250819852185,
"pose": {
"rotation": {
"radians": -3.074816276218324
},
"translation": {
"x": 12.450972772184837,
"y": 2.6253079711120915
}
},
"time": 8.129092602980736,
"velocity": -0.9052152471873989
},
{
"acceleration": 2.0,
"curvature": 0.32936752283796367,
"pose": {
"rotation": {
"radians": -3.109107469903501
},
"translation": {
"x": 12.560557196658145,
"y": 2.6308267221847297
}
},
"time": 8.2732681265786,
"velocity": -0.6168641999916695
},
{
"acceleration": 2.0,
"curvature": 2.881846133598033e-14,
"pose": {
"rotation": {
"radians": -3.1290934456139095
},
"translation": {
"x": 12.655668757981912,
"y": 2.6327178474727333
}
},
"time": 8.581700226574435,
"velocity": -0.0
}
]