[
{
"acceleration": -1.9999999999999998,
"curvature": -0.0,
"pose": {
"rotation": {
"radians": -3.120447769235547
},
"translation": {
"x": 1.5599077690532241,
"y": 3.303272857491838
}
},
"time": 0.0,
"velocity": -0.0
},
{
"acceleration": -1.9999999999999998,
"curvature": -0.04490593804497229,
"pose": {
"rotation": {
"radians": -3.1180947686904137
},
"translation": {
"x": 1.6561229490003213,
"y": 3.305386041859446
}
},
"time": 0.31022311841200023,
"velocity": -0.6204462368240004
},
{
"acceleration": -0.831373552005557,
"curvature": -0.06454811004380588,
"pose": {
"rotation": {
"radians": -3.112384545063749
},
"translation": {
"x": 1.756421043013361,
"y": 3.308013468427716
}
},
"time": 0.44336315315237573,
"velocity": -0.8867263063047514
},
{
"acceleration": -0.02589346921262594,
"curvature": -0.06357198270428879,
"pose": {
"rotation": {
"radians": -3.105345435011915
},
"translation": {
"x": 1.8640868396062302,
"y": 3.311539560268547
}
},
"time": 0.5586202053418811,
"velocity": -0.9825479711772303
},
{
"acceleration": -0.030149448712472573,
"curvature": -0.052136721015254836,
"pose": {
"rotation": {
"radians": -3.09849500133572
},
"translation": {
"x": 1.9815897254045685,
"y": 3.3162169982317753
}
},
"time": 0.6781167367228473,
"velocity": -0.9856421509335589
},
{
"acceleration": -0.02923747236958618,
"curvature": -0.04505034489062208,
"pose": {
"rotation": {
"radians": -3.0954304787497833
},
"translation": {
"x": 2.044593763235295,
"y": 3.3190330856912755
}
},
"time": 0.7420398793676115,
"velocity": -0.9875693984442673
},
{
"acceleration": -0.027003070356333814,
"curvature": -0.03788741419641218,
"pose": {
"rotation": {
"radians": -3.0926909130219666
},
"translation": {
"x": 2.1106444937311615,
"y": 3.322177587455431
}
},
"time": 0.808931510049912,
"velocity": -0.9895251406480976
},
{
"acceleration": -0.024211166654195634,
"curvature": -0.030995501165470108,
"pose": {
"rotation": {
"radians": -3.0903085250500713
},
"translation": {
"x": 2.1798483372624866,
"y": 3.3256498751233643
}
},
"time": 0.8788891282359116,
"velocity": -0.9914142111339357
},
{
"acceleration": -0.02133321356334998,
"curvature": -0.02456361539005239,
"pose": {
"rotation": {
"radians": -3.0882987281028957
},
"translation": {
"x": 2.252272153191335,
"y": 3.3294431238759907
}
},
"time": 0.951975050876892,
"velocity": -0.9931837065870721
},
{
"acceleration": -0.018632856604255666,
"curvature": -0.01867174918235743,
"pose": {
"rotation": {
"radians": -3.0866655588588294
},
"translation": {
"x": 2.3279451401398097,
"y": 3.3335446520544645
}
},
"time": 1.0282167923365235,
"velocity": -0.9948101879400721
},
{
"acceleration": -0.016238065530008026,
"curvature": -0.013329814776670631,
"pose": {
"rotation": {
"radians": -3.0854058893236496
},
"translation": {
"x": 2.4068607362583476,
"y": 3.3379362607386263
}
},
"time": 1.1076077928440078,
"velocity": -0.9962894690681965
},
{
"acceleration": -0.01419452221837919,
"curvature": -0.00850577729130569,
"pose": {
"rotation": {
"radians": -3.084512562389649
},
"translation": {
"x": 2.4889785194940117,
"y": 3.342594573325445
}
},
"time": 1.1901084566983815,
"velocity": -0.997629120254133
},
{
"acceleration": -0.012501944156514688,
"curvature": -0.004144717946856854,
"pose": {
"rotation": {
"radians": -3.083976653832384
},
"translation": {
"x": 2.574226107858786,
"y": 3.347491375107464
}
},
"time": 1.2756474431364633,
"velocity": -0.998843305297666
},
{
"acceleration": 0.009999067050230525,
"curvature": -0.00018102681169982407,
"pose": {
"rotation": {
"radians": -3.083789064423306
},
"translation": {
"x": 2.6625010596978664,
"y": 3.3525939528512483
}
},
"time": 1.3641231518256294,
"velocity": -0.999949423666906
},
{
"acceleration": 0.009982187568286583,
"curvature": 0.003454277359637542,
"pose": {
"rotation": {
"radians": -3.083941620165569
},
"translation": {
"x": 2.7536727739579576,
"y": 3.357865434375828
}
},
"time": 1.4554934955053325,
"velocity": -0.99903580547405
},
{
"acceleration": 0.009133441164836057,
"curvature": 0.006829524576338576,
"pose": {
"rotation": {
"radians": -3.0844278249534884
},
"translation": {
"x": 2.847584390455564,
"y": 3.3632651281311476
}
},
"time": 1.549695338467948,
"velocity": -0.9980954650083189
},
{
"acceleration": 0.008525561983622004,
"curvature": 0.010010523435675961,
"pose": {
"rotation": {
"radians": -3.0852433774361696
},
"translation": {
"x": 2.9440546901452844,
"y": 3.3687488627765045
}
},
"time": 1.6465486694981546,
"velocity": -0.9972108608077361
},
{
"acceleration": 0.008130445712851252,
"curvature": 0.013060057927247551,
"pose": {
"rotation": {
"radians": -3.0863865363197704
},
"translation": {
"x": 3.0428799953881063,
"y": 3.3742693267589994
}
},
"time": 1.7458470321839887,
"velocity": -0.9963642864617859
},
{
"acceleration": 0.007927292877053566,
"curvature": 0.016038238159046033,
"pose": {
"rotation": {
"radians": -3.087858396706153
},
"translation": {
"x": 3.143836070219698,
"y": 3.379776407891982
}
},
"time": 1.8473641814674746,
"velocity": -0.9955389067906131
},
{
"acceleration": 0.00790261175645877,
"curvature": 0.01900338727623451,
"pose": {
"rotation": {
"radians": -3.0896631239634176
},
"translation": {
"x": 3.2466800206187014,
"y": 3.3852175329334946
}
},
"time": 1.9508561071052348,
"velocity": -0.9947184959856723
},
{
"acceleration": 0.008050129790504018,
"curvature": 0.022013282909901587,
"pose": {
"rotation": {
"radians": -3.0918081802096706
},
"translation": {
"x": 3.35115219477503,
"y": 3.3905380071647153
}
},
"time": 2.0560630579040016,
"velocity": -0.9938870862994288
},
{
"acceleration": 0.008370833673279426,
"curvature": 0.025126665686794395,
"pose": {
"rotation": {
"radians": -3.094304570861856
},
"translation": {
"x": 3.4569780833581563,
"y": 3.395681353968409
}
},
"time": 2.1627115750529904,
"velocity": -0.9930285518944146
},
{
"acceleration": 0.008873282195515354,
"curvature": 0.028404994078664897,
"pose": {
"rotation": {
"radians": -3.097167134076124
},
"translation": {
"x": 3.5638702197854095,
"y": 3.4005896544073684
}
},
"time": 2.270516541710147,
"velocity": -0.9921261344493741
},
{
"acceleration": 0.00957430641337141,
"curvature": 0.03191447539255734,
"pose": {
"rotation": {
"radians": -3.100414893688333
},
"translation": {
"x": 3.6715300804902693,
"y": 3.4052038868028607
}
},
"time": 2.379183255533633,
"velocity": -0.991161904032359
},
{
"acceleration": 0.010500214331835482,
"curvature": 0.035728445674828864,
"pose": {
"rotation": {
"radians": -3.104071496047057
},
"translation": {
"x": 3.779649985190656,
"y": 3.4094642663130745
}
},
"time": 2.488409530980551,
"velocity": -0.990116138202839
},
{
"acceleration": 0.011688645025009372,
"curvature": 0.039930213759590875,
"pose": {
"rotation": {
"radians": -3.1081657526896205
},
"translation": {
"x": 3.8879149971572278,
"y": 3.413310584511561
}
},
"time": 2.597887838870191,
"velocity": -0.988966592505311
},
{
"acceleration": 0.013191268550902682,
"curvature": 0.04461653297167349,
"pose": {
"rotation": {
"radians": -3.112732314081173
},
"translation": {
"x": 3.996004823481671,
"y": 3.4166825489656842
}
},
"time": 2.7073074919252855,
"velocity": -0.9876876250219904
},
{
"acceleration": 0.015077606073718103,
"curvature": 0.049901924651597665,
"pose": {
"rotation": {
"radians": -3.117812504711075
},
"translation": {
"x": 4.103595715344998,
"y": 3.4195201228150633
}
},
"time": 2.8163568868069055,
"velocity": -0.9862491251687935
},
{
"acceleration": 0.01744035601252683,
"curvature": 0.05592415846175015,
"pose": {
"rotation": {
"radians": -3.1234553569715318
},
"translation": {
"x": 4.210362368285834,
"y": 3.4217638643500203
}
},
"time": 2.924725815640654,
"velocity": -0.9846151811492074
},
{
"acceleration": 0.020402767080452848,
"curvature": 0.06285130546637935,
"pose": {
"rotation": {
"radians": -3.129718890854472
},
"translation": {
"x": 4.315979822468719,
"y": 3.423355266590022
}
},
"time": 3.0321078633431546,
"velocity": -0.9827424000079217
},
{
"acceleration": 0.024128811074208268,
"curvature": 0.07089093519749763,
"pose": {
"rotation": {
"radians": -3.136671699215897
},
"translation": {
"x": 4.420125362952394,
"y": 3.4242370968621287
}
},
"time": 3.1382029114134813,
"velocity": -0.9805777674537534
},
{
"acceleration": 0.02883719160519475,
"curvature": 0.08030224713817455,
"pose": {
"rotation": {
"radians": 3.1387903921496827
},
"translation": {
"x": 4.5224804199581,
"y": 3.424353736379439
}
},
"time": 3.242719774546408,
"velocity": -0.9780558998091501
},
{
"acceleration": 0.03482058936894163,
"curvature": 0.09141223880584506,
"pose": {
"rotation": {
"radians": 3.130200648353847
},
"translation": {
"x": 4.622732469137867,
"y": 3.4236515198195345
}
},
"time": 3.3453790038404887,
"velocity": -0.9750954959439551
},
{
"acceleration": 0.04247198061319496,
"curvature": 0.1046374581285212,
"pose": {
"rotation": {
"radians": 3.1206302143457374
},
"translation": {
"x": 4.720576931842812,
"y": 3.422079074902923
}
},
"time": 3.445915900010864,
"velocity": -0.9715947419659785
},
{
"acceleration": 0.05232031097243086,
"curvature": 0.12051352638509612,
"pose": {
"rotation": {
"radians": 3.109943062113612
},
"translation": {
"x": 4.815719075391428,
"y": 3.4195876619714882
}
},
"time": 3.5440837924877524,
"velocity": -0.9674253571398619
},
{
"acceleration": 0.06507807342339803,
"curvature": 0.1397355337917864,
"pose": {
"rotation": {
"radians": 3.0979764934780403
},
"translation": {
"x": 4.907875913337879,
"y": 3.416131513566934
}
},
"time": 3.639657656299992,
"velocity": -0.9624249028643688
},
{
"acceleration": 0.08170296054588087,
"curvature": 0.16321371898898435,
"pose": {
"rotation": {
"radians": 3.0845350853423597
},
"translation": {
"x": 4.996778105740297,
"y": 3.4116681740092263
}
},
"time": 3.732438158936247,
"velocity": -0.9563869265015468
},
{
"acceleration": 0.10347369735954547,
"curvature": 0.19215069778243715,
"pose": {
"rotation": {
"radians": 3.069383040933093
},
"translation": {
"x": 5.082171859429074,
"y": 3.406158838975043
}
},
"time": 3.8222562544613843,
"velocity": -0.9490485221865503
},
{
"acceleration": 0.13207426509278844,
"curvature": 0.22814908084912633,
"pose": {
"rotation": {
"radians": 3.052234516961161
},
"translation": {
"x": 5.16382082827515,
"y": 3.3995686950762165
}
},
"time": 3.9089784718114498,
"velocity": -0.9400750537141209
},
{
"acceleration": 0.1696669159396144,
"curvature": 0.2733617569562196,
"pose": {
"rotation": {
"radians": 3.032741404687031
},
"translation": {
"x": 5.241508013458313,
"y": 3.39186725943818
}
},
"time": 3.9925130762512846,
"velocity": -0.929042282222913
},
{
"acceleration": 0.2189057354305183,
"curvature": 0.33070135062712885,
"pose": {
"rotation": {
"radians": 3.0104779669737445
},
"translation": {
"x": 5.315037663735495,
"y": 3.383028719278415
}
},
"time": 4.0728173109553945,
"velocity": -0.9154173103837757
},
{
"acceleration": 0.28278960160738487,
"curvature": 0.4041296452816635,
"pose": {
"rotation": {
"radians": 2.9849217259242184
},
"translation": {
"x": 5.384237175709053,
"y": 3.373032271484891
}
},
"time": 4.149905933819356,
"velocity": -0.8985421687024144
},
{
"acceleration": 0.4126416600209459,
"curvature": 0.499049512835453,
"pose": {
"rotation": {
"radians": 2.9554301728015866
},
"translation": {
"x": 5.448958994095076,
"y": 3.3618624621945177
}
},
"time": 4.223861218457475,
"velocity": -0.8776283832228399
},
{
"acceleration": 0.5824663990614604,
"curvature": 0.7853324295198397,
"pose": {
"rotation": {
"radians": 2.881304893085487
},
"translation": {
"x": 5.564515971147266,
"y": 3.335969727386214
}
},
"time": 4.363371250908994,
"velocity": -0.8200607318424691
},
{
"acceleration": 0.7097020877411017,
"curvature": 0.9996523246179169,
"pose": {
"rotation": {
"radians": 2.834533910159514
},
"translation": {
"x": 5.615198362228885,
"y": 3.3212456965927935
}
},
"time": 4.429272046625828,
"velocity": -0.7816757326659998
},
{
"acceleration": 0.8292436277451967,
"curvature": 1.282153203248302,
"pose": {
"rotation": {
"radians": 2.7795139636534816
},
"translation": {
"x": 5.661101325090456,
"y": 3.305346772908436
}
},
"time": 4.4932782813460586,
"velocity": -0.7362503742566048
},
{
"acceleration": 0.9146324851764175,
"curvature": 1.651478481846966,
"pose": {
"rotation": {
"radians": 2.7146689386062195
},
"translation": {
"x": 5.702231049041108,
"y": 3.2882893423914155
}
},
"time": 4.555968943561656,
"velocity": -0.684264542095194
},
{
"acceleration": 0.9404271964466092,
"curvature": 2.124462894743377,
"pose": {
"rotation": {
"radians": 2.6383426023581245
},
"translation": {
"x": 5.738630173113453,
"y": 3.2700971778196166
}
},
"time": 4.618009852902837,
"velocity": -0.6275199110018654
},
{
"acceleration": 0.9305556296294273,
"curvature": 2.4023537175408323,
"pose": {
"rotation": {
"radians": 2.5953941638450075
},
"translation": {
"x": 5.755079519258366,
"y": 3.2605851026305395
}
},
"time": 4.649010440708405,
"velocity": -0.5983661151236777
},
{
"acceleration": 0.8980739672797615,
"curvature": 2.7063791900040135,
"pose": {
"rotation": {
"radians": 2.5490591021293305
},
"translation": {
"x": 5.77037968633188,
"y": 3.2508017782689755
}
},
"time": 4.680113016981293,
"velocity": -0.5694234376769631
},
{
"acceleration": 0.8427894501761354,
"curvature": 3.03250504543393,
"pose": {
"rotation": {
"radians": 2.499261135096728
},
"translation": {
"x": 5.784547101911032,
"y": 3.240752405065579
}
},
"time": 4.711388331593529,
"velocity": -0.5413358918052301
},
{
"acceleration": 0.7659927223020649,
"curvature": 3.3734694537927807,
"pose": {
"rotation": {
"radians": 2.446010382646163
},
"translation": {
"x": 5.797600827980865,
"y": 3.2304427086919345
}
},
"time": 4.742888404889778,
"velocity": -0.5147879623513765
},
{
"acceleration": 0.6701699430592868,
"curvature": 3.7182228500062293,
"pose": {
"rotation": {
"radians": 2.389430548164325
},
"translation": {
"x": 5.809562620317857,
"y": 3.2198789507723893
}
},
"time": 4.774638778998009,
"velocity": -0.4904674068541041
},
{
"acceleration": 0.5584778223061432,
"curvature": 4.051797720407964,
"pose": {
"rotation": {
"radians": 2.3297847420116318
},
"translation": {
"x": 5.82045698787325,
"y": 3.209067939495876
}
},
"time": 4.806630898238714,
"velocity": -0.46902725012421487
},
{
"acceleration": 0.4341097278952861,
"curvature": 4.355891525056307,
"pose": {
"rotation": {
"radians": 2.2674951741884506
},
"translation": {
"x": 5.830311252156475,
"y": 3.198017040227742
}
},
"time": 4.838815886487972,
"velocity": -0.4510526479758204
},
{
"acceleration": 0.29970555650814584,
"curvature": 4.610359561976548,
"pose": {
"rotation": {
"radians": 2.203151066796649
},
"translation": {
"x": 5.839155606618521,
"y": 3.1867341861215746
}
},
"time": 4.871101260208332,
"velocity": -0.4370372531750777
},
{
"acceleration": 0.15692522987345256,
"curvature": 4.795578058362846,
"pose": {
"rotation": {
"radians": 2.137499635178052
},
"translation": {
"x": 5.847023176035323,
"y": 3.175227888731026
}
},
"time": 4.903352023436125,
"velocity": -0.4273715202340794
},
{
"acceleration": 0.006232861001223038,
"curvature": 4.8952918486093315,
"pose": {
"rotation": {
"radians": 2.071417407647182
},
"translation": {
"x": 5.853950075891147,
"y": 3.163507248621645
}
},
"time": 4.935396972554829,
"velocity": -0.4223428592273437
},
{
"acceleration": -0.15314277022637118,
"curvature": 4.899251077037025,
"pose": {
"rotation": {
"radians": 2.0058633308598246
},
"translation": {
"x": 5.859975471761958,
"y": 3.1515819659826914
}
},
"time": 4.967039923346773,
"velocity": -0.422145633113389
},
{
"acceleration": -0.3231696150217942,
"curvature": 4.80486108729776,
"pose": {
"rotation": {
"radians": 1.9418198810162548
},
"translation": {
"x": 5.865141638698825,
"y": 3.1394623512389774
}
},
"time": 4.998074268598061,
"velocity": -0.4268983187173328
},
{
"acceleration": -0.5070309607291714,
"curvature": 4.6173259356984,
"pose": {
"rotation": {
"radians": 1.8802319442931268
},
"translation": {
"x": 5.869494020611302,
"y": 3.127159335662686
}
},
"time": 5.028298286019941,
"velocity": -0.43666580279197403
},
{
"acceleration": -0.7093553446407406,
"curvature": 4.348268782261226,
"pose": {
"rotation": {
"radians": 1.821953982277427
},
"translation": {
"x": 5.873081289650806,
"y": 3.1146844819851953
}
},
"time": 5.057528385223329,
"velocity": -0.45148636807327697
},
{
"acceleration": -0.9368328706599547,
"curvature": 4.013309777737212,
"pose": {
"rotation": {
"radians": 1.7677136133242262
},
"translation": {
"x": 5.875955405594002,
"y": 3.102049995008911
}
},
"time": 5.085608115038152,
"velocity": -0.47140487449348945
},
{
"acceleration": -1.3567497194935716,
"curvature": 3.6293323473774413,
"pose": {
"rotation": {
"radians": 1.7180953099485987
},
"translation": {
"x": 5.878171675226177,
"y": 3.0892687322190904
}
},
"time": 5.112411950050946,
"velocity": -0.49651558819322145
},
{
"acceleration": -1.9999999999999811,
"curvature": 2.774602525279331,
"pose": {
"rotation": {
"radians": 1.6343792643727606
},
"translation": {
"x": 5.880868994042153,
"y": 3.0633206362250727
}
},
"time": 5.161642564789664,
"velocity": -0.5633092109304731
},
{
"acceleration": -1.9999999999999902,
"curvature": 1.8724889750314748,
"pose": {
"rotation": {
"radians": 1.5730574364851295
},
"translation": {
"x": 5.881684897122367,
"y": 3.0369565107916197
}
},
"time": 5.20511264965317,
"velocity": -0.6502493806574834
},
{
"acceleration": -0.4997595293856247,
"curvature": 3.4864261251518686e-16,
"pose": {
"rotation": {
"radians": 1.522446940142983
},
"translation": {
"x": 5.880007723811955,
"y": 2.9835013887512885
}
},
"time": 5.278971030120406,
"velocity": -0.7979661415919537
},
{
"acceleration": 1.7632461508899453,
"curvature": 0.7288830878296739,
"pose": {
"rotation": {
"radians": 1.5027300035674311
},
"translation": {
"x": 5.877067586423149,
"y": 2.9300672628220195
}
},
"time": 5.344683035663208,
"velocity": -0.83080634255701
},
{
"acceleration": 1.3535936623295255,
"curvature": 1.4551797052748994,
"pose": {
"rotation": {
"radians": 1.4457736125820484
},
"translation": {
"x": 5.872181494406276,
"y": 2.8778935101846255
}
},
"time": 5.412660303583846,
"velocity": -0.7109456865479318
},
{
"acceleration": 1.1561811765575707,
"curvature": 1.8394243319036634,
"pose": {
"rotation": {
"radians": 1.4037488985929596
},
"translation": {
"x": 5.868485562987037,
"y": 2.8526216128659128
}
},
"time": 5.449905909279467,
"velocity": -0.660530270728715
},
{
"acceleration": 0.9765281304425648,
"curvature": 2.2390509764516118,
"pose": {
"rotation": {
"radians": 1.3527466268069894
},
"translation": {
"x": 5.8637163829660395,
"y": 2.8280506895225175
}
},
"time": 5.4891465802624975,
"velocity": -0.6151609455826468
},
{
"acceleration": 0.8012469153563413,
"curvature": 2.646118496566197,
"pose": {
"rotation": {
"radians": 1.2928852548301986
},
"translation": {
"x": 5.857719919214915,
"y": 2.80428409014194
}
},
"time": 5.530338874839565,
"velocity": -0.5749355111706634
},
{
"acceleration": 0.6248414774451754,
"curvature": 3.0437456798211775,
"pose": {
"rotation": {
"radians": 1.2244953142313637
},
"translation": {
"x": 5.850360893851833,
"y": 2.781413723591859
}
},
"time": 5.573419730560243,
"velocity": -0.5404171084135588
},
{
"acceleration": 0.44650634806695744,
"curvature": 3.4059814947060842,
"pose": {
"rotation": {
"radians": 1.1482483523793305
},
"translation": {
"x": 5.84152211153524,
"y": 2.759520450682956
}
},
"time": 5.618271467787959,
"velocity": -0.51239188265821
},
{
"acceleration": 0.31220873221025647,
"curvature": 3.7004507614209943,
"pose": {
"rotation": {
"radians": 1.065260128684991
},
"translation": {
"x": 5.831103784757612,
"y": 2.738674477231731
}
},
"time": 5.664691999929708,
"velocity": -0.4916648203762727
},
{
"acceleration": 0.2231916639514425,
"curvature": 3.8118680601528867,
"pose": {
"rotation": {
"radians": 1.021719451658509
},
"translation": {
"x": 5.825275702513432,
"y": 2.7286633503757347
}
},
"time": 5.688431714993848,
"velocity": -0.4842530740330649
},
{
"acceleration": 0.1348649314554,
"curvature": 3.894582795081946,
"pose": {
"rotation": {
"radians": 0.9771283096312141
},
"translation": {
"x": 5.819022859139195,
"y": 2.7189357471233198
}
},
"time": 5.712444512012583,
"velocity": -0.47889361791032514
},
{
"acceleration": 0.04757734305272417,
"curvature": 3.945939816960369,
"pose": {
"rotation": {
"radians": 0.9317511609338193
},
"translation": {
"x": 5.81233737669465,
"y": 2.709497621520219
}
},
"time": 5.736678849653326,
"velocity": -0.47562525562553937
},
{
"acceleration": -0.03829295575578623,
"curvature": 3.9643524210529986,
"pose": {
"rotation": {
"radians": 0.8858682712214886
},
"translation": {
"x": 5.805212338721753,
"y": 2.7003543353743105
}
},
"time": 5.761079977093234,
"velocity": -0.4744643148144576
},
{
"acceleration": -0.12231979307188877,
"curvature": 3.949458736866999,
"pose": {
"rotation": {
"radians": 0.83976795661713
},
"translation": {
"x": 5.797641769160091,
"y": 2.6915106705388263
}
},
"time": 5.785591769681769,
"velocity": -0.47540294380354536
},
{
"acceleration": -0.2040093362522932,
"curvature": 3.902169546071659,
"pose": {
"rotation": {
"radians": 0.7937380949153755
},
"translation": {
"x": 5.789620611262314,
"y": 2.6829708411955666
}
},
"time": 5.810158752450692,
"velocity": -0.4784079720522407
},
{
"acceleration": -0.28278565192840904,
"curvature": 3.8245994061169197,
"pose": {
"rotation": {
"radians": 0.748057571752834
},
"translation": {
"x": 5.781144706509567,
"y": 2.6747385061381124
}
},
"time": 5.834728136880699,
"velocity": -0.4834203558619337
},
{
"acceleration": -0.357986866166203,
"curvature": 3.719891694536792,
"pose": {
"rotation": {
"radians": 0.7029883357802271
},
"translation": {
"x": 5.772210773526915,
"y": 2.666816781055039
}
},
"time": 5.859251694709819,
"velocity": -0.49035526615024544
},
{
"acceleration": -0.42887566453942233,
"curvature": 3.591964418151384,
"pose": {
"rotation": {
"radians": 0.6587686486014686
},
"translation": {
"x": 5.762816386998775,
"y": 2.65920825081313
}
},
"time": 5.8836873166451715,
"velocity": -0.49910289786970435
},
{
"acceleration": -0.5249823951898978,
"curvature": 3.445213568371184,
"pose": {
"rotation": {
"radians": 0.6156079511320226
},
"translation": {
"x": 5.752959956584346,
"y": 2.651914981740587
}
},
"time": 5.908000148205357,
"velocity": -0.5095300796619137
},
{
"acceleration": -0.6311186631557046,
"curvature": 3.113442322867649,
"pose": {
"rotation": {
"radians": 0.5331392217689943
},
"translation": {
"x": 5.731858651099899,
"y": 2.6382799734227964
}
},
"time": 5.956114299512251,
"velocity": -0.5347891620575361
},
{
"acceleration": -0.7071398473102467,
"curvature": 2.758803877818939,
"pose": {
"rotation": {
"radians": 0.45660041654135974
},
"translation": {
"x": 5.708910032629112,
"y": 2.6259183827177948
}
},
"time": 6.003528875640102,
"velocity": -0.5647133859574398
},
{
"acceleration": -0.7506161748300768,
"curvature": 2.408585828488888,
"pose": {
"rotation": {
"radians": 0.3865098805620936
},
"translation": {
"x": 5.684129286911514,
"y": 2.6148293257500734
}
},
"time": 6.050238075939058,
"velocity": -0.5977433227248272
},
{
"acceleration": -0.76252026162372,
"curvature": 2.081033374319152,
"pose": {
"rotation": {
"radians": 0.3229757388923942
},
"translation": {
"x": 5.65754293516437,
"y": 2.605004801215302
}
},
"time": 6.0963221807599375,
"velocity": -0.6323347972059444
},
{
"acceleration": -0.7469802975205011,
"curvature": 1.7860551510733054,
"pose": {
"rotation": {
"radians": 0.2658101259035417
},
"translation": {
"x": 5.629188159376431,
"y": 2.5964300834431464
}
},
"time": 6.14191574243009,
"velocity": -0.6671008117790261
},
{
"acceleration": -0.7102100580371669,
"curvature": 1.5272509777798315,
"pose": {
"rotation": {
"radians": 0.21463772585006613
},
"translation": {
"x": 5.599112127601674,
"y": 2.589084115460089
}
},
"time": 6.18717871786864,
"velocity": -0.7009113626387775
},
{
"acceleration": -0.6292251840908176,
"curvature": 1.30411889313338,
"pose": {
"rotation": {
"radians": 0.16898336675667183
},
"translation": {
"x": 5.567371319253051,
"y": 2.582939902052245
}
},
"time": 6.232274122131453,
"velocity": -0.7329385723174788
},
{
"acceleration": -0.5083483598761664,
"curvature": 0.9526797866048425,
"pose": {
"rotation": {
"radians": 0.0921848524284438
},
"translation": {
"x": 5.4991637990433615,
"y": 2.5741214252817315
}
},
"time": 6.322606398544934,
"velocity": -0.7897779155730942
},
{
"acceleration": -0.39679395930351824,
"curvature": 0.7014729807384391,
"pose": {
"rotation": {
"radians": 0.03150304876731395
},
"translation": {
"x": 5.4251780223927994,
"y": 2.569654863000266
}
},
"time": 6.413780869173763,
"velocity": -0.8361263081798371
},
{
"acceleration": -0.30681643020648836,
"curvature": 0.5214527950744927,
"pose": {
"rotation": {
"radians": -0.016379545784294996
},
"translation": {
"x": 5.346132213490113,
"y": 2.5691505692509855
}
},
"time": 6.506290263724125,
"velocity": -0.8728334771162467
},
{
"acceleration": -0.23959123932859103,
"curvature": 0.3903595114617785,
"pose": {
"rotation": {
"radians": -0.05406415703857158
},
"translation": {
"x": 5.262828806467219,
"y": 2.5721616202616735
}
},
"time": 6.600241404800268,
"velocity": -0.9016592308350553
},
{
"acceleration": -0.19193660666655415,
"curvature": 0.29244193091787135,
"pose": {
"rotation": {
"radians": -0.0835138542861291
},
"translation": {
"x": 5.176132854799073,
"y": 2.578196392454932
}
},
"time": 6.695422001391065,
"velocity": -0.9244636679322787
},
{
"acceleration": -0.1599357138923371,
"curvature": 0.21681974478288774,
"pose": {
"rotation": {
"radians": -0.10617804097300734
},
"translation": {
"x": 5.086950440703519,
"y": 2.5867311404583564
}
},
"time": 6.791376306069162,
"velocity": -0.9428808115672412
},
{
"acceleration": -0.14037620500422024,
"curvature": 0.15593627147337227,
"pose": {
"rotation": {
"radians": -0.12310764930545681
},
"translation": {
"x": 4.996207084541156,
"y": 2.5972225751147064
}
},
"time": 6.887474708022251,
"velocity": -0.9582503780875213
},
{
"acceleration": -0.13113601745576883,
"curvature": 0.10440450375647632,
"pose": {
"rotation": {
"radians": -0.1350468924606788
},
"translation": {
"x": 4.904826154215204,
"y": 2.60912044149208
}
},
"time": 6.982973871003899,
"velocity": -0.9716561881679646
},
{
"acceleration": -0.1311749878522041,
"curvature": 0.05821389378896851,
"pose": {
"rotation": {
"radians": -0.14250241568864255
},
"translation": {
"x": 4.813707274571353,
"y": 2.621880096894083
}
},
"time": 7.077068271002287,
"velocity": -0.9839953530486434
},
{
"acceleration": 0.04936083088402449,
"curvature": 0.014207934158158526,
"pose": {
"rotation": {
"radians": -0.14579525915042663
},
"translation": {
"x": 4.7237047367976395,
"y": 2.6349750888700063
}
},
"time": 7.168935223143871,
"velocity": -0.9960459993798346
},
{
"acceleration": 0.14567478715621784,
"curvature": -0.030233630836072334,
"pose": {
"rotation": {
"radians": -0.14510229280134357
},
"translation": {
"x": 4.635605907824293,
"y": 2.6479097332249957
}
},
"time": 7.258530900435448,
"velocity": -0.9916234823051054
},
{
"acceleration": 0.15897171047907596,
"curvature": -0.07732754401874137,
"pose": {
"rotation": {
"radians": -0.14049464641515916
},
"translation": {
"x": 4.5501096397236065,
"y": 2.660231692030223
}
},
"time": 7.346204824909484,
"velocity": -0.9788516020182
},
{
"acceleration": 0.17544968297280875,
"curvature": -0.12879445329063322,
"pose": {
"rotation": {
"radians": -0.13198240699657932
},
"translation": {
"x": 4.467804679109796,
"y": 2.6715445516330645
}
},
"time": 7.4316717265996575,
"velocity": -0.9652647824671661
},
{
"acceleration": 0.1892303567634491,
"curvature": -0.1854247443799846,
"pose": {
"rotation": {
"radians": -0.11957802345267174
},
"translation": {
"x": 4.3891480765388575,
"y": 2.6815204006672673
}
},
"time": 7.514434061461873,
"velocity": -0.9507441570535009
},
{
"acceleration": 0.1890677502088066,
"curvature": -0.2461048200750664,
"pose": {
"rotation": {
"radians": -0.10339514501958923
},
"translation": {
"x": 4.3144435959084335,
"y": 2.6899124080631225
}
},
"time": 7.594135194582768,
"velocity": -0.9356622831985829
},
{
"acceleration": 0.15555632095117639,
"curvature": -0.3060874103936179,
"pose": {
"rotation": {
"radians": -0.08380272529181024
},
"translation": {
"x": 4.24382012385767,
"y": 2.696567401057643
}
},
"time": 7.6705390240902585,
"velocity": -0.9212167830462645
},
{
"acceleration": 1.5292163955970797,
"curvature": -0.3545425266320533,
"pose": {
"rotation": {
"radians": -0.061649353730474976
},
"translation": {
"x": 4.177210079167081,
"y": 2.701438443204733
}
},
"time": 7.743487990181759,
"velocity": -0.9098691102638786
},
{
"acceleration": 2.0000000000000004,
"curvature": -0.3329416023774648,
"pose": {
"rotation": {
"radians": -0.01712662710216878
},
"translation": {
"x": 4.054648064094479,
"y": 2.706247578817722
}
},
"time": 7.89848253573413,
"velocity": -0.6728489099770733
},
{
"acceleration": 2.0000000000000004,
"curvature": 1.137780725941486e-14,
"pose": {
"rotation": {
"radians": 0.005181300784227251
},
"translation": {
"x": 3.941467100956789,
"y": 2.706567014057698
}
},
"time": 8.234906990722667,
"velocity": -0.0
}
]